%YAML 1.1
%TAG !u! tag:unity3d.com,2011:
--- !u!1001 &100100000
Prefab:
  m_ObjectHideFlags: 1
  serializedVersion: 2
  m_Modification:
    m_TransformParent: {fileID: 0}
    m_Modifications: []
    m_RemovedComponents: []
  m_ParentPrefab: {fileID: 0}
  m_RootGameObject: {fileID: 1182700329016460}
  m_IsPrefabParent: 1
--- !u!1 &1182700329016460
GameObject:
  m_ObjectHideFlags: 0
  m_PrefabParentObject: {fileID: 0}
  m_PrefabInternal: {fileID: 100100000}
  serializedVersion: 5
  m_Component:
  - component: {fileID: 4527339765688894}
  - component: {fileID: 114140573166024804}
  m_Layer: 0
  m_Name: SpawnPoint
  m_TagString: Untagged
  m_Icon: {fileID: 0}
  m_NavMeshLayer: 0
  m_StaticEditorFlags: 0
  m_IsActive: 1
--- !u!4 &4527339765688894
Transform:
  m_ObjectHideFlags: 1
  m_PrefabParentObject: {fileID: 0}
  m_PrefabInternal: {fileID: 100100000}
  m_GameObject: {fileID: 1182700329016460}
  m_LocalRotation: {x: -0, y: -0, z: -0, w: 1}
  m_LocalPosition: {x: 17.48, y: 0, z: 0.85}
  m_LocalScale: {x: 1, y: 1, z: 1}
  m_Children: []
  m_Father: {fileID: 0}
  m_RootOrder: 0
  m_LocalEulerAnglesHint: {x: 0, y: 0, z: 0}
--- !u!114 &114140573166024804
MonoBehaviour:
  m_ObjectHideFlags: 1
  m_PrefabParentObject: {fileID: 0}
  m_PrefabInternal: {fileID: 100100000}
  m_GameObject: {fileID: 1182700329016460}
  m_Enabled: 1
  m_EditorHideFlags: 0
  m_Script: {fileID: 11500000, guid: 94d2804a16fd8504c8562cfee913a8ba, type: 3}
  m_Name: 
  m_EditorClassIdentifier: 
  currentButtonID: 0
  currentPlayer: 0
  BButtonSelectorGO: {fileID: 1919316275082738, guid: 9f5f03f7254a05a48a1b893e286e0abf,
    type: 2}
  YButtonSelectorGO: {fileID: 1939402838990498, guid: e772cc23a7caacc41ad9be0e89b27b58,
    type: 2}
  XButtonSelectorGO: {fileID: 1751326410360696, guid: 560b4eef644f32a46a51c9ecf2ab207c,
    type: 2}
