# Blender v2.78 (sub 0) OBJ File: ''
# www.blender.org
o Group32561.001
v -0.034728 0.363622 0.067007
v -0.051723 0.358196 0.045234
v -0.068181 0.352908 0.068700
v -0.038094 0.362731 0.089157
v -0.016890 0.369154 0.090894
v -0.013842 0.370053 0.061257
v -0.024049 0.366369 0.034394
v 0.099469 0.348358 0.058156
v 0.110111 0.342994 0.087175
v 0.136316 0.334867 0.077630
v 0.115417 0.343650 0.044858
v 0.075524 0.357737 0.034900
v 0.069109 0.358528 0.055702
v 0.027798 0.284186 -0.214042
v 0.024815 0.334393 -0.097202
v 0.114306 0.328576 -0.065536
v 0.153284 0.288784 -0.144346
v 0.207078 0.241083 -0.201002
v 0.111672 0.233881 -0.273057
v -0.100951 0.295728 -0.211810
v -0.065773 0.333271 -0.099663
v -0.242204 0.184104 -0.326497
v -0.226816 0.189229 -0.339483
v -0.256566 0.130955 -0.344974
v -0.274801 0.148660 -0.319523
v -0.233175 0.218321 -0.287327
v -0.207121 0.224484 -0.300562
v -0.265260 0.184958 -0.257460
v -0.055071 0.145027 0.371068
v -0.066595 0.191710 0.358056
v -0.134285 0.167588 0.340983
v -0.091933 0.106315 0.368228
v -0.024502 0.051959 0.386531
v -0.003210 0.124425 0.383888
v 0.000757 0.183738 0.361737
v 0.284282 0.165835 -0.201478
v 0.275296 0.194406 -0.179675
v 0.306996 0.175697 -0.148036
v 0.303709 0.138655 -0.187232
v 0.277723 0.107502 -0.245324
v 0.249973 0.160344 -0.247215
v -0.226672 0.111267 0.303487
v -0.207134 0.190679 0.235035
v -0.292076 0.161228 0.169636
v -0.312851 0.095570 0.215499
v -0.125608 0.223857 0.279101
v -0.274761 0.039867 0.307685
v -0.186272 -0.018068 0.358845
v -0.145380 0.044579 0.364877
v -0.319942 0.055367 0.243684
v 0.095725 0.100638 -0.417447
v 0.131286 0.124401 -0.377751
v 0.159381 0.047856 -0.382239
v 0.103443 0.041537 -0.430677
v 0.063806 0.126521 -0.422831
v 0.093577 0.168358 -0.372470
v 0.053993 0.051904 -0.450808
v -0.372224 0.077156 0.151021
v -0.348617 0.029129 0.212902
v -0.292207 -0.011560 0.290758
v 0.360906 0.052674 -0.069707
v 0.353412 0.081635 -0.086344
v 0.349605 0.102599 -0.021991
v 0.354832 0.052543 -0.011468
v 0.349692 -0.021158 -0.019359
v 0.357007 0.008384 -0.094837
v 0.355032 0.044025 -0.134943
v -0.399048 0.021188 0.051260
v -0.331023 0.137628 0.093293
v -0.353907 0.098168 -0.013509
v -0.417509 -0.046449 0.031431
v -0.361734 -0.074648 0.142183
v -0.362220 -0.025399 0.167454
v -0.050496 -0.111171 -0.466890
v -0.089107 -0.008929 -0.447464
v -0.001018 -0.026074 -0.470837
v 0.036812 -0.091268 -0.466410
v -0.207665 -0.053097 -0.414487
v -0.203873 0.024091 -0.397021
v -0.067751 -0.175260 -0.434995
v -0.211690 -0.108294 -0.405662
v 0.074944 -0.080479 -0.464002
v 0.122594 -0.094225 -0.427563
v 0.114455 -0.123116 -0.421004
v 0.329258 -0.124873 -0.052497
v 0.315348 -0.128414 0.070703
v 0.292681 -0.209929 0.067384
v 0.309953 -0.215663 -0.017370
v 0.270652 -0.233657 -0.094155
v 0.279911 -0.177198 -0.158824
v 0.277686 -0.119117 -0.221797
v 0.333324 -0.061723 -0.142281
v 0.096003 -0.237267 -0.351310
v 0.098830 -0.165082 -0.403489
v 0.197461 -0.156256 -0.315101
v 0.200748 -0.210748 -0.253669
v 0.037507 -0.267494 -0.331356
v -0.085003 -0.207672 -0.404685
v -0.356502 -0.103229 -0.195493
v -0.305920 -0.139284 -0.236792
v -0.302926 -0.161533 -0.140835
v -0.365276 -0.109049 -0.114013
v -0.405601 -0.067623 -0.113925
v -0.384729 -0.071690 -0.221300
v -0.323294 -0.110467 -0.296205
v 0.291877 -0.255458 0.001430
v 0.269157 -0.253431 0.058799
v 0.225089 -0.282865 0.023460
v 0.258721 -0.277705 -0.042376
v -0.221379 -0.236560 0.256752
v -0.254033 -0.224831 0.193521
v -0.190124 -0.280875 0.179155
v -0.174654 -0.272612 0.269746
v -0.230609 -0.210291 0.293193
v -0.282760 -0.174802 0.217087
v -0.167983 -0.252066 0.331872
v -0.067090 -0.362628 0.251310
v -0.054744 -0.351773 0.272767
v -0.077494 -0.323213 0.316261
v -0.088057 -0.341743 0.266822
v 0.037151 -0.344333 -0.218589
v 0.065424 -0.343435 -0.229122
v 0.075958 -0.371029 -0.153128
v 0.034913 -0.359598 -0.161683
v -0.019036 -0.313134 -0.264325
v 0.005072 -0.288742 -0.305003
v -0.032794 -0.327343 -0.186235
v -0.046178 -0.343694 -0.079277
v -0.130159 -0.303566 -0.081217
v -0.125891 -0.278090 -0.208200
v -0.116688 -0.257639 -0.308548
v 0.016438 -0.369833 -0.071659
v -0.013903 -0.374475 0.046128
v -0.063543 -0.354370 0.045263
v 0.051963 -0.373825 -0.065204
v 0.014511 -0.375893 0.051113
v -0.025271 -0.373411 0.177030
v -0.046629 -0.373142 0.169174
v 0.080319 -0.361545 -0.057169
v 0.039112 -0.363491 0.060196
v -0.004561 -0.360159 0.188715
v -0.035570 -0.333276 0.287694
v 0.074876 -0.345102 0.073299
v 0.027200 -0.340615 0.199488
v -0.007499 -0.313556 0.296655
v -0.039171 -0.284615 0.346930
v -0.065004 -0.302716 0.335514
v 0.073441 -0.311152 0.215366
v 0.027879 -0.288681 0.307374
v -0.009252 -0.265780 0.356963
v -0.059349 -0.231065 0.383417
v -0.080940 -0.254868 0.375139
v 0.068204 -0.260326 0.318569
v 0.024505 -0.240224 0.368579
v -0.033852 -0.198931 0.390722
v -0.118581 -0.140618 0.385278
v -0.137224 -0.178259 0.382412
v 0.061467 -0.201542 0.382698
v -0.003031 -0.154190 0.396213
v -0.093060 -0.088861 0.388753
v -0.210645 -0.071169 0.354846
v 0.028601 -0.089506 0.400520
v -0.058461 -0.027711 0.388747
v 0.053123 0.005754 0.399211
v 0.098024 -0.136925 0.399014
v 0.119150 -0.036589 0.389056
v 0.136674 0.068059 0.375114
v 0.071334 0.097372 0.395024
v 0.149648 0.146262 0.338222
v 0.081617 0.161527 0.353071
v 0.156387 0.212063 0.291607
v 0.092400 0.222241 0.306156
v 0.005357 0.234274 0.311316
v -0.062512 0.243537 0.308498
v 0.090469 0.283563 0.227909
v 0.013946 0.295294 0.227582
v -0.043400 0.305148 0.226202
v -0.096570 0.290999 0.208049
v 0.020279 0.346112 0.144943
v -0.025494 0.353540 0.145300
v -0.065391 0.347673 0.140580
v -0.111174 0.330620 0.110761
v -0.162236 0.267637 0.169114
v -0.231950 0.243090 0.109377
v -0.163951 0.302441 0.053093
v -0.202347 0.275296 -0.025478
v -0.268848 0.213969 0.034148
v -0.117605 0.334882 0.017335
v -0.158518 0.309937 -0.063706
v -0.205338 0.275768 -0.174934
v -0.240717 0.238550 -0.138932
v -0.086539 0.346684 -0.005421
v -0.124908 0.325563 -0.083974
v -0.168516 0.289747 -0.194973
v -0.151812 0.226569 -0.318707
v -0.045720 0.230032 -0.334257
v -0.074971 0.171226 -0.392218
v -0.172193 0.181381 -0.365801
v -0.085519 0.088100 -0.417086
v -0.186569 0.111438 -0.380491
v -0.302310 0.060537 -0.343465
v -0.323260 0.000051 -0.350314
v -0.358120 0.029894 -0.264652
v -0.323499 0.087439 -0.294481
v -0.361096 0.062745 -0.146396
v -0.318096 0.126017 -0.198397
v -0.301487 0.172934 -0.073498
v -0.384121 -0.018221 -0.246483
v -0.393325 0.005536 -0.115100
v -0.399920 -0.049378 -0.236541
v -0.411822 -0.039269 -0.111457
v -0.406771 -0.083100 0.020993
v -0.356827 -0.111381 0.128947
v -0.370180 -0.120374 0.006221
v -0.340913 -0.144309 0.119640
v -0.291617 -0.143320 0.232515
v -0.304269 -0.179265 -0.022809
v -0.290501 -0.198015 0.094419
v -0.221266 -0.244877 -0.056468
v -0.211037 -0.263160 0.066945
v -0.131338 -0.319785 0.050494
v -0.127875 -0.328138 0.174981
v -0.122164 -0.311958 0.277567
v -0.080590 -0.356515 0.169481
v -0.113139 -0.290483 0.333808
v -0.098983 -0.272682 0.363289
v -0.163060 -0.231045 0.368694
v -0.232812 -0.179640 0.324883
v -0.152874 -0.207014 0.380414
v -0.231939 -0.151356 0.340348
v -0.298648 -0.112010 0.247954
v -0.227165 -0.116710 0.351434
v -0.298802 -0.069324 0.265194
v -0.220958 -0.220359 -0.181783
v -0.220648 -0.195234 -0.288714
v -0.223465 -0.175110 -0.353673
v -0.103092 -0.235643 -0.368635
v -0.218989 -0.149634 -0.387344
v -0.333067 -0.089449 -0.324343
v -0.330541 -0.053069 -0.337445
v -0.004470 0.066424 -0.439823
v 0.006863 0.152235 -0.409554
v 0.040056 0.203625 -0.357835
v 0.154879 0.191285 -0.302376
v 0.227762 0.196811 -0.231511
v 0.189089 0.152415 -0.317200
v 0.224009 0.074594 -0.318179
v 0.305859 0.056898 -0.232597
v 0.258014 -0.001609 -0.310462
v 0.182404 -0.036505 -0.381261
v 0.273600 -0.043943 -0.292894
v 0.194008 -0.086048 -0.368376
v 0.114586 -0.036370 -0.433686
v 0.060469 -0.029504 -0.473582
v 0.275744 -0.073906 -0.266302
v 0.195193 -0.114116 -0.350300
v 0.327330 0.021686 -0.217381
v 0.336314 -0.012863 -0.191892
v 0.338916 0.077437 -0.154166
v 0.322213 0.105680 -0.170985
v 0.327455 0.146791 -0.124635
v 0.341898 0.115325 -0.104544
v 0.335372 0.140060 -0.045482
v 0.314438 0.180717 -0.074398
v 0.276361 0.220214 -0.004666
v 0.307457 0.162813 0.042023
v 0.293486 0.214392 -0.109482
v 0.250055 0.254822 -0.053229
v 0.199522 0.297889 0.013725
v 0.225584 0.263701 0.064775
v 0.262510 0.232659 -0.149579
v 0.223645 0.276544 -0.097046
v 0.172119 0.315841 -0.027971
v 0.138245 0.336853 0.018896
v 0.164408 0.325811 0.055661
v 0.090039 0.352415 -0.004580
v 0.023123 0.360847 -0.018061
v 0.023254 0.374755 0.031379
v 0.022769 0.373454 0.057615
v -0.042869 0.355945 -0.018279
v 0.021287 0.368483 0.090945
v 0.072284 0.354838 0.089568
v 0.080359 0.335247 0.143982
v 0.127122 0.327477 0.140454
v 0.145481 0.272729 0.221065
v 0.181933 0.256799 0.205126
v 0.156787 0.315831 0.129376
v 0.215483 0.229280 0.175447
v 0.185786 0.294107 0.105993
v 0.259514 0.196516 0.125617
v 0.240730 0.162518 0.224559
v 0.287442 0.134327 0.162058
v 0.329443 0.113343 0.069043
v 0.291437 0.069573 0.174283
v 0.336333 0.057453 0.081303
v 0.289625 -0.020982 0.181292
v 0.331098 -0.028596 0.081941
v 0.273479 -0.125891 0.170311
v 0.223373 -0.105701 0.279054
v 0.190264 -0.196821 0.270989
v 0.248472 -0.209724 0.157766
v 0.244377 0.000357 0.270984
v 0.200069 0.034084 0.341273
v 0.179781 -0.074824 0.352885
v 0.244619 0.093325 0.248098
v 0.202486 0.124325 0.307346
v 0.198864 0.191287 0.265071
v 0.145223 -0.170210 0.349325
v 0.109758 -0.227674 0.334281
v 0.156628 -0.244168 0.255012
v 0.120758 -0.276958 0.236038
v 0.180122 -0.283215 0.120009
v 0.222577 -0.251990 0.144366
v 0.124982 -0.318104 0.093680
v 0.170635 -0.315655 -0.017253
v 0.118796 -0.342877 -0.043241
v 0.146039 -0.335568 -0.133430
v 0.201475 -0.306245 -0.097496
v 0.203297 -0.262952 -0.168004
v 0.138691 -0.296407 -0.221794
v 0.105597 -0.357268 -0.148738
v 0.096401 -0.328235 -0.237218
vt 0.1218 0.6131
vt 0.1166 0.6306
vt 0.1053 0.6209
vt 0.1170 0.6007
vt 0.1271 0.5941
vt 0.1328 0.6111
vt 0.1316 0.6299
vt 0.1908 0.5966
vt 0.1923 0.5785
vt 0.2071 0.5811
vt 0.2009 0.6026
vt 0.1817 0.6128
vt 0.1755 0.6014
vt 0.1962 0.7879
vt 0.1760 0.7069
vt 0.2166 0.6724
vt 0.2489 0.7215
vt 0.2859 0.7563
vt 0.2486 0.8191
vt 0.1310 0.8082
vt 0.1311 0.7257
vt 0.0813 0.9296
vt 0.0906 0.9333
vt 0.0789 0.9558
vt 0.0655 0.9398
vt 0.0788 0.8965
vt 0.0934 0.8980
vt 0.0599 0.8924
vt 0.4881 0.6898
vt 0.4662 0.7063
vt 0.4478 0.6753
vt 0.4877 0.6614
vt 0.5337 0.6640
vt 0.5160 0.6998
vt 0.4945 0.7308
vt 0.6191 0.2854
vt 0.6284 0.3055
vt 0.6078 0.3220
vt 0.6008 0.2873
vt 0.6042 0.2402
vt 0.6325 0.2524
vt 0.0932 0.4565
vt 0.0525 0.4254
vt 0.0575 0.3618
vt 0.0904 0.3797
vt 0.0745 0.5069
vt 0.0447 0.4753
vt 0.4295 0.6300
vt 0.4371 0.5826
vt 0.4953 0.5807
vt 0.4891 0.6180
vt 0.1111 0.3921
vt 0.1252 0.4415
vt 0.6694 0.1113
vt 0.6652 0.1475
vt 0.6278 0.1238
vt 0.6449 0.0852
vt 0.6872 0.1115
vt 0.6896 0.1587
vt 0.6621 0.0689
vt 0.0922 0.3238
vt 0.1208 0.3640
vt 0.1494 0.4226
vt 0.5271 0.3323
vt 0.5449 0.3318
vt 0.5403 0.3735
vt 0.5150 0.3630
vt 0.4850 0.3325
vt 0.5138 0.3027
vt 0.5389 0.2926
vt 0.1154 0.2511
vt 0.0636 0.3032
vt 0.0786 0.2285
vt 0.1477 0.2289
vt 0.1707 0.3087
vt 0.1461 0.3281
vt 0.7947 0.2432
vt 0.7953 0.3078
vt 0.7557 0.2727
vt 0.7532 0.2236
vt 0.8623 0.3186
vt 0.8492 0.3554
vt 0.8217 0.2084
vt 0.8769 0.2885
vt 0.7352 0.2158
vt 0.7253 0.1847
vt 0.7359 0.1707
vt 0.4499 0.2752
vt 0.4230 0.3389
vt 0.3914 0.3051
vt 0.4050 0.2599
vt 0.4207 0.2047
vt 0.4586 0.1904
vt 0.4988 0.1755
vt 0.4973 0.2485
vt 0.5051 0.0317
vt 0.5482 0.0284
vt 0.5163 0.0974
vt 0.4779 0.1129
vt 0.7816 0.1020
vt 0.8171 0.1020
vt 0.8422 0.1910
vt 0.7548 0.1501
vt 0.1762 0.0992
vt 0.1984 0.0832
vt 0.2128 0.1413
vt 0.1807 0.1468
vt 0.1555 0.1404
vt 0.1566 0.0788
vt 0.1803 0.0445
vt 0.7403 0.8128
vt 0.7246 0.8206
vt 0.7296 0.7634
vt 0.7494 0.7733
vt 0.7773 0.7964
vt 0.7618 0.8413
vt 0.3861 0.2533
vt 0.3915 0.2158
vt 0.2704 0.4008
vt 0.2595 0.3547
vt 0.2940 0.3569
vt 0.2938 0.4173
vt 0.2571 0.4231
vt 0.2317 0.3662
vt 0.2857 0.4590
vt 0.9281 0.6338
vt 0.9194 0.6195
vt 0.9239 0.5849
vt 0.9339 0.6186
vt 0.8869 0.9439
vt 0.8733 0.9533
vt 0.8712 0.9095
vt 0.8893 0.9093
vt 0.8570 0.0387
vt 0.8651 0.0839
vt 0.8410 0.0966
vt 0.8423 0.0314
vt 0.8733 0.0201
vt 0.8908 0.0657
vt 0.9231 0.0406
vt 0.9509 0.0916
vt 0.9164 0.1287
vt 0.8866 0.1562
vt 0.9168 0.9138
vt 0.8977 0.8511
vt 0.9234 0.8460
vt 0.9101 0.7730
vt 0.9304 0.7657
vt 0.8810 0.8509
vt 0.8964 0.7727
vt 0.9118 0.6873
vt 0.9223 0.6903
vt 0.8647 0.8466
vt 0.8819 0.7673
vt 0.8989 0.6797
vt 0.9062 0.6089
vt 0.8607 0.7594
vt 0.8795 0.6728
vt 0.8886 0.6028
vt 0.8972 0.5629
vt 0.9135 0.5706
vt 0.8511 0.6625
vt 0.8665 0.5954
vt 0.8789 0.5564
vt 0.8960 0.5293
vt 0.9112 0.5362
vt 0.8413 0.5877
vt 0.8573 0.5483
vt 0.8773 0.5221
vt 0.6189 0.5696
vt 0.5662 0.5562
vt 0.5722 0.5360
vt 0.6200 0.5501
vt 0.6532 0.5882
vt 0.6547 0.6124
vt 0.6152 0.5966
vt 0.5578 0.5841
vt 0.5045 0.5530
vt 0.6046 0.6313
vt 0.5493 0.6205
vt 0.5802 0.6760
vt 0.6471 0.6447
vt 0.6188 0.6930
vt 0.5873 0.7428
vt 0.5544 0.7178
vt 0.5612 0.7898
vt 0.5318 0.7606
vt 0.5362 0.8335
vt 0.5101 0.8043
vt 0.4738 0.7696
vt 0.4449 0.7450
vt 0.4805 0.8546
vt 0.4477 0.8263
vt 0.4227 0.8058
vt 0.4061 0.7849
vt 0.4255 0.7221
vt 0.4245 0.8780
vt 0.4048 0.8609
vt 0.3916 0.8436
vt 0.0967 0.5786
vt 0.0787 0.6091
vt 0.0476 0.5985
vt 0.0740 0.5573
vt 0.1158 0.5669
vt 0.0157 0.4020
vt 0.0197 0.3460
vt 0.3861 0.7633
vt 0.4026 0.6921
vt 0.0617 0.6601
vt 0.0222 0.6531
vt 0.0547 0.7207
vt 0.0157 0.7119
vt 0.0886 0.6652
vt 0.0806 0.7272
vt 0.0744 0.8106
vt 0.0532 0.8044
vt 0.1068 0.6702
vt 0.0996 0.7293
vt 0.0950 0.8123
vt 0.1236 0.8979
vt 0.1787 0.8864
vt 0.1748 0.9403
vt 0.1220 0.9405
vt 0.8113 0.4230
vt 0.7656 0.3891
vt 0.7812 0.3529
vt 0.8281 0.3932
vt 0.8621 0.4210
vt 0.8390 0.4410
vt 0.8961 0.3986
vt 0.9156 0.3746
vt 0.0935 0.0343
vt 0.1222 0.0201
vt 0.1060 0.0668
vt 0.0790 0.0616
vt 0.0588 0.9799
vt 0.0402 0.9483
vt 0.0922 0.1418
vt 0.0625 0.1253
vt 0.0276 0.8808
vt 0.0437 0.2103
vt 0.0163 0.7920
vt 0.0289 0.2881
vt 0.1286 0.0678
vt 0.1193 0.1486
vt 0.1433 0.0675
vt 0.1405 0.1426
vt 0.1672 0.2221
vt 0.1896 0.2987
vt 0.1894 0.2190
vt 0.2077 0.2942
vt 0.2152 0.3761
vt 0.2251 0.2124
vt 0.2394 0.2867
vt 0.2658 0.2067
vt 0.2797 0.2840
vt 0.3040 0.2091
vt 0.3159 0.2888
vt 0.3241 0.3658
vt 0.3193 0.4319
vt 0.9532 0.6720
vt 0.9568 0.7506
vt 0.9357 0.6843
vt 0.3430 0.3717
vt 0.3375 0.4312
vt 0.3548 0.3785
vt 0.3498 0.4251
vt 0.3108 0.4705
vt 0.3305 0.4658
vt 0.9346 0.5652
vt 0.9236 0.5448
vt 0.3039 0.4937
vt 0.2765 0.4846
vt 0.2421 0.4446
vt 0.2968 0.5069
vt 0.2655 0.4963
vt 0.2282 0.4567
vt 0.1989 0.3864
vt 0.2524 0.5037
vt 0.2112 0.4675
vt 0.1776 0.4005
vt 0.1896 0.4774
vt 0.5140 0.5311
vt 0.5762 0.5199
vt 0.6195 0.5356
vt 0.9568 0.8332
vt 0.2497 0.1314
vt 0.9840 0.1499
vt 0.9517 0.1875
vt 0.9843 0.2395
vt 0.9604 0.2713
vt 0.9234 0.2219
vt 0.9492 0.3045
vt 0.9065 0.2464
vt 0.8633 0.1751
vt 0.8922 0.2652
vt 0.9432 0.3247
vt 0.9321 0.3460
vt 0.9832 0.3522
vt 0.9680 0.3655
vt 0.1490 0.0219
vt 0.9843 0.3319
vt 0.7456 0.3176
vt 0.7303 0.3540
vt 0.2190 0.9397
vt 0.2505 0.9428
vt 0.2527 0.9788
vt 0.2213 0.9799
vt 0.2261 0.8904
vt 0.2564 0.8973
vt 0.2762 0.8385
vt 0.3024 0.7810
vt 0.6740 0.2158
vt 0.6488 0.2695
vt 0.6546 0.2005
vt 0.6147 0.1796
vt 0.5744 0.2349
vt 0.5738 0.1637
vt 0.5865 0.0996
vt 0.5486 0.1616
vt 0.5598 0.0917
vt 0.5811 0.0438
vt 0.6093 0.0588
vt 0.6031 0.0201
vt 0.6301 0.0297
vt 0.7292 0.2501
vt 0.7209 0.2917
vt 0.5290 0.1663
vt 0.5432 0.0922
vt 0.5682 0.0360
vt 0.5520 0.2350
vt 0.5295 0.2387
vt 0.5606 0.2907
vt 0.5795 0.2882
vt 0.5865 0.3286
vt 0.5657 0.3313
vt 0.5645 0.3709
vt 0.5923 0.3653
vt 0.6004 0.4101
vt 0.5595 0.4215
vt 0.6185 0.3539
vt 0.6308 0.3908
vt 0.6431 0.4331
vt 0.6123 0.4539
vt 0.6406 0.3327
vt 0.6546 0.3695
vt 0.2859 0.6566
vt 0.2780 0.6827
vt 0.2407 0.6420
vt 0.2493 0.6160
vt 0.2163 0.6154
vt 0.2246 0.5911
vt 0.1948 0.6350
vt 0.1629 0.6537
vt 0.1554 0.6209
vt 0.1515 0.6056
vt 0.1301 0.6674
vt 0.1462 0.5871
vt 0.1725 0.5814
vt 0.4358 0.9240
vt 0.4120 0.9066
vt 0.4507 0.9001
vt 0.1697 0.5519
vt 0.1939 0.5470
vt 0.4706 0.9186
vt 0.5043 0.8768
vt 0.5220 0.8927
vt 0.4848 0.9313
vt 0.2108 0.5507
vt 0.5415 0.9084
vt 0.5011 0.9447
vt 0.4773 0.9657
vt 0.4656 0.9487
vt 0.5648 0.9342
vt 0.5229 0.9664
vt 0.6230 0.4797
vt 0.6518 0.4593
vt 0.5790 0.8771
vt 0.6005 0.9105
vt 0.5635 0.4702
vt 0.5233 0.4738
vt 0.5280 0.4233
vt 0.4912 0.4590
vt 0.4994 0.4121
vt 0.4499 0.4315
vt 0.4621 0.3820
vt 0.4086 0.3867
vt 0.7203 0.6824
vt 0.7379 0.6044
vt 0.7713 0.6204
vt 0.7486 0.7009
vt 0.7032 0.7510
vt 0.4466 0.4797
vt 0.4013 0.4441
vt 0.6417 0.8038
vt 0.6198 0.7705
vt 0.6516 0.7189
vt 0.6719 0.7542
vt 0.6578 0.8492
vt 0.6259 0.8846
vt 0.6069 0.8454
vt 0.5858 0.8162
vt 0.5570 0.8542
vt 0.6719 0.6717
vt 0.7513 0.5480
vt 0.7861 0.5615
vt 0.8014 0.5199
vt 0.8317 0.5368
vt 0.8145 0.5766
vt 0.7970 0.6347
vt 0.8211 0.6485
vt 0.7966 0.7299
vt 0.7695 0.7135
vt 0.8307 0.7469
vt 0.8111 0.8224
vt 0.8421 0.8384
vt 0.8300 0.8980
vt 0.7965 0.8757
vt 0.7895 0.9147
vt 0.7492 0.8691
vt 0.8286 0.9483
vt 0.4430 0.0899
vt 0.4352 0.1423
vt 0.8541 0.9074
vt 0.8556 0.9591
vt 0.8030 0.0300
vt 0.8242 0.0305
vt 0.3975 0.8906
vt 0.3067 0.7171
vt 0.6649 0.2976
vt 0.1649 0.4901
vn -0.2972 0.9548 -0.0072
vn -0.2983 0.9542 -0.0232
vn -0.3755 0.9259 0.0414
vn -0.2937 0.9520 0.0859
vn -0.1088 0.9804 0.1639
vn -0.1754 0.9843 0.0161
vn -0.2033 0.9751 -0.0880
vn 0.3139 0.9476 0.0596
vn 0.3081 0.9405 0.1435
vn 0.4122 0.9040 0.1134
vn 0.3220 0.9461 0.0350
vn 0.2902 0.9567 -0.0237
vn 0.3029 0.9501 0.0743
vn 0.1234 0.8958 -0.4270
vn 0.0928 0.9365 -0.3382
vn 0.2647 0.9197 -0.2898
vn 0.2915 0.8834 -0.3667
vn 0.4259 0.7691 -0.4765
vn 0.2893 0.8102 -0.5097
vn -0.0789 0.9156 -0.3943
vn -0.0876 0.9566 -0.2777
vn -0.6545 0.5707 -0.4960
vn -0.4250 0.5708 -0.7025
vn -0.5309 0.3259 -0.7822
vn -0.7485 0.4900 -0.4467
vn -0.6293 0.7140 -0.3070
vn -0.3345 0.8100 -0.4816
vn -0.7875 0.5916 -0.1727
vn -0.1813 0.2094 0.9608
vn -0.2058 0.5155 0.8318
vn -0.4622 0.4531 0.7623
vn -0.2792 0.1553 0.9476
vn -0.1498 0.0827 0.9852
vn -0.0543 0.2424 0.9687
vn 0.0790 0.5307 0.8438
vn 0.7267 0.4632 -0.5073
vn 0.6844 0.5674 -0.4578
vn 0.8328 0.4590 -0.3095
vn 0.8200 0.3449 -0.4567
vn 0.7516 0.3001 -0.5873
vn 0.6546 0.4760 -0.5873
vn -0.5491 0.4482 0.7053
vn -0.5799 0.6567 0.4821
vn -0.6764 0.6478 0.3504
vn -0.6984 0.5232 0.4882
vn -0.4964 0.6925 0.5234
vn -0.6129 0.2434 0.7517
vn -0.3661 0.1140 0.9235
vn -0.3108 0.1674 0.9356
vn -0.7503 0.3185 0.5793
vn 0.5064 0.3363 -0.7940
vn 0.5589 0.4128 -0.7192
vn 0.6270 0.2134 -0.7491
vn 0.5447 0.2122 -0.8113
vn 0.2286 0.4702 -0.8524
vn 0.3706 0.6429 -0.6703
vn 0.1818 0.2864 -0.9407
vn -0.8936 0.3549 0.2749
vn -0.8673 0.0775 0.4916
vn -0.7360 -0.0122 0.6768
vn 0.9989 0.0459 0.0099
vn 0.9729 0.2158 -0.0829
vn 0.9520 0.2902 0.0969
vn 0.9904 0.0374 0.1333
vn 0.9844 -0.1539 0.0846
vn 0.9902 -0.1233 -0.0647
vn 0.9746 0.0592 -0.2159
vn -0.9549 0.2750 0.1114
vn -0.7928 0.6020 0.0945
vn -0.8519 0.5211 -0.0510
vn -0.9862 -0.0368 0.1611
vn -0.8929 -0.2049 0.4008
vn -0.9106 -0.1032 0.4002
vn -0.1111 -0.2271 -0.9675
vn -0.2460 0.1933 -0.9498
vn -0.1038 0.1353 -0.9853
vn 0.0941 -0.3083 -0.9466
vn -0.4058 -0.0042 -0.9139
vn -0.3514 0.2226 -0.9093
vn -0.0880 -0.5010 -0.8610
vn -0.4451 -0.2647 -0.8555
vn 0.3685 -0.2311 -0.9004
vn 0.5633 -0.2478 -0.7882
vn 0.4448 -0.4878 -0.7511
vn 0.9572 -0.2800 -0.0739
vn 0.9384 -0.2222 0.2647
vn 0.8812 -0.3599 0.3064
vn 0.9221 -0.3831 -0.0544
vn 0.7810 -0.5239 -0.3399
vn 0.8144 -0.4594 -0.3545
vn 0.8155 -0.4139 -0.4044
vn 0.9299 -0.2949 -0.2196
vn 0.4202 -0.6318 -0.6513
vn 0.3882 -0.5379 -0.7483
vn 0.6870 -0.4787 -0.5466
vn 0.6842 -0.5548 -0.4733
vn 0.1589 -0.7468 -0.6457
vn -0.1572 -0.6573 -0.7370
vn -0.6753 -0.7242 -0.1397
vn -0.6376 -0.7512 -0.1707
vn -0.6486 -0.7485 -0.1379
vn -0.6924 -0.7129 -0.1109
vn -0.8537 -0.5129 -0.0900
vn -0.7720 -0.6146 -0.1618
vn -0.6591 -0.7010 -0.2721
vn 0.7461 -0.6624 0.0674
vn 0.6590 -0.6972 0.2822
vn 0.4304 -0.8869 0.1679
vn 0.6200 -0.7757 -0.1175
vn -0.6827 -0.6863 0.2507
vn -0.7021 -0.6958 0.1513
vn -0.6172 -0.7829 0.0785
vn -0.6123 -0.7493 0.2523
vn -0.7413 -0.5665 0.3599
vn -0.7956 -0.5305 0.2925
vn -0.5931 -0.6807 0.4298
vn -0.2550 -0.9455 0.2024
vn 0.0860 -0.8915 0.4448
vn -0.1642 -0.8028 0.5732
vn -0.4853 -0.8289 0.2781
vn -0.1998 -0.9149 -0.3508
vn 0.0967 -0.8841 -0.4572
vn 0.1531 -0.9737 -0.1685
vn -0.2526 -0.9445 -0.2097
vn -0.2575 -0.8892 -0.3782
vn -0.0423 -0.8231 -0.5663
vn -0.3813 -0.9001 -0.2105
vn -0.3987 -0.9033 -0.1581
vn -0.4984 -0.8543 -0.1475
vn -0.4830 -0.8524 -0.2003
vn -0.4067 -0.8537 -0.3252
vn -0.2451 -0.9621 -0.1197
vn -0.2210 -0.9730 -0.0666
vn -0.4229 -0.9004 -0.1019
vn 0.1410 -0.9900 0.0065
vn 0.1808 -0.9818 0.0578
vn 0.2426 -0.9536 0.1782
vn -0.2224 -0.9744 0.0339
vn 0.4063 -0.9086 0.0963
vn 0.4138 -0.8983 0.1473
vn 0.4318 -0.8609 0.2690
vn 0.3404 -0.7910 0.5083
vn 0.4206 -0.8917 0.1674
vn 0.4282 -0.8559 0.2899
vn 0.3597 -0.7878 0.4999
vn 0.2049 -0.6588 0.7238
vn 0.0719 -0.7160 0.6943
vn 0.4341 -0.8421 0.3199
vn 0.3759 -0.7778 0.5037
vn 0.2320 -0.6160 0.7528
vn 0.0224 -0.3002 0.9536
vn -0.0043 -0.4226 0.9063
vn 0.4002 -0.7492 0.5277
vn 0.2362 -0.5490 0.8018
vn -0.0003 -0.2095 0.9778
vn -0.1892 -0.0018 0.9819
vn -0.2215 -0.0597 0.9733
vn 0.2516 -0.4254 0.8693
vn -0.0291 -0.1193 0.9924
vn -0.1737 0.0332 0.9842
vn -0.4714 0.0278 0.8814
vn -0.0151 -0.0104 0.9998
vn -0.1524 0.0657 0.9861
vn 0.0416 0.0515 0.9978
vn 0.3128 -0.1932 0.9299
vn 0.3520 -0.0048 0.9360
vn 0.4206 0.1893 0.8872
vn 0.1503 0.2473 0.9572
vn 0.4562 0.4225 0.7831
vn 0.2407 0.5099 0.8258
vn 0.4389 0.6114 0.6584
vn 0.2161 0.6839 0.6968
vn 0.1196 0.7298 0.6731
vn -0.1909 0.7555 0.6267
vn 0.1811 0.8092 0.5589
vn 0.1276 0.8166 0.5629
vn -0.1237 0.8280 0.5469
vn -0.4495 0.7655 0.4603
vn 0.1461 0.8893 0.4333
vn -0.0679 0.9147 0.3984
vn -0.3634 0.8778 0.3119
vn -0.4967 0.8418 0.2114
vn -0.5529 0.7438 0.3754
vn -0.6415 0.7362 0.2153
vn -0.5770 0.8103 0.1022
vn -0.6544 0.7560 0.0150
vn -0.7293 0.6832 0.0359
vn -0.4613 0.8871 0.0153
vn -0.5332 0.8455 -0.0287
vn -0.5962 0.7903 -0.1407
vn -0.7378 0.6723 -0.0598
vn -0.3088 0.9478 -0.0792
vn -0.3127 0.9377 -0.1510
vn -0.3144 0.9006 -0.3002
vn -0.1357 0.8127 -0.5667
vn 0.0153 0.8132 -0.5818
vn -0.1293 0.5319 -0.8368
vn -0.2503 0.5240 -0.8141
vn -0.2228 0.2940 -0.9295
vn -0.3294 0.2644 -0.9064
vn -0.6248 0.2996 -0.7210
vn -0.6809 0.1461 -0.7176
vn -0.8878 0.3380 -0.3122
vn -0.8265 0.4326 -0.3601
vn -0.8761 0.4693 -0.1104
vn -0.8335 0.5364 -0.1325
vn -0.7925 0.6071 -0.0572
vn -0.9045 0.2553 -0.3415
vn -0.9112 0.4013 -0.0924
vn -0.9485 -0.1277 -0.2900
vn -0.9961 0.0303 -0.0822
vn -0.8819 -0.4617 0.0954
vn -0.8444 -0.4349 0.3128
vn -0.7233 -0.6904 -0.0150
vn -0.7716 -0.6117 0.1744
vn -0.8361 -0.3789 0.3968
vn -0.6635 -0.7444 -0.0752
vn -0.6870 -0.7258 0.0342
vn -0.6021 -0.7902 -0.1139
vn -0.6131 -0.7889 -0.0402
vn -0.5237 -0.8483 -0.0776
vn -0.5620 -0.8256 0.0497
vn -0.5653 -0.7797 0.2692
vn -0.5039 -0.8637 -0.0032
vn -0.4320 -0.7426 0.5117
vn -0.1869 -0.6154 0.7657
vn -0.4930 -0.4898 0.7191
vn -0.7514 -0.3911 0.5314
vn -0.3314 -0.2139 0.9189
vn -0.6855 -0.1921 0.7022
vn -0.8467 -0.2523 0.4685
vn -0.5810 -0.0487 0.8124
vn -0.8183 -0.1442 0.5563
vn -0.5880 -0.7904 -0.1717
vn -0.5676 -0.7918 -0.2256
vn -0.5386 -0.7317 -0.4178
vn -0.2741 -0.7934 -0.5434
vn -0.4872 -0.5127 -0.7070
vn -0.7262 -0.3892 -0.5667
vn -0.7166 -0.0487 -0.6958
vn -0.1232 0.3185 -0.9399
vn -0.0045 0.5343 -0.8452
vn 0.1755 0.7666 -0.6177
vn 0.4458 0.6714 -0.5920
vn 0.5356 0.6420 -0.5486
vn 0.5859 0.4693 -0.6606
vn 0.6699 0.2597 -0.6955
vn 0.8006 0.2380 -0.5499
vn 0.7163 0.1209 -0.6872
vn 0.6481 0.0583 -0.7593
vn 0.7887 -0.1486 -0.5965
vn 0.6847 -0.2209 -0.6945
vn 0.5963 0.0771 -0.7991
vn 0.2494 0.0894 -0.9643
vn 0.8084 -0.3522 -0.4716
vn 0.6832 -0.4244 -0.5942
vn 0.8774 0.0683 -0.4748
vn 0.9237 -0.1766 -0.3399
vn 0.9123 0.2441 -0.3287
vn 0.8669 0.2944 -0.4022
vn 0.9027 0.3735 -0.2133
vn 0.9330 0.3242 -0.1564
vn 0.8984 0.4364 0.0484
vn 0.8520 0.5233 0.0169
vn 0.7757 0.6166 0.1345
vn 0.8298 0.5243 0.1909
vn 0.7734 0.6238 -0.1129
vn 0.6908 0.7227 0.0204
vn 0.6450 0.7631 0.0400
vn 0.7384 0.6504 0.1780
vn 0.6146 0.7144 -0.3343
vn 0.5174 0.8344 -0.1896
vn 0.4696 0.8724 -0.1350
vn 0.3964 0.9161 -0.0599
vn 0.5446 0.8352 0.0762
vn 0.2677 0.9479 -0.1725
vn 0.0609 0.9666 -0.2489
vn 0.0707 0.9934 -0.0904
vn 0.1049 0.9926 0.0600
vn -0.1534 0.9695 -0.1909
vn 0.1377 0.9651 0.2226
vn 0.2597 0.9450 0.1986
vn 0.1981 0.8916 0.4072
vn 0.3321 0.8765 0.3485
vn 0.3851 0.7637 0.5181
vn 0.6429 0.6548 0.3973
vn 0.5512 0.7906 0.2668
vn 0.7507 0.5828 0.3110
vn 0.6897 0.6929 0.2102
vn 0.7814 0.5631 0.2690
vn 0.8082 0.3913 0.4400
vn 0.8539 0.3459 0.3887
vn 0.9114 0.3201 0.2586
vn 0.8883 0.0970 0.4489
vn 0.9511 0.0544 0.3039
vn 0.8968 -0.0784 0.4354
vn 0.9507 -0.1223 0.2848
vn 0.8715 -0.2451 0.4246
vn 0.8273 -0.2339 0.5107
vn 0.7324 -0.4630 0.4992
vn 0.7894 -0.4444 0.4235
vn 0.8647 -0.0214 0.5018
vn 0.7056 0.0810 0.7040
vn 0.6857 -0.1390 0.7145
vn 0.8498 0.1690 0.4992
vn 0.7176 0.2920 0.6323
vn 0.6964 0.4882 0.5259
vn 0.6242 -0.3868 0.6787
vn 0.4929 -0.6343 0.5955
vn 0.5686 -0.6993 0.4331
vn 0.4573 -0.8137 0.3587
vn 0.4567 -0.8547 0.2465
vn 0.6038 -0.7156 0.3510
vn 0.4343 -0.8786 0.1983
vn 0.4252 -0.8975 0.1172
vn 0.4230 -0.9006 0.0998
vn 0.5501 -0.8187 -0.1647
vn 0.5749 -0.8004 -0.1696
vn 0.6661 -0.6311 -0.3974
vn 0.5806 -0.6862 -0.4380
vn 0.4748 -0.8672 -0.1499
vn 0.3844 -0.7827 -0.4895
s 1
f 1/1/1 2/2/2 3/3/3 4/4/4
f 1/1/1 4/4/4 5/5/5 6/6/6
f 1/1/1 6/6/6 7/7/7 2/2/2
f 8/8/8 9/9/9 10/10/10 11/11/11
f 8/8/8 11/11/11 12/12/12 13/13/13
f 14/14/14 15/15/15 16/16/16 17/17/17
f 14/14/14 17/17/17 18/18/18 19/19/19
f 14/14/14 20/20/20 21/21/21 15/15/15
f 22/22/22 23/23/23 24/24/24 25/25/25
f 22/22/22 26/26/26 27/27/27 23/23/23
f 22/22/22 25/25/25 28/28/28 26/26/26
f 29/29/29 30/30/30 31/31/31 32/32/32
f 29/29/29 32/32/32 33/33/33 34/34/34
f 29/29/29 34/34/34 35/35/35 30/30/30
f 36/36/36 37/37/37 38/38/38 39/39/39
f 36/36/36 39/39/39 40/40/40 41/41/41
f 42/42/42 43/43/43 44/44/44 45/45/45
f 42/42/42 31/46/31 46/47/46 43/43/43
f 42/48/42 47/49/47 48/50/48 49/51/49
f 42/48/42 49/51/49 32/32/32 31/31/31
f 42/42/42 45/45/45 50/52/50 47/53/47
f 51/54/51 52/55/52 53/56/53 54/57/54
f 51/54/51 55/58/55 56/59/56 52/55/52
f 51/54/51 54/57/54 57/60/57 55/58/55
f 50/52/50 45/45/45 58/61/58 59/62/59
f 50/52/50 59/62/59 60/63/60 47/53/47
f 61/64/61 62/65/62 63/66/63 64/67/64
f 61/64/61 64/67/64 65/68/65 66/69/66
f 61/64/61 66/69/66 67/70/67 62/65/62
f 68/71/68 58/61/58 69/72/69 70/73/70
f 68/71/68 71/74/71 72/75/72 73/76/73
f 68/71/68 73/76/73 59/62/59 58/61/58
f 74/77/74 75/78/75 76/79/76 77/80/77
f 74/77/74 78/81/78 79/82/79 75/78/75
f 74/77/74 80/83/80 81/84/81 78/81/78
f 82/85/82 83/86/83 84/87/84 77/80/77
f 85/88/85 86/89/86 87/90/87 88/91/88
f 85/88/85 88/91/88 89/92/89 90/93/90
f 85/88/85 90/93/90 91/94/91 92/95/92
f 93/96/93 94/97/94 95/98/95 96/99/96
f 93/100/93 97/101/97 98/102/98 80/83/80
f 93/100/93 80/83/80 74/77/74 94/103/94
f 99/104/99 100/105/100 101/106/101 102/107/102
f 99/104/99 102/107/102 103/108/103 104/109/104
f 99/104/99 104/109/104 105/110/105 100/105/100
f 106/111/106 88/112/88 87/113/87 107/114/107
f 106/111/106 107/114/107 108/115/108 109/116/109
f 106/117/106 109/118/109 89/92/89 88/91/88
f 110/119/110 111/120/111 112/121/112 113/122/113
f 110/119/110 114/123/114 115/124/115 111/120/111
f 110/119/110 113/122/113 116/125/116 114/123/114
f 117/126/117 118/127/118 119/128/119 120/129/120
f 121/130/121 122/131/122 123/132/123 124/133/124
f 121/134/121 125/135/125 126/136/126 122/137/122
f 121/134/121 124/138/124 127/139/127 125/135/125
f 127/139/127 128/140/128 129/141/129 130/142/130
f 127/139/127 130/142/130 131/143/131 125/135/125
f 127/144/127 124/133/124 132/145/132 128/146/128
f 132/145/132 133/147/133 134/148/134 128/146/128
f 132/145/132 124/133/124 123/132/123 135/149/135
f 132/145/132 135/149/135 136/150/136 133/147/133
f 136/150/136 137/151/137 138/152/138 133/147/133
f 136/150/136 135/149/135 139/153/139 140/154/140
f 136/150/136 140/154/140 141/155/141 137/151/137
f 141/155/141 142/156/142 118/127/118 137/151/137
f 141/155/141 140/154/140 143/157/143 144/158/144
f 141/155/141 144/158/144 145/159/145 142/156/142
f 145/159/145 146/160/146 147/161/147 142/156/142
f 145/159/145 144/158/144 148/162/148 149/163/149
f 145/159/145 149/163/149 150/164/150 146/160/146
f 150/164/150 151/165/151 152/166/152 146/160/146
f 150/164/150 149/163/149 153/167/153 154/168/154
f 150/164/150 154/168/154 155/169/155 151/165/151
f 155/170/155 156/171/156 157/172/157 151/173/151
f 155/170/155 154/174/154 158/175/158 159/176/159
f 155/170/155 159/176/159 160/177/160 156/171/156
f 160/177/160 48/50/48 161/178/161 156/171/156
f 160/177/160 159/176/159 162/179/162 163/180/163
f 160/177/160 163/180/163 49/51/49 48/50/48
f 163/180/163 162/179/162 164/181/164 33/33/33
f 163/180/163 33/33/33 32/32/32 49/51/49
f 164/181/164 162/179/162 165/182/165 166/183/166
f 164/181/164 166/183/166 167/184/167 168/185/168
f 164/181/164 168/185/168 34/34/34 33/33/33
f 168/185/168 167/184/167 169/186/169 170/187/170
f 168/185/168 170/187/170 35/35/35 34/34/34
f 170/187/170 169/186/169 171/188/171 172/189/172
f 170/187/170 172/189/172 173/190/173 35/35/35
f 173/190/173 174/191/174 30/30/30 35/35/35
f 173/190/173 172/189/172 175/192/175 176/193/176
f 173/190/173 176/193/176 177/194/177 174/191/174
f 177/194/177 178/195/178 46/196/46 174/191/174
f 177/194/177 176/193/176 179/197/179 180/198/180
f 177/194/177 180/198/180 181/199/181 178/195/178
f 181/200/181 182/201/182 183/202/183 178/203/178
f 181/200/181 180/204/180 5/5/5 4/4/4
f 181/200/181 4/4/4 3/3/3 182/201/182
f 183/205/183 184/206/184 44/44/44 43/43/43
f 183/207/183 43/208/43 46/196/46 178/195/178
f 183/202/183 182/201/182 185/209/185 184/210/184
f 185/209/185 186/211/186 187/212/187 184/210/184
f 185/209/185 182/201/182 3/3/3 188/213/188
f 185/209/185 188/213/188 189/214/189 186/211/186
f 189/214/189 190/215/190 191/216/191 186/211/186
f 189/214/189 188/213/188 192/217/192 193/218/193
f 189/214/189 193/218/193 194/219/194 190/215/190
f 194/219/194 27/27/27 26/26/26 190/215/190
f 194/219/194 193/218/193 21/21/21 20/20/20
f 194/219/194 20/20/20 195/220/195 27/27/27
f 195/220/195 196/221/196 197/222/197 198/223/198
f 195/220/195 198/223/198 23/23/23 27/27/27
f 195/220/195 20/20/20 14/14/14 196/221/196
f 198/224/198 197/225/197 199/226/199 200/227/200
f 198/224/198 200/227/200 24/228/24 23/229/23
f 200/227/200 199/226/199 75/78/75 79/82/79
f 200/227/200 79/82/79 201/230/201 24/228/24
f 201/230/201 79/82/79 78/81/78 202/231/202
f 201/232/201 202/233/202 203/234/203 204/235/204
f 201/236/201 204/237/204 25/25/25 24/24/24
f 204/235/204 203/234/203 205/238/205 206/239/206
f 204/237/204 206/240/206 28/28/28 25/25/25
f 206/239/206 205/238/205 70/73/70 207/241/207
f 206/240/206 207/242/207 191/216/191 28/28/28
f 207/241/207 70/73/70 69/72/69 187/243/187
f 207/242/207 187/212/187 186/211/186 191/216/191
f 205/238/205 203/234/203 208/244/208 209/245/209
f 205/238/205 209/245/209 68/71/68 70/73/70
f 209/245/209 208/244/208 210/246/210 211/247/211
f 209/245/209 211/247/211 71/74/71 68/71/68
f 211/247/211 210/246/210 104/109/104 103/108/103
f 211/247/211 103/108/103 212/248/212 71/74/71
f 212/248/212 213/249/213 72/75/72 71/74/71
f 212/248/212 103/108/103 102/107/102 214/250/214
f 212/248/212 214/250/214 215/251/215 213/249/213
f 215/251/215 115/124/115 216/252/216 213/249/213
f 215/251/215 214/250/214 217/253/217 218/254/218
f 215/251/215 218/254/218 111/120/111 115/124/115
f 218/254/218 217/253/217 219/255/219 220/256/220
f 218/254/218 220/256/220 112/121/112 111/120/111
f 220/256/220 219/255/219 129/257/129 221/258/221
f 220/256/220 221/258/221 222/259/222 112/121/112
f 222/259/222 223/260/223 113/122/113 112/121/112
f 222/261/222 221/262/221 134/148/134 224/263/224
f 222/259/222 224/264/224 120/265/120 223/260/223
f 224/263/224 134/148/134 133/147/133 138/152/138
f 224/264/224 138/266/138 117/267/117 120/265/120
f 223/260/223 225/268/225 116/125/116 113/122/113
f 223/260/223 120/265/120 119/269/119 225/268/225
f 225/270/225 119/128/119 147/161/147 226/271/226
f 225/268/225 226/272/226 227/273/227 116/125/116
f 227/273/227 228/274/228 114/123/114 116/125/116
f 227/273/227 226/272/226 152/275/152 229/276/229
f 227/273/227 229/276/229 230/277/230 228/274/228
f 230/277/230 231/278/231 216/252/216 228/274/228
f 230/277/230 229/276/229 157/279/157 232/280/232
f 230/277/230 232/280/232 233/281/233 231/278/231
f 233/281/233 232/280/232 161/282/161 60/63/60
f 233/281/233 60/63/60 59/62/59 73/76/73
f 233/281/233 73/76/73 72/75/72 231/278/231
f 232/283/232 157/172/157 156/171/156 161/178/161
f 231/278/231 72/75/72 213/249/213 216/252/216
f 229/284/229 152/285/152 151/173/151 157/172/157
f 228/274/228 216/252/216 115/124/115 114/123/114
f 226/271/226 147/161/147 146/160/146 152/166/152
f 221/262/221 129/286/129 128/146/128 134/148/134
f 219/255/219 217/253/217 101/106/101 234/287/234
f 219/288/219 234/289/234 130/142/130 129/141/129
f 234/289/234 101/290/101 100/291/100 235/292/235
f 234/289/234 235/292/235 131/143/131 130/142/130
f 235/292/235 100/291/100 105/293/105 236/294/236
f 235/292/235 236/294/236 237/295/237 131/143/131
f 237/295/237 236/294/236 238/296/238 98/102/98
f 237/295/237 98/102/98 97/101/97 126/136/126
f 237/295/237 126/136/126 125/135/125 131/143/131
f 238/296/238 236/294/236 105/293/105 239/297/239
f 238/296/238 239/297/239 240/298/240 81/84/81
f 238/296/238 81/84/81 80/83/80 98/102/98
f 240/298/240 239/297/239 210/299/210 208/300/208
f 240/301/240 208/244/208 203/234/203 202/233/202
f 240/298/240 202/231/202 78/81/78 81/84/81
f 239/297/239 105/293/105 104/302/104 210/299/210
f 217/253/217 214/250/214 102/107/102 101/106/101
f 199/226/199 241/303/241 76/79/76 75/78/75
f 199/226/199 197/225/197 242/304/242 241/303/241
f 242/305/242 55/306/55 57/307/57 241/308/241
f 242/305/242 197/222/197 196/221/196 243/309/243
f 242/305/242 243/309/243 56/310/56 55/306/55
f 243/309/243 196/221/196 14/14/14 19/19/19
f 243/309/243 19/19/19 244/311/244 56/310/56
f 244/311/244 19/19/19 18/18/18 245/312/245
f 244/313/244 245/314/245 41/41/41 246/315/246
f 244/313/244 246/315/246 52/55/52 56/59/56
f 246/315/246 41/41/41 40/40/40 247/316/247
f 246/315/246 247/316/247 53/56/53 52/55/52
f 247/316/247 40/40/40 248/317/248 249/318/249
f 247/316/247 249/318/249 250/319/250 53/56/53
f 250/319/250 249/318/249 251/320/251 252/321/252
f 250/319/250 252/321/252 83/322/83 253/323/253
f 250/319/250 253/323/253 54/57/54 53/56/53
f 253/323/253 83/322/83 82/324/82 254/325/254
f 253/323/253 254/325/254 57/60/57 54/57/54
f 254/326/254 82/85/82 77/80/77 76/79/76
f 254/326/254 76/79/76 241/303/241 57/327/57
f 252/321/252 251/320/251 255/328/255 256/329/256
f 252/321/252 256/329/256 84/330/84 83/322/83
f 256/329/256 255/328/255 91/94/91 95/98/95
f 256/329/256 95/98/95 94/97/94 84/330/84
f 255/328/255 251/320/251 257/331/257 258/332/258
f 255/328/255 258/332/258 92/95/92 91/94/91
f 258/332/258 257/331/257 259/333/259 67/70/67
f 258/332/258 67/70/67 66/69/66 92/95/92
f 259/333/259 260/334/260 261/335/261 262/336/262
f 259/333/259 262/336/262 62/65/62 67/70/67
f 259/333/259 257/331/257 248/317/248 260/334/260
f 262/336/262 263/337/263 63/66/63 62/65/62
f 262/336/262 261/335/261 264/338/264 263/337/263
f 264/338/264 265/339/265 266/340/266 263/337/263
f 264/338/264 261/335/261 38/38/38 267/341/267
f 264/338/264 267/341/267 268/342/268 265/339/265
f 268/342/268 269/343/269 270/344/270 265/339/265
f 268/342/268 267/341/267 271/345/271 272/346/272
f 268/347/268 272/348/272 273/349/273 269/350/269
f 273/349/273 274/351/274 275/352/275 269/350/269
f 273/349/273 272/348/272 17/17/17 16/16/16
f 273/349/273 16/16/16 276/353/276 274/351/274
f 276/353/276 12/12/12 11/11/11 274/351/274
f 276/353/276 16/16/16 15/15/15 277/354/277
f 276/353/276 277/354/277 278/355/278 12/12/12
f 278/355/278 279/356/279 13/13/13 12/12/12
f 278/355/278 277/354/277 280/357/280 7/7/7
f 278/355/278 7/7/7 6/6/6 279/356/279
f 280/357/280 21/21/21 193/218/193 192/217/192
f 280/357/280 192/217/192 2/2/2 7/7/7
f 280/357/280 277/354/277 15/15/15 21/21/21
f 279/356/279 6/6/6 5/5/5 281/358/281
f 279/356/279 281/358/281 282/359/282 13/13/13
f 282/360/282 281/361/281 179/197/179 283/362/283
f 282/359/282 283/363/283 284/364/284 9/9/9
f 282/359/282 9/9/9 8/8/8 13/13/13
f 284/365/284 283/362/283 175/192/175 285/366/285
f 284/365/284 285/366/285 286/367/286 287/368/287
f 284/364/284 287/369/287 10/10/10 9/9/9
f 287/368/287 286/367/286 288/370/288 289/371/289
f 287/368/287 289/371/289 275/372/275 10/373/10
f 289/371/289 288/370/288 290/374/290 270/375/270
f 289/376/289 270/344/270 269/343/269 275/377/275
f 290/374/290 288/370/288 291/378/291 292/379/292
f 290/380/290 292/381/292 293/382/293 266/340/266
f 290/380/290 266/340/266 265/339/265 270/344/270
f 293/382/293 292/381/292 294/383/294 295/384/295
f 293/382/293 295/384/295 64/67/64 63/66/63
f 293/382/293 63/66/63 263/337/263 266/340/266
f 295/384/295 294/383/294 296/385/296 297/386/297
f 295/384/295 297/386/297 65/68/65 64/67/64
f 297/386/297 296/385/296 298/387/298 86/89/86
f 297/386/297 86/89/86 85/88/85 65/68/65
f 298/388/298 299/389/299 300/390/300 301/391/301
f 298/388/298 301/391/301 87/113/87 86/392/86
f 298/387/298 296/385/296 302/393/302 299/394/299
f 302/395/302 303/396/303 304/397/304 299/398/299
f 302/395/302 296/399/296 294/400/294 305/401/305
f 302/395/302 305/401/305 306/402/306 303/396/303
f 306/402/306 169/186/169 167/184/167 303/396/303
f 306/402/306 305/401/305 291/378/291 307/403/307
f 306/402/306 307/403/307 171/188/171 169/186/169
f 307/403/307 291/378/291 288/370/288 286/367/286
f 307/403/307 286/367/286 285/366/285 171/188/171
f 305/401/305 294/400/294 292/379/292 291/378/291
f 304/397/304 166/183/166 165/182/165 308/404/308
f 304/405/304 308/406/308 300/390/300 299/389/299
f 304/397/304 303/396/303 167/184/167 166/183/166
f 308/406/308 165/407/165 158/408/158 309/409/309
f 308/406/308 309/409/309 310/410/310 300/390/300
f 310/410/310 309/409/309 153/167/153 311/411/311
f 310/410/310 311/411/311 312/412/312 313/413/313
f 310/410/310 313/413/313 301/391/301 300/390/300
f 313/413/313 312/412/312 108/115/108 107/114/107
f 313/413/313 107/114/107 87/113/87 301/391/301
f 312/412/312 311/411/311 148/162/148 314/414/314
f 312/412/312 314/414/314 315/415/315 108/115/108
f 315/415/315 314/414/314 143/157/143 316/416/316
f 315/415/315 316/416/316 317/417/317 318/418/318
f 315/415/315 318/418/318 109/116/109 108/115/108
f 318/418/318 319/419/319 89/420/89 109/116/109
f 318/418/318 317/417/317 320/421/320 319/419/319
f 320/422/320 93/96/93 96/99/96 319/423/319
f 320/421/320 317/417/317 321/424/321 322/425/322
f 320/426/320 322/427/322 97/101/97 93/100/93
f 322/425/322 321/424/321 123/132/123 122/131/122
f 322/427/322 122/137/122 126/136/126 97/101/97
f 321/424/321 317/417/317 316/416/316 139/153/139
f 321/424/321 139/153/139 135/149/135 123/132/123
f 319/423/319 96/99/96 90/93/90 89/92/89
f 316/416/316 143/157/143 140/154/140 139/153/139
f 314/414/314 148/162/148 144/158/144 143/157/143
f 311/411/311 153/167/153 149/163/149 148/162/148
f 309/409/309 158/408/158 154/168/154 153/167/153
f 285/366/285 175/192/175 172/189/172 171/188/171
f 283/362/283 179/197/179 176/193/176 175/192/175
f 281/361/281 5/428/5 180/198/180 179/197/179
f 275/352/275 274/351/274 11/11/11 10/10/10
f 272/348/272 271/429/271 18/18/18 17/17/17
f 271/345/271 267/341/267 38/38/38 37/37/37
f 271/345/271 37/37/37 245/314/245 18/430/18
f 261/335/261 260/334/260 39/39/39 38/38/38
f 260/334/260 248/317/248 40/40/40 39/39/39
f 257/331/257 251/320/251 249/318/249 248/317/248
f 245/314/245 37/37/37 36/36/36 41/41/41
f 192/217/192 188/213/188 3/3/3 2/2/2
f 191/216/191 190/215/190 26/26/26 28/28/28
f 187/243/187 69/72/69 44/44/44 184/206/184
f 174/191/174 46/196/46 31/31/31 30/30/30
f 165/182/165 162/179/162 159/176/159 158/175/158
f 161/282/161 48/431/48 47/53/47 60/63/60
f 147/161/147 119/128/119 118/127/118 142/156/142
f 138/152/138 137/151/137 118/127/118 117/126/117
f 96/99/96 95/98/95 91/94/91 90/93/90
f 94/103/94 74/77/74 77/80/77 84/87/84
f 92/95/92 66/69/66 65/68/65 85/88/85
f 69/72/69 58/61/58 45/45/45 44/44/44
