# Blender v2.78 (sub 0) OBJ File: ''
# www.blender.org
o Group46816
v 0.781608 0.085456 -0.206465
v 0.810494 0.125402 -0.175816
v 0.886158 0.083611 -0.153883
v 0.817126 0.039488 -0.201881
v 0.693005 -0.002214 -0.250093
v 0.681227 0.084701 -0.243589
v 0.679721 0.156256 -0.220249
v -0.924509 -0.066008 -0.174863
v -0.867522 -0.074054 -0.214054
v -0.862466 -0.085924 -0.164616
v -0.930493 -0.072928 -0.128266
v -0.967809 -0.064064 -0.115555
v -0.939207 -0.059779 -0.183921
v -0.861508 -0.060393 -0.243136
v -0.951870 0.063021 -0.155748
v -0.960573 0.059812 -0.102427
v -0.887854 0.095174 -0.133922
v -0.893230 0.091722 -0.192493
v -0.967888 0.052189 -0.168166
v -0.991285 0.035563 -0.095969
v -0.894563 0.077710 -0.224601
v -0.816465 0.123115 0.147109
v -0.847743 0.109673 0.180525
v -0.717910 0.133643 0.232782
v -0.716981 0.159035 0.167705
v -0.846662 0.111966 0.076307
v -0.917661 0.081073 0.091240
v -0.721127 0.164034 0.075496
v -0.812622 -0.142925 0.107596
v -0.844713 -0.133610 0.141392
v -0.902709 -0.111371 0.048491
v -0.834804 -0.127369 0.029987
v -0.714183 -0.174396 0.146941
v -0.727658 -0.169298 0.219812
v -0.710076 -0.169425 0.041659
v 0.894766 -0.147075 -0.045319
v 0.812901 -0.193946 -0.055751
v 0.818268 -0.141482 -0.105321
v 0.920946 -0.096463 -0.073553
v 0.978813 -0.074289 -0.026830
v 0.926512 -0.155247 -0.006440
v 0.829545 -0.231783 -0.006189
v 0.929582 -0.123808 0.166380
v 0.952729 -0.060124 0.168410
v 0.863240 -0.057198 0.230478
v 0.854164 -0.143420 0.209875
v 0.848111 -0.200025 0.156983
v 0.941818 -0.145169 0.125742
v 0.985253 -0.065273 0.110439
v 0.782792 0.234195 0.101072
v 0.809778 0.229266 0.035694
v 0.665440 0.278248 0.041172
v 0.674108 0.268897 0.128665
v 0.687009 0.218305 0.212039
v 0.824509 0.206242 0.149867
v 0.899849 0.194217 0.073503
v 0.947059 0.147791 0.113982
v 0.999873 0.141957 0.034781
v 0.939272 0.178539 -0.001766
v 0.837540 0.218576 -0.037046
v 0.849520 0.146996 0.188569
v 0.871056 0.084255 0.227666
v 0.967101 0.083673 0.144697
v 0.696940 0.153227 0.268667
v 0.712881 0.086905 0.314968
v 0.720541 0.014280 0.328324
v 0.876755 0.024391 0.246592
v 0.503309 0.178815 0.342113
v 0.511822 0.103027 0.381388
v 0.513756 -0.001999 0.387968
v 0.515064 -0.102525 0.382498
v 0.715641 -0.072083 0.305975
v 0.305207 0.102556 0.407767
v 0.308551 -0.012719 0.422248
v 0.312278 -0.130879 0.432313
v 0.309403 -0.214657 0.405461
v 0.514538 -0.183955 0.355783
v 0.093927 -0.019116 0.440979
v 0.095314 -0.148396 0.446893
v 0.092846 -0.233450 0.417536
v 0.086690 -0.290344 0.364122
v 0.300056 -0.272142 0.351639
v -0.114791 -0.148186 0.438577
v -0.119592 -0.226474 0.424942
v -0.123556 -0.283316 0.371949
v -0.122208 -0.329895 0.293871
v 0.077667 -0.338557 0.276258
v -0.334759 -0.188606 0.412980
v -0.340415 -0.239305 0.379053
v -0.340687 -0.260925 0.332954
v -0.332696 -0.287675 0.224900
v -0.117214 -0.342960 0.187660
v -0.555365 -0.184120 0.345900
v -0.547643 -0.215288 0.284612
v -0.536603 -0.233447 0.189658
v -0.525696 -0.233424 0.060320
v -0.320520 -0.298689 0.066783
v -0.317639 -0.272411 -0.112665
v -0.108253 -0.305097 -0.107950
v -0.113054 -0.339211 0.060336
v -0.520682 -0.205278 -0.112152
v -0.526482 -0.177975 -0.236980
v -0.320074 -0.225028 -0.257024
v -0.711143 -0.143429 -0.107983
v -0.717571 -0.117421 -0.211205
v -0.721420 -0.096443 -0.267195
v -0.528625 -0.145480 -0.299296
v -0.852145 -0.103799 -0.081844
v -0.924974 -0.088175 -0.050170
v -0.944803 -0.103488 0.077213
v -0.969027 -0.078730 -0.028457
v -0.971889 -0.083329 0.102838
v -1.002356 -0.069312 -0.014474
v -0.998002 -0.055211 -0.113614
v -1.025467 -0.047592 -0.005076
v -1.023240 -0.037431 -0.113683
v -0.978193 -0.022552 -0.195538
v -0.959733 -0.045758 -0.195203
v -0.888374 -0.003082 -0.278691
v -0.868134 -0.034291 -0.264832
v -0.721633 0.015061 -0.333360
v -0.717960 -0.026835 -0.319345
v -0.718014 -0.065717 -0.296940
v -0.522975 -0.044533 -0.351292
v -0.526546 -0.098370 -0.334732
v -0.315543 -0.086790 -0.366053
v -0.317873 -0.136798 -0.356821
v -0.320101 -0.183875 -0.323339
v -0.097954 -0.162049 -0.354623
v -0.101267 -0.208879 -0.330878
v -0.103532 -0.251804 -0.267386
v 0.116402 -0.227483 -0.333303
v 0.104893 -0.273951 -0.254154
v 0.091829 -0.322555 -0.109121
v 0.300911 -0.291533 -0.225764
v 0.286177 -0.331803 -0.118123
v 0.274748 -0.357287 -0.002445
v 0.083342 -0.352211 0.037771
v 0.268134 -0.343319 0.123197
v 0.075896 -0.369410 0.160779
v 0.282051 -0.303404 0.257248
v 0.468038 -0.309633 0.100438
v 0.485298 -0.277282 0.224308
v 0.505862 -0.245636 0.308268
v 0.679616 -0.257501 0.166892
v 0.698991 -0.225040 0.229088
v 0.711757 -0.161058 0.278584
v 0.842944 -0.235711 0.109586
v 0.835552 -0.248712 0.051212
v 0.941910 -0.164187 0.033704
v 0.941847 -0.155862 0.076280
v 0.663880 -0.281360 0.077004
v 0.674140 -0.298601 -0.017361
v 0.475335 -0.335272 -0.024138
v 0.486746 -0.326267 -0.109886
v 0.673913 -0.263794 -0.075904
v 0.675366 -0.204867 -0.135932
v 0.493177 -0.268427 -0.174854
v 0.508433 -0.184645 -0.250669
v 0.691393 -0.134996 -0.198282
v 0.315746 -0.218011 -0.308100
v 0.323720 -0.156589 -0.356287
v 0.513913 -0.116348 -0.294960
v 0.122008 -0.174371 -0.359484
v 0.122417 -0.131414 -0.365981
v 0.322853 -0.117427 -0.354687
v -0.096552 -0.119471 -0.367112
v -0.094365 -0.040457 -0.370945
v 0.121247 -0.047984 -0.364391
v -0.311518 -0.015311 -0.376081
v -0.308398 0.085238 -0.356891
v -0.093288 0.070611 -0.350197
v -0.520024 0.011417 -0.358786
v -0.519277 0.092219 -0.349228
v -0.525145 0.159616 -0.334603
v -0.310352 0.165353 -0.332793
v -0.724057 0.068895 -0.324562
v -0.728242 0.108696 -0.306359
v -0.732136 0.135900 -0.272200
v -0.530714 0.193018 -0.296289
v -0.893206 0.029196 -0.271626
v -0.892516 0.054430 -0.249435
v -0.976866 0.000381 -0.187212
v -0.973700 0.029478 -0.178238
v -1.027178 -0.012214 -0.113507
v -1.009960 0.011630 -0.103269
v -1.020173 -0.022554 -0.004564
v -1.006633 -0.000122 -0.000663
v -0.986356 0.025975 -0.002594
v -0.971463 0.008730 0.120578
v -0.946879 0.046041 0.106902
v -0.957525 0.061316 -0.011475
v -0.876580 0.100180 -0.031533
v -0.727018 0.166053 -0.053536
v -0.732659 0.166212 -0.171673
v -0.541886 0.247440 -0.066998
v -0.540612 0.251197 -0.180005
v -0.536527 0.228087 -0.253525
v -0.737341 0.162283 -0.237954
v -0.320751 0.298047 -0.157275
v -0.314462 0.251246 -0.252880
v -0.313989 0.214547 -0.302897
v -0.095962 0.258863 -0.252699
v -0.095941 0.201345 -0.294269
v -0.094668 0.155107 -0.320389
v 0.111165 0.202899 -0.291396
v 0.114808 0.151407 -0.314379
v 0.118934 0.065731 -0.347800
v 0.305508 0.159693 -0.304442
v 0.310906 0.069236 -0.324635
v 0.317665 -0.043320 -0.344005
v 0.502033 0.075763 -0.283984
v 0.513324 -0.030168 -0.302945
v 0.518993 -0.095835 -0.302283
v 0.701096 -0.045366 -0.246982
v 0.699791 -0.078820 -0.235260
v 0.844236 -0.005459 -0.187825
v 0.847496 -0.027860 -0.177840
v 0.837252 -0.081257 -0.151185
v 0.948916 0.014625 -0.125426
v 0.945194 -0.031464 -0.105133
v 1.006238 0.040801 -0.093723
v 1.005039 -0.008545 -0.065476
v 1.030736 0.062987 -0.061674
v 1.018801 0.005922 -0.027471
v 0.998500 -0.071826 0.011531
v 1.015824 0.017861 0.019727
v 0.995329 -0.066223 0.055090
v 1.006398 0.016400 0.087953
v 1.029417 0.078763 -0.011864
v 1.019749 0.083165 0.062560
v 0.974567 0.018229 0.170686
v 1.018487 0.130217 -0.034201
v 1.006881 0.106204 -0.074669
v 0.955741 0.149082 -0.094690
v 0.959497 0.166444 -0.059387
v 0.850497 0.188049 -0.120518
v 0.848806 0.205331 -0.084762
v 0.678165 0.228350 -0.162156
v 0.674165 0.262961 -0.099665
v 0.669336 0.278205 -0.032798
v 0.477578 0.295027 -0.103093
v 0.476453 0.317392 -0.003150
v 0.482630 0.322233 0.083147
v 0.492244 0.315197 0.167382
v 0.278391 0.351977 0.022714
v 0.283237 0.364410 0.098982
v 0.288562 0.334555 0.179062
v 0.295816 0.271653 0.292567
v 0.499346 0.255771 0.268123
v 0.073016 0.365116 0.090037
v 0.074376 0.325891 0.176055
v 0.082383 0.262824 0.290670
v 0.089917 0.177294 0.369172
v 0.302998 0.193914 0.380049
v -0.137984 0.307815 0.172957
v -0.129947 0.241472 0.288826
v -0.122074 0.160898 0.358735
v -0.117256 0.097989 0.402739
v 0.090532 0.104175 0.419100
v -0.338791 0.205314 0.285079
v -0.332836 0.132252 0.355038
v -0.325636 0.078302 0.389750
v -0.322972 -0.017939 0.409655
v -0.114164 -0.022970 0.432187
v -0.539623 0.105111 0.333642
v -0.540434 0.059802 0.360599
v -0.540921 -0.007238 0.374374
v -0.545959 -0.083076 0.375576
v -0.328535 -0.121055 0.420811
v -0.742238 0.050402 0.308545
v -0.745666 0.001297 0.316993
v -0.746928 -0.058261 0.312462
v -0.748938 -0.108138 0.298838
v -0.551365 -0.141126 0.365808
v -0.901944 -0.008612 0.238466
v -0.896581 -0.054355 0.233173
v -0.893608 -0.097052 0.219335
v -0.877363 -0.124038 0.187078
v -0.746952 -0.146937 0.275762
v -0.978416 -0.050303 0.114779
v -0.980472 -0.018740 0.122474
v -0.898064 0.035741 0.234432
v -0.730522 0.090804 0.286966
v -0.875189 0.079055 0.214323
v -0.538114 0.165870 0.264226
v -0.347985 0.278795 0.171584
v -0.543701 0.215915 0.168847
v -0.344865 0.299281 0.056377
v -0.543707 0.233294 0.059859
v -0.336032 0.316605 -0.050812
v -0.136952 0.347188 0.073788
v -0.127863 0.361263 -0.011141
v -0.106645 0.317903 -0.128731
v 0.076814 0.372817 0.015736
v 0.091489 0.321115 -0.109636
v 0.106552 0.252528 -0.244035
v 0.281971 0.313768 -0.099972
v 0.295660 0.256265 -0.234351
v 0.300069 0.213584 -0.278880
v 0.484740 0.249775 -0.203615
v 0.491007 0.211732 -0.243907
v 0.496315 0.162622 -0.266118
v 0.680487 0.202195 -0.193743
v 0.839163 0.163947 -0.140348
v 0.933153 0.118810 -0.120471
v 0.979344 0.076316 -0.103470
v 0.932383 0.043495 -0.138878
vt 0.6508 0.1205
vt 0.6336 0.1082
vt 0.6468 0.0758
vt 0.6671 0.1050
vt 0.6878 0.1555
vt 0.6549 0.1623
vt 0.6269 0.1633
vt 0.0755 0.7018
vt 0.0613 0.6785
vt 0.0806 0.6762
vt 0.0934 0.7042
vt 0.0977 0.7196
vt 0.0717 0.7079
vt 0.0495 0.6771
vt 0.4899 0.7812
vt 0.4694 0.7826
vt 0.4838 0.7574
vt 0.5058 0.7613
vt 0.4941 0.7872
vt 0.4659 0.7929
vt 0.5179 0.7621
vt 0.3796 0.7214
vt 0.3659 0.7316
vt 0.3504 0.6805
vt 0.3751 0.6840
vt 0.4054 0.7350
vt 0.3974 0.7603
vt 0.4100 0.6891
vt 0.1863 0.6558
vt 0.1985 0.6696
vt 0.1622 0.6925
vt 0.1562 0.6646
vt 0.2030 0.6155
vt 0.2301 0.6224
vt 0.1632 0.6128
vt 0.7286 0.0566
vt 0.7485 0.0876
vt 0.7309 0.0911
vt 0.7102 0.0503
vt 0.1483 0.8895
vt 0.1366 0.8681
vt 0.1518 0.8550
vt 0.1616 0.8902
vt 0.7291 0.0409
vt 0.7601 0.0760
vt 0.9603 0.7225
vt 0.9369 0.7339
vt 0.9302 0.6948
vt 0.9634 0.6893
vt 0.9871 0.6886
vt 0.9707 0.7294
vt 0.2269 0.8767
vt 0.2110 0.8844
vt 0.2035 0.8503
vt 0.2268 0.8502
vt 0.4512 0.1054
vt 0.4769 0.0968
vt 0.4699 0.1559
vt 0.4370 0.1489
vt 0.4059 0.1379
vt 0.4341 0.0857
vt 0.4656 0.0583
vt 0.4519 0.0356
vt 0.4837 0.0174
vt 0.4955 0.0446
vt 0.5054 0.0879
vt 0.4203 0.0711
vt 0.8549 0.7006
vt 0.8773 0.7036
vt 0.8844 0.7469
vt 0.8611 0.7439
vt 0.3847 0.1282
vt 0.8442 0.6359
vt 0.8673 0.6360
vt 0.8943 0.6352
vt 0.8990 0.7021
vt 0.8253 0.5565
vt 0.8521 0.5539
vt 0.8914 0.5500
vt 0.9295 0.5469
vt 0.9277 0.6315
vt 0.8449 0.4719
vt 0.8877 0.4675
vt 0.9318 0.4636
vt 0.9646 0.4611
vt 0.9615 0.5454
vt 0.8829 0.3827
vt 0.9313 0.3777
vt 0.9647 0.3755
vt 0.9885 0.3747
vt 0.9886 0.4591
vt 0.9255 0.2969
vt 0.9554 0.2929
vt 0.9793 0.2930
vt 0.2943 0.3819
vt 0.2677 0.3755
vt 0.2616 0.2977
vt 0.2918 0.3005
vt 0.9354 0.2119
vt 0.9560 0.2101
vt 0.2943 0.4695
vt 0.2782 0.4667
vt 0.2392 0.4593
vt 0.2286 0.3706
vt 0.2785 0.5569
vt 0.2573 0.5498
vt 0.2227 0.5423
vt 0.1740 0.5360
vt 0.1804 0.4510
vt 0.1114 0.4496
vt 0.1151 0.3662
vt 0.1805 0.3673
vt 0.1075 0.5341
vt 0.0589 0.5371
vt 0.0542 0.4529
vt 0.1053 0.6134
vt 0.0650 0.6168
vt 0.0426 0.6194
vt 0.0335 0.5401
vt 0.1128 0.6718
vt 0.1237 0.7018
vt 0.1725 0.7099
vt 0.1313 0.7200
vt 0.1810 0.7227
vt 0.1360 0.7339
vt 0.0979 0.7320
vt 0.1382 0.7451
vt 0.0968 0.7435
vt 0.0651 0.7264
vt 0.0666 0.7170
vt 0.0327 0.6926
vt 0.0398 0.6819
vt 0.7339 0.7599
vt 0.7232 0.7699
vt 0.7154 0.7102
vt 0.7304 0.7064
vt 0.0189 0.6242
vt 0.0296 0.6207
vt 0.7441 0.7034
vt 0.7344 0.6329
vt 0.7541 0.6312
vt 0.0174 0.5435
vt 0.7466 0.5524
vt 0.7651 0.5510
vt 0.0114 0.4593
vt 0.0268 0.4560
vt 0.7814 0.5477
vt 0.7699 0.4649
vt 0.7865 0.4628
vt 0.0255 0.3695
vt 0.0520 0.3671
vt 0.0258 0.2841
vt 0.0583 0.2852
vt 0.1158 0.2877
vt 0.0701 0.2088
vt 0.1130 0.2121
vt 0.1580 0.2158
vt 0.1728 0.2903
vt 0.2044 0.2218
vt 0.2201 0.2935
vt 0.2524 0.2225
vt 0.1938 0.1481
vt 0.2385 0.1467
vt 0.2682 0.1433
vt 0.2860 0.2203
vt 0.2157 0.0733
vt 0.2372 0.0701
vt 0.9868 0.5431
vt 0.9886 0.6245
vt 0.9624 0.6284
vt 0.1929 0.0119
vt 0.2086 0.0142
vt 0.2090 0.9269
vt 0.1872 0.9328
vt 0.1761 0.8924
vt 0.1922 0.8889
vt 0.2267 0.9123
vt 0.1834 0.0755
vt 0.1717 0.0125
vt 0.1489 0.0683
vt 0.1491 0.0156
vt 0.1485 0.1408
vt 0.1158 0.1359
vt 0.1248 0.0709
vt 0.7787 0.1408
vt 0.7593 0.1468
vt 0.1282 0.0249
vt 0.0879 0.1382
vt 0.0987 0.0753
vt 0.7890 0.2184
vt 0.7606 0.2212
vt 0.7355 0.1478
vt 0.0347 0.2091
vt 0.0543 0.1394
vt 0.7800 0.2993
vt 0.7589 0.3020
vt 0.7368 0.2248
vt 0.7890 0.3782
vt 0.7700 0.3798
vt 0.7541 0.3815
vt 0.7440 0.3034
vt 0.7543 0.4667
vt 0.7247 0.4687
vt 0.7226 0.3845
vt 0.7201 0.5539
vt 0.6812 0.5544
vt 0.6818 0.4701
vt 0.7136 0.6341
vt 0.6827 0.6356
vt 0.6567 0.6389
vt 0.6499 0.5558
vt 0.6947 0.7122
vt 0.6789 0.7136
vt 0.5546 0.7019
vt 0.5415 0.7039
vt 0.5574 0.6295
vt 0.5721 0.6267
vt 0.7108 0.7722
vt 0.7003 0.7710
vt 0.5274 0.7608
vt 0.7195 0.7970
vt 0.7081 0.7959
vt 0.6989 0.7936
vt 0.6904 0.7705
vt 0.0745 0.7714
vt 0.0860 0.7701
vt 0.0852 0.7901
vt 0.0754 0.7944
vt 0.0657 0.7978
vt 0.0651 0.7740
vt 0.0802 0.8311
vt 0.0714 0.8326
vt 0.0616 0.8328
vt 0.0579 0.8805
vt 0.0449 0.8762
vt 0.0328 0.8721
vt 0.0489 0.8310
vt 0.0569 0.7981
vt 0.4350 0.7783
vt 0.4453 0.7497
vt 0.4587 0.6960
vt 0.5033 0.7024
vt 0.4700 0.6291
vt 0.5129 0.6328
vt 0.5410 0.6324
vt 0.5283 0.7063
vt 0.5117 0.5490
vt 0.5482 0.5470
vt 0.5672 0.5464
vt 0.6300 0.5564
vt 0.6138 0.5537
vt 0.6063 0.4694
vt 0.6299 0.4709
vt 0.6485 0.4710
vt 0.6424 0.6390
vt 0.6247 0.3905
vt 0.6452 0.3893
vt 0.6790 0.3876
vt 0.6375 0.3150
vt 0.6725 0.3116
vt 0.7157 0.3070
vt 0.6640 0.2346
vt 0.7046 0.2284
vt 0.7293 0.2240
vt 0.7037 0.1508
vt 0.7158 0.1493
vt 0.6829 0.0919
vt 0.6908 0.0892
vt 0.7099 0.0893
vt 0.6701 0.0471
vt 0.6867 0.0455
vt 0.6576 0.0232
vt 0.6749 0.0199
vt 0.1238 0.8412
vt 0.1362 0.8277
vt 0.1256 0.8086
vt 0.1367 0.7980
vt 0.1500 0.8209
vt 0.1655 0.8524
vt 0.1680 0.8162
vt 0.1821 0.8502
vt 0.1942 0.8170
vt 0.1556 0.7917
vt 0.1842 0.7902
vt 0.2176 0.7933
vt 0.2269 0.8181
vt 0.9080 0.7453
vt 0.1478 0.7725
vt 0.1747 0.7689
vt 0.2070 0.7699
vt 0.1329 0.7829
vt 0.5105 0.0119
vt 0.5255 0.0164
vt 0.5313 0.0396
vt 0.5181 0.0380
vt 0.5375 0.0839
vt 0.5239 0.0844
vt 0.5475 0.1551
vt 0.5236 0.1565
vt 0.4981 0.1570
vt 0.5182 0.2353
vt 0.4803 0.2336
vt 0.4478 0.2284
vt 0.4161 0.2213
vt 0.4637 0.3120
vt 0.4350 0.3082
vt 0.4048 0.3015
vt 0.3620 0.2910
vt 0.3782 0.2115
vt 0.4312 0.3906
vt 0.3987 0.3847
vt 0.3555 0.3738
vt 0.3261 0.3630
vt 0.3291 0.2805
vt 0.3927 0.4667
vt 0.3490 0.4555
vt 0.3228 0.4452
vt 0.8128 0.3122
vt 0.8345 0.3083
vt 0.8374 0.3879
vt 0.8123 0.3942
vt 0.3434 0.5350
vt 0.3171 0.5259
vt 0.8175 0.2296
vt 0.8364 0.2277
vt 0.8717 0.2235
vt 0.8786 0.3026
vt 0.8227 0.1499
vt 0.8384 0.1458
vt 0.8630 0.1420
vt 0.8913 0.1369
vt 0.9098 0.2164
vt 0.8386 0.0710
vt 0.8566 0.0671
vt 0.8792 0.0646
vt 0.8985 0.0628
vt 0.9135 0.1332
vt 0.8595 0.0119
vt 0.8772 0.0125
vt 0.0650 0.9881
vt 0.0714 0.9372
vt 0.0884 0.9362
vt 0.0846 0.9870
vt 0.1009 0.9292
vt 0.1009 0.9822
vt 0.0804 0.8823
vt 0.0936 0.8817
vt 0.2256 0.6932
vt 0.2151 0.6838
vt 0.0541 0.9345
vt 0.0680 0.8821
vt 0.0896 0.8321
vt 0.0982 0.8340
vt 0.0379 0.9300
vt 0.8431 0.0155
vt 0.0248 0.9785
vt 0.0114 0.9691
vt 0.0231 0.9226
vt 0.3521 0.7393
vt 0.3295 0.6810
vt 0.0142 0.9121
vt 0.8248 0.0788
vt 0.3182 0.6057
vt 0.3446 0.6112
vt 0.3861 0.5469
vt 0.3805 0.6197
vt 0.4299 0.5510
vt 0.4219 0.6245
vt 0.4708 0.5523
vt 0.4303 0.4721
vt 0.4628 0.4723
vt 0.5081 0.4656
vt 0.4595 0.3922
vt 0.5076 0.3878
vt 0.5591 0.3825
vt 0.5556 0.4622
vt 0.5104 0.3126
vt 0.5619 0.3086
vt 0.6039 0.3901
vt 0.5980 0.3163
vt 0.6161 0.3167
vt 0.5950 0.2404
vt 0.6111 0.2400
vt 0.6305 0.2382
vt 0.6083 0.1624
vt 0.5970 0.1616
vt 0.6066 0.0903
vt 0.6168 0.0955
vt 0.5595 0.1537
vt 0.5721 0.2300
vt 0.5566 0.2333
vt 0.6178 0.0463
vt 0.6309 0.0561
vt 0.6452 0.0355
vt 0.6602 0.0555
vt 0.6320 0.0235
vt 0.6472 0.0119
vt 0.2498 0.6329
vt 0.9143 0.0638
vt 0.9305 0.1314
vt 0.8118 0.4767
vt 0.3503 0.2027
vt 0.0946 0.7927
vt 0.0953 0.7689
vt 0.7286 0.7974
vt 0.1657 0.9270
vn 0.3696 0.2530 -0.8941
vn 0.3959 0.3727 -0.8393
vn 0.4463 0.2466 -0.8602
vn 0.4105 0.1233 -0.9034
vn 0.3088 0.0618 -0.9491
vn 0.2828 0.2199 -0.9336
vn 0.2994 0.3806 -0.8749
vn -0.2965 -0.9229 -0.2456
vn -0.2980 -0.8850 -0.3577
vn -0.2736 -0.9400 -0.2039
vn -0.2790 -0.9445 -0.1732
vn -0.3146 -0.9302 -0.1890
vn -0.3515 -0.8638 -0.3608
vn -0.3269 -0.7167 -0.6160
vn -0.5208 0.8480 -0.0979
vn -0.5513 0.8343 0.0043
vn -0.4268 0.9043 -0.0057
vn -0.4686 0.8591 -0.2059
vn -0.6865 0.6628 -0.2990
vn -0.7559 0.6544 -0.0180
vn -0.5238 0.6796 -0.5136
vn -0.3602 0.9265 0.1086
vn -0.4381 0.8547 0.2784
vn -0.2841 0.8383 0.4653
vn -0.3202 0.9218 0.2185
vn -0.3932 0.9192 0.0192
vn -0.5700 0.8138 0.1126
vn -0.3674 0.9281 0.0604
vn -0.2927 -0.9547 -0.0529
vn -0.2897 -0.9571 0.0064
vn -0.2756 -0.9546 -0.1135
vn -0.2868 -0.9500 -0.1231
vn -0.3048 -0.9524 -0.0048
vn -0.3120 -0.9383 0.1490
vn -0.3049 -0.9460 -0.1100
vn 0.5097 -0.6160 -0.6006
vn 0.4367 -0.6651 -0.6057
vn 0.4488 -0.6253 -0.6383
vn 0.5537 -0.5752 -0.6021
vn 0.7301 -0.5260 -0.4362
vn 0.6198 -0.6397 -0.4545
vn 0.4537 -0.8103 -0.3708
vn 0.6466 -0.4216 0.6357
vn 0.7299 -0.2530 0.6350
vn 0.5069 -0.2422 0.8273
vn 0.4915 -0.4576 0.7409
vn 0.4729 -0.7280 0.4964
vn 0.7360 -0.5665 0.3704
vn 0.9050 -0.3065 0.2951
vn 0.3287 0.9230 0.2000
vn 0.3421 0.9384 0.0483
vn 0.2750 0.9612 0.0216
vn 0.3019 0.9193 0.2524
vn 0.3378 0.7499 0.5688
vn 0.3957 0.7985 0.4536
vn 0.4451 0.8681 0.2195
vn 0.5957 0.6514 0.4699
vn 0.7335 0.6456 0.2124
vn 0.4498 0.8929 0.0191
vn 0.3489 0.9334 -0.0836
vn 0.4530 0.6169 0.6436
vn 0.5075 0.4279 0.7479
vn 0.7204 0.3667 0.5886
vn 0.3611 0.5985 0.7151
vn 0.3769 0.3720 0.8483
vn 0.3930 -0.0035 0.9195
vn 0.5427 0.0375 0.8391
vn 0.2474 0.5766 0.7786
vn 0.2368 0.2893 0.9275
vn 0.2425 0.0232 0.9698
vn 0.2954 -0.1763 0.9390
vn 0.4057 -0.2354 0.8832
vn 0.0894 0.2656 0.9599
vn 0.1211 0.0851 0.9890
vn 0.1603 -0.1360 0.9777
vn 0.1804 -0.4989 0.8477
vn 0.3191 -0.4664 0.8250
vn 0.0092 0.1174 0.9930
vn 0.0286 -0.1206 0.9923
vn 0.0475 -0.5054 0.8615
vn 0.0635 -0.8061 0.5883
vn 0.1717 -0.8185 0.5481
vn -0.0561 -0.0727 0.9958
vn -0.0564 -0.4454 0.8935
vn -0.0781 -0.7763 0.6254
vn -0.1255 -0.9358 0.3293
vn 0.0626 -0.9408 0.3330
vn -0.1808 -0.3417 0.9222
vn -0.2196 -0.7238 0.6541
vn -0.2430 -0.9127 0.3283
vn -0.2550 -0.9615 0.1016
vn -0.1587 -0.9846 0.0734
vn -0.3277 -0.6847 0.6509
vn -0.2965 -0.9191 0.2596
vn -0.2928 -0.9541 0.0632
vn -0.3027 -0.9494 -0.0834
vn -0.2439 -0.9670 -0.0732
vn -0.2198 -0.9496 -0.2234
vn -0.1193 -0.9605 -0.2514
vn -0.1478 -0.9827 -0.1117
vn -0.2987 -0.9348 -0.1920
vn -0.2806 -0.9009 -0.3311
vn -0.1899 -0.8964 -0.4005
vn -0.3010 -0.9365 -0.1798
vn -0.2922 -0.9191 -0.2643
vn -0.2905 -0.8010 -0.5235
vn -0.2538 -0.7447 -0.6172
vn -0.2814 -0.9443 -0.1707
vn -0.2773 -0.9470 -0.1623
vn -0.4043 -0.9146 0.0012
vn -0.3334 -0.9336 -0.1311
vn -0.7120 -0.6500 0.2656
vn -0.5959 -0.8029 -0.0156
vn -0.5105 -0.8249 -0.2426
vn -0.9330 -0.3323 0.1382
vn -0.8927 -0.3603 -0.2707
vn -0.7345 -0.2727 -0.6213
vn -0.4823 -0.7116 -0.5109
vn -0.4855 -0.1635 -0.8588
vn -0.3527 -0.5521 -0.7555
vn -0.2232 -0.0804 -0.9714
vn -0.2275 -0.3858 -0.8941
vn -0.2660 -0.5679 -0.7789
vn -0.1474 -0.2353 -0.9607
vn -0.2026 -0.4503 -0.8696
vn -0.0652 -0.1710 -0.9831
vn -0.1068 -0.3956 -0.9122
vn -0.1559 -0.7100 -0.6867
vn -0.0416 -0.3571 -0.9331
vn -0.0785 -0.6801 -0.7289
vn -0.1018 -0.8953 -0.4337
vn 0.0121 -0.6789 -0.7341
vn -0.0331 -0.8913 -0.4522
vn -0.0704 -0.9613 -0.2663
vn 0.1096 -0.8467 -0.5206
vn 0.0205 -0.9543 -0.2982
vn 0.0487 -0.9973 -0.0556
vn -0.0470 -0.9913 -0.1225
vn 0.1383 -0.9777 0.1578
vn 0.0154 -0.9958 0.0901
vn 0.1694 -0.9399 0.2964
vn 0.1653 -0.9638 0.2090
vn 0.1835 -0.9426 0.2788
vn 0.2603 -0.7976 0.5441
vn 0.2257 -0.9238 0.3092
vn 0.3301 -0.7643 0.5539
vn 0.4065 -0.4549 0.7923
vn 0.4440 -0.8532 0.2735
vn 0.4325 -0.9015 0.0124
vn 0.7331 -0.6704 -0.1139
vn 0.7611 -0.6261 0.1690
vn 0.2038 -0.9643 0.1689
vn 0.2926 -0.9439 -0.1529
vn 0.1602 -0.9868 -0.0205
vn 0.2093 -0.8964 -0.3908
vn 0.3666 -0.7668 -0.5267
vn 0.3936 -0.6623 -0.6375
vn 0.2878 -0.7425 -0.6049
vn 0.3408 -0.6226 -0.7043
vn 0.4014 -0.5910 -0.6997
vn 0.1997 -0.6672 -0.7176
vn 0.2017 -0.3373 -0.9195
vn 0.3431 -0.3887 -0.8551
vn 0.0206 -0.3344 -0.9422
vn 0.0279 -0.0555 -0.9980
vn 0.1630 -0.0031 -0.9866
vn -0.0087 -0.1395 -0.9902
vn 0.0203 0.0574 -0.9981
vn 0.0562 0.0964 -0.9937
vn -0.0256 0.0297 -0.9992
vn 0.0120 0.2282 -0.9735
vn 0.0386 0.2526 -0.9668
vn -0.1055 -0.0079 -0.9944
vn -0.0880 0.2074 -0.9743
vn -0.1297 0.4942 -0.8596
vn 0.0179 0.4340 -0.9007
vn -0.2557 0.2609 -0.9308
vn -0.3211 0.5447 -0.7747
vn -0.3583 0.7194 -0.5950
vn -0.1759 0.7249 -0.6660
vn -0.5411 0.2939 -0.7879
vn -0.5469 0.5137 -0.6611
vn -0.7875 0.2569 -0.5602
vn -0.7573 0.4690 -0.4544
vn -0.9382 0.2636 -0.2243
vn -0.8390 0.5348 -0.1000
vn -0.9549 0.2379 0.1778
vn -0.8364 0.5233 0.1628
vn -0.7581 0.6396 0.1266
vn -0.8350 0.4328 0.3398
vn -0.7342 0.6391 0.2289
vn -0.5992 0.7982 0.0614
vn -0.4139 0.9103 0.0086
vn -0.3955 0.9179 0.0301
vn -0.3990 0.9160 -0.0425
vn -0.3394 0.9402 0.0269
vn -0.2871 0.9435 -0.1651
vn -0.2200 0.8600 -0.4605
vn -0.3905 0.8520 -0.3487
vn -0.1271 0.9451 -0.3009
vn -0.0544 0.8366 -0.5451
vn -0.0127 0.6657 -0.7461
vn 0.0163 0.7988 -0.6014
vn 0.0364 0.5766 -0.8162
vn 0.0442 0.4052 -0.9131
vn 0.0247 0.5576 -0.8297
vn 0.0385 0.3780 -0.9250
vn 0.0582 0.2409 -0.9688
vn 0.1180 0.3420 -0.9322
vn 0.1420 0.2144 -0.9664
vn 0.1502 0.1277 -0.9803
vn 0.2105 0.2030 -0.9563
vn 0.2355 0.1059 -0.9661
vn 0.2989 -0.1106 -0.9478
vn 0.3708 -0.1718 -0.9127
vn 0.4010 -0.4317 -0.8080
vn 0.4675 -0.1051 -0.8777
vn 0.4929 -0.3541 -0.7947
vn 0.4770 -0.5395 -0.6938
vn 0.5577 -0.2309 -0.7973
vn 0.5704 -0.4801 -0.6664
vn 0.7205 -0.1176 -0.6833
vn 0.7709 -0.4205 -0.4784
vn 0.9400 0.0144 -0.3408
vn 0.9550 -0.2786 -0.1017
vn 0.9026 -0.4198 -0.0956
vn 0.9777 -0.1722 0.1199
vn 0.9328 -0.3362 0.1298
vn 0.9499 -0.0817 0.3016
vn 0.9948 0.0923 0.0431
vn 0.9308 0.1924 0.3106
vn 0.7747 0.0180 0.6320
vn 0.8134 0.5647 -0.1392
vn 0.7381 0.3669 -0.5662
vn 0.5139 0.5717 -0.6396
vn 0.5064 0.8221 -0.2601
vn 0.3683 0.7064 -0.6044
vn 0.3548 0.8884 -0.2912
vn 0.2627 0.7925 -0.5504
vn 0.2430 0.9171 -0.3159
vn 0.2544 0.9607 -0.1111
vn 0.1324 0.9371 -0.3228
vn 0.1648 0.9740 -0.1552
vn 0.2020 0.9788 0.0330
vn 0.2134 0.9244 0.3162
vn 0.1067 0.9775 -0.1820
vn 0.0902 0.9886 0.1206
vn 0.0533 0.9180 0.3930
vn 0.0432 0.8011 0.5970
vn 0.2330 0.7764 0.5856
vn -0.0398 0.9742 0.2222
vn -0.0633 0.8965 0.4384
vn -0.0683 0.7873 0.6127
vn -0.0602 0.5950 0.8014
vn 0.0618 0.5709 0.8186
vn -0.1281 0.8995 0.4176
vn -0.1060 0.7679 0.6317
vn -0.0939 0.6116 0.7856
vn -0.0848 0.3945 0.9149
vn -0.0240 0.3420 0.9394
vn -0.1716 0.7649 0.6208
vn -0.1397 0.6100 0.7800
vn -0.1235 0.3747 0.9189
vn -0.1245 0.1433 0.9818
vn -0.0710 0.1363 0.9881
vn -0.2034 0.6232 0.7551
vn -0.2021 0.3533 0.9134
vn -0.2149 0.1147 0.9698
vn -0.2538 -0.0539 0.9657
vn -0.1455 -0.0255 0.9890
vn -0.3461 0.3534 0.8691
vn -0.3626 0.0625 0.9298
vn -0.3849 -0.1330 0.9133
vn -0.4146 -0.3753 0.8290
vn -0.3007 -0.2945 0.9071
vn -0.6674 0.0215 0.7443
vn -0.6455 -0.2052 0.7356
vn -0.6136 -0.5038 0.6080
vn -0.4315 -0.8628 0.2633
vn -0.3905 -0.7574 0.5232
vn -0.8724 -0.2359 0.4280
vn -0.8956 0.1011 0.4332
vn -0.6494 0.3829 0.6571
vn -0.3036 0.6536 0.6933
vn -0.5498 0.6766 0.4898
vn -0.2292 0.7946 0.5622
vn -0.2230 0.9044 0.3636
vn -0.2902 0.9078 0.3027
vn -0.2626 0.9507 0.1652
vn -0.3350 0.9358 0.1100
vn -0.2282 0.9729 -0.0361
vn -0.1522 0.9614 0.2293
vn -0.1072 0.9899 -0.0931
vn -0.0204 0.9245 -0.3806
vn 0.0127 0.9892 -0.1458
vn 0.0399 0.9202 -0.3894
vn 0.0283 0.8010 -0.5980
vn 0.0776 0.9330 -0.3515
vn 0.0676 0.8249 -0.5611
vn 0.0879 0.5803 -0.8096
vn 0.1516 0.8288 -0.5386
vn 0.1914 0.5970 -0.7791
vn 0.2074 0.3414 -0.9167
vn 0.2985 0.5856 -0.7536
vn 0.3776 0.4899 -0.7858
vn 0.4527 0.3227 -0.8312
vn 0.5545 0.1812 -0.8122
vn 0.5075 0.0444 -0.8605
s 1
f 1/1/1 2/2/2 3/3/3 4/4/4
f 1/1/1 4/4/4 5/5/5 6/6/6
f 1/1/1 6/6/6 7/7/7 2/2/2
f 8/8/8 9/9/9 10/10/10 11/11/11
f 8/8/8 11/11/11 12/12/12 13/13/13
f 8/8/8 13/13/13 14/14/14 9/9/9
f 15/15/15 16/16/16 17/17/17 18/18/18
f 15/15/15 19/19/19 20/20/20 16/16/16
f 15/15/15 18/18/18 21/21/21 19/19/19
f 22/22/22 23/23/23 24/24/24 25/25/25
f 22/22/22 26/26/26 27/27/27 23/23/23
f 22/22/22 25/25/25 28/28/28 26/26/26
f 29/29/29 30/30/30 31/31/31 32/32/32
f 29/29/29 33/33/33 34/34/34 30/30/30
f 29/29/29 32/32/32 35/35/35 33/33/33
f 36/36/36 37/37/37 38/38/38 39/39/39
f 36/40/36 39/41/39 40/42/40 41/43/41
f 36/36/36 41/44/41 42/45/42 37/37/37
f 43/46/43 44/47/44 45/48/45 46/49/46
f 43/46/43 46/49/46 47/50/47 48/51/48
f 43/52/43 48/53/48 49/54/49 44/55/44
f 50/56/50 51/57/51 52/58/52 53/59/53
f 50/56/50 53/59/53 54/60/54 55/61/55
f 50/56/50 55/61/55 56/62/56 51/57/51
f 56/62/56 57/63/57 58/64/58 59/65/59
f 56/62/56 59/65/59 60/66/60 51/57/51
f 56/62/56 55/61/55 61/67/61 57/63/57
f 61/68/61 62/69/62 63/70/63 57/71/57
f 61/67/61 55/61/55 54/60/54 64/72/64
f 61/68/61 64/73/64 65/74/65 62/69/62
f 65/74/65 66/75/66 67/76/67 62/69/62
f 65/74/65 64/73/64 68/77/68 69/78/69
f 65/74/65 69/78/69 70/79/70 66/75/66
f 70/79/70 71/80/71 72/81/72 66/75/66
f 70/79/70 69/78/69 73/82/73 74/83/74
f 70/79/70 74/83/74 75/84/75 71/80/71
f 75/84/75 76/85/76 77/86/77 71/80/71
f 75/84/75 74/83/74 78/87/78 79/88/79
f 75/84/75 79/88/79 80/89/80 76/85/76
f 80/89/80 81/90/81 82/91/82 76/85/76
f 80/89/80 79/88/79 83/92/83 84/93/84
f 80/89/80 84/93/84 85/94/85 81/90/81
f 85/95/85 86/96/86 87/97/87 81/98/81
f 85/94/85 84/93/84 88/99/88 89/100/89
f 85/95/85 89/101/89 90/102/90 86/96/86
f 90/102/90 91/103/91 92/104/92 86/96/86
f 90/102/90 89/101/89 93/105/93 94/106/94
f 90/102/90 94/106/94 95/107/95 91/103/91
f 95/107/95 96/108/96 97/109/97 91/103/91
f 95/107/95 94/106/94 34/34/34 33/33/33
f 95/107/95 33/33/33 35/35/35 96/108/96
f 97/109/97 98/110/98 99/111/99 100/112/100
f 97/109/97 100/112/100 92/104/92 91/103/91
f 97/109/97 96/108/96 101/113/101 98/110/98
f 101/113/101 102/114/102 103/115/103 98/110/98
f 101/113/101 96/108/96 35/35/35 104/116/104
f 101/113/101 104/116/104 105/117/105 102/114/102
f 105/117/105 106/118/106 107/119/107 102/114/102
f 105/117/105 104/116/104 108/120/108 10/10/10
f 105/117/105 10/10/10 9/9/9 106/118/106
f 108/120/108 104/116/104 35/35/35 32/32/32
f 108/120/108 32/32/32 31/31/31 109/121/109
f 108/120/108 109/121/109 11/11/11 10/10/10
f 109/121/109 31/31/31 110/122/110 111/123/111
f 109/121/109 111/123/111 12/12/12 11/11/11
f 111/123/111 110/122/110 112/124/112 113/125/113
f 111/123/111 113/125/113 114/126/114 12/12/12
f 114/126/114 113/125/113 115/127/115 116/128/116
f 114/126/114 116/128/116 117/129/117 118/130/118
f 114/126/114 118/130/118 13/13/13 12/12/12
f 118/130/118 117/129/117 119/131/119 120/132/120
f 118/130/118 120/132/120 14/14/14 13/13/13
f 120/133/120 119/134/119 121/135/121 122/136/122
f 120/132/120 122/137/122 123/138/123 14/14/14
f 123/139/123 122/136/122 124/140/124 125/141/125
f 123/138/123 125/142/125 107/119/107 106/118/106
f 123/138/123 106/118/106 9/9/9 14/14/14
f 125/141/125 124/140/124 126/143/126 127/144/127
f 125/142/125 127/145/127 128/146/128 107/119/107
f 128/147/128 127/144/127 129/148/129 130/149/130
f 128/146/128 130/150/130 131/151/131 103/115/103
f 128/146/128 103/115/103 102/114/102 107/119/107
f 131/151/131 130/150/130 132/152/132 133/153/133
f 131/151/131 133/153/133 134/154/134 99/111/99
f 131/151/131 99/111/99 98/110/98 103/115/103
f 134/154/134 133/153/133 135/155/135 136/156/136
f 134/154/134 136/156/136 137/157/137 138/158/138
f 134/154/134 138/158/138 100/112/100 99/111/99
f 138/158/138 137/157/137 139/159/139 140/160/140
f 138/158/138 140/160/140 92/104/92 100/112/100
f 140/160/140 139/159/139 141/161/141 87/97/87
f 140/160/140 87/97/87 86/96/86 92/104/92
f 141/161/141 139/159/139 142/162/142 143/163/143
f 141/161/141 143/163/143 144/164/144 82/165/82
f 141/161/141 82/165/82 81/98/81 87/97/87
f 144/164/144 143/163/143 145/166/145 146/167/146
f 144/168/144 146/169/146 147/170/147 77/86/77
f 144/168/144 77/86/77 76/85/76 82/91/82
f 147/170/147 146/169/146 47/50/47 46/49/46
f 147/170/147 46/49/46 45/48/45 72/81/72
f 147/170/147 72/81/72 71/80/71 77/86/77
f 146/167/146 145/166/145 148/171/148 47/172/47
f 148/173/148 149/174/149 150/175/150 151/176/151
f 148/173/148 151/176/151 48/53/48 47/177/47
f 148/171/148 145/166/145 152/178/152 149/179/149
f 152/178/152 153/180/153 42/181/42 149/179/149
f 152/178/152 145/166/145 143/163/143 142/162/142
f 152/178/152 142/162/142 154/182/154 153/180/153
f 154/182/154 155/183/155 156/184/156 153/180/153
f 154/182/154 142/162/142 139/159/139 137/157/137
f 154/182/154 137/157/137 136/156/136 155/183/155
f 156/185/156 157/186/157 38/38/38 37/37/37
f 156/184/156 37/187/37 42/181/42 153/180/153
f 156/184/156 155/183/155 158/188/158 157/189/157
f 158/190/158 159/191/159 160/192/160 157/186/157
f 158/188/158 155/183/155 136/156/136 135/155/135
f 158/188/158 135/155/135 161/193/161 159/194/159
f 161/195/161 162/196/162 163/197/163 159/191/159
f 161/193/161 135/155/135 133/153/133 132/152/132
f 161/195/161 132/198/132 164/199/164 162/196/162
f 164/199/164 165/200/165 166/201/166 162/196/162
f 164/199/164 132/198/132 130/149/130 129/148/129
f 164/199/164 129/148/129 167/202/167 165/200/165
f 167/202/167 168/203/168 169/204/169 165/200/165
f 167/202/167 129/148/129 127/144/127 126/143/126
f 167/202/167 126/143/126 170/205/170 168/203/168
f 170/205/170 171/206/171 172/207/172 168/203/168
f 170/205/170 126/143/126 124/140/124 173/208/173
f 170/205/170 173/208/173 174/209/174 171/206/171
f 174/209/174 175/210/175 176/211/176 171/206/171
f 174/209/174 173/208/173 121/135/121 177/212/177
f 174/209/174 177/212/177 178/213/178 175/210/175
f 178/214/178 179/215/179 180/216/180 175/217/175
f 178/213/178 177/212/177 181/218/181 182/219/182
f 178/214/178 182/220/182 21/21/21 179/215/179
f 182/219/182 181/218/181 183/221/183 184/222/184
f 182/219/182 184/222/184 19/223/19 21/224/21
f 184/225/184 183/226/183 185/227/185 186/228/186
f 184/225/184 186/228/186 20/229/20 19/230/19
f 186/228/186 185/227/185 187/231/187 188/232/188
f 186/228/186 188/232/188 189/233/189 20/229/20
f 189/233/189 188/232/188 190/234/190 191/235/191
f 189/233/189 191/235/191 27/236/27 192/237/192
f 189/233/189 192/237/192 16/238/16 20/229/20
f 192/239/192 27/27/27 26/26/26 193/240/193
f 192/239/192 193/240/193 17/17/17 16/16/16
f 193/240/193 26/26/26 28/28/28 194/241/194
f 193/240/193 194/241/194 195/242/195 17/17/17
f 195/242/195 194/241/194 196/243/196 197/244/197
f 195/242/195 197/244/197 198/245/198 199/246/199
f 195/242/195 199/246/199 18/18/18 17/17/17
f 199/246/199 198/245/198 180/216/180 179/215/179
f 199/246/199 179/215/179 21/21/21 18/18/18
f 198/245/198 197/244/197 200/247/200 201/248/201
f 198/245/198 201/248/201 202/249/202 180/216/180
f 202/250/202 201/251/201 203/252/203 204/253/204
f 202/250/202 204/253/204 205/254/205 176/211/176
f 202/250/202 176/211/176 175/210/175 180/255/180
f 205/254/205 204/253/204 206/256/206 207/257/207
f 205/254/205 207/257/207 208/258/208 172/207/172
f 205/254/205 172/207/172 171/206/171 176/211/176
f 208/258/208 207/257/207 209/259/209 210/260/210
f 208/258/208 210/260/210 211/261/211 169/204/169
f 208/258/208 169/204/169 168/203/168 172/207/172
f 211/261/211 210/260/210 212/262/212 213/263/213
f 211/261/211 213/263/213 214/264/214 166/201/166
f 211/261/211 166/201/166 165/200/165 169/204/169
f 214/264/214 213/263/213 5/5/5 215/265/215
f 214/264/214 215/265/215 216/266/216 163/197/163
f 214/264/214 163/197/163 162/196/162 166/201/166
f 216/266/216 215/265/215 217/267/217 218/268/218
f 216/266/216 218/268/218 219/269/219 160/192/160
f 216/266/216 160/192/160 159/191/159 163/197/163
f 219/269/219 218/268/218 220/270/220 221/271/221
f 219/269/219 221/271/221 39/39/39 38/38/38
f 219/269/219 38/38/38 157/186/157 160/192/160
f 221/271/221 220/270/220 222/272/222 223/273/223
f 221/274/221 223/275/223 40/42/40 39/41/39
f 223/275/223 222/276/222 224/277/224 225/278/225
f 223/275/223 225/278/225 226/279/226 40/42/40
f 226/279/226 150/175/150 41/43/41 40/42/40
f 226/279/226 225/278/225 227/280/227 228/281/228
f 226/279/226 228/281/228 151/176/151 150/175/150
f 228/281/228 227/280/227 229/282/229 49/54/49
f 228/281/228 49/54/49 48/53/48 151/176/151
f 229/282/229 227/280/227 230/283/230 231/284/231
f 229/282/229 231/284/231 63/285/63 232/286/232
f 229/282/229 232/286/232 44/55/44 49/54/49
f 232/287/232 63/70/63 62/69/62 67/76/67
f 232/287/232 67/76/67 45/48/45 44/47/44
f 231/284/231 230/283/230 233/288/233 58/289/58
f 231/284/231 58/289/58 57/290/57 63/285/63
f 233/288/233 230/283/230 224/277/224 234/291/234
f 233/292/233 234/293/234 235/294/235 236/295/236
f 233/292/233 236/295/236 59/65/59 58/64/58
f 236/295/236 235/294/235 237/296/237 238/297/238
f 236/295/236 238/297/238 60/66/60 59/65/59
f 238/297/238 237/296/237 239/298/239 240/299/240
f 238/297/238 240/299/240 241/300/241 60/66/60
f 241/300/241 52/58/52 51/57/51 60/66/60
f 241/300/241 240/299/240 242/301/242 243/302/243
f 241/300/241 243/302/243 244/303/244 52/58/52
f 244/303/244 245/304/245 53/59/53 52/58/52
f 244/303/244 243/302/243 246/305/246 247/306/247
f 244/303/244 247/306/247 248/307/248 245/304/245
f 248/307/248 249/308/249 250/309/250 245/304/245
f 248/307/248 247/306/247 251/310/251 252/311/252
f 248/307/248 252/311/252 253/312/253 249/308/249
f 253/312/253 254/313/254 255/314/255 249/308/249
f 253/312/253 252/311/252 256/315/256 257/316/257
f 253/312/253 257/316/257 258/317/258 254/313/254
f 258/318/258 259/319/259 260/320/260 254/321/254
f 258/317/258 257/316/257 261/322/261 262/323/262
f 258/318/258 262/324/262 263/325/263 259/319/259
f 263/325/263 264/326/264 265/327/265 259/319/259
f 263/325/263 262/324/262 266/328/266 267/329/267
f 263/325/263 267/329/267 268/330/268 264/326/264
f 268/330/268 269/331/269 270/332/270 264/326/264
f 268/330/268 267/329/267 271/333/271 272/334/272
f 268/330/268 272/334/272 273/335/273 269/331/269
f 273/335/273 274/336/274 275/337/275 269/331/269
f 273/335/273 272/334/272 276/338/276 277/339/277
f 273/340/273 277/341/277 278/342/278 274/343/274
f 278/342/278 279/344/279 280/345/280 274/343/274
f 278/342/278 277/341/277 281/346/281 112/347/112
f 278/348/278 112/124/112 110/122/110 279/349/279
f 281/346/281 277/341/277 276/350/276 282/351/282
f 281/346/281 282/351/282 187/231/187 115/352/115
f 281/346/281 115/352/115 113/353/113 112/347/112
f 282/351/282 276/350/276 283/354/283 190/234/190
f 282/351/282 190/234/190 188/232/188 187/231/187
f 283/355/283 276/338/276 272/334/272 271/333/271
f 283/354/283 271/356/271 284/357/284 285/358/285
f 283/354/283 285/358/285 191/235/191 190/234/190
f 285/359/285 284/360/284 24/24/24 23/23/23
f 285/358/285 23/361/23 27/236/27 191/235/191
f 284/362/284 271/333/271 267/329/267 266/328/266
f 284/360/284 266/363/266 286/364/286 24/24/24
f 286/364/286 266/363/266 262/323/262 261/322/261
f 286/364/286 261/322/261 287/365/287 288/366/288
f 286/364/286 288/366/288 25/25/25 24/24/24
f 288/366/288 287/365/287 289/367/289 290/368/290
f 288/366/288 290/368/290 28/28/28 25/25/25
f 290/368/290 289/367/289 291/369/291 196/243/196
f 290/368/290 196/243/196 194/241/194 28/28/28
f 291/369/291 289/367/289 292/370/292 293/371/293
f 291/369/291 293/371/293 294/372/294 200/247/200
f 291/369/291 200/247/200 197/244/197 196/243/196
f 294/372/294 293/371/293 295/373/295 296/374/296
f 294/372/294 296/374/296 297/375/297 203/376/203
f 294/372/294 203/376/203 201/248/201 200/247/200
f 297/375/297 296/374/296 298/377/298 299/378/299
f 297/379/297 299/380/299 300/381/300 206/256/206
f 297/379/297 206/256/206 204/253/204 203/252/203
f 300/381/300 299/380/299 301/382/301 302/383/302
f 300/381/300 302/383/302 303/384/303 209/259/209
f 300/381/300 209/259/209 207/257/207 206/256/206
f 303/384/303 302/383/302 304/385/304 7/7/7
f 303/384/303 7/7/7 6/6/6 212/262/212
f 303/384/303 212/262/212 210/260/210 209/259/209
f 304/385/304 239/386/239 237/387/237 305/388/305
f 304/385/304 305/388/305 2/2/2 7/7/7
f 304/389/304 302/390/302 301/391/301 239/298/239
f 305/388/305 237/387/237 235/392/235 306/393/306
f 305/388/305 306/393/306 3/3/3 2/2/2
f 306/393/306 307/394/307 308/395/308 3/3/3
f 306/393/306 235/392/235 234/396/234 307/394/307
f 308/395/308 220/270/220 218/268/218 217/267/217
f 308/395/308 217/267/217 4/4/4 3/3/3
f 308/395/308 307/394/307 222/272/222 220/270/220
f 307/394/307 234/396/234 224/397/224 222/272/222
f 301/391/301 242/301/242 240/299/240 239/298/239
f 301/391/301 299/378/299 298/377/298 242/301/242
f 298/377/298 246/305/246 243/302/243 242/301/242
f 298/377/298 296/374/296 295/373/295 246/305/246
f 295/373/295 251/310/251 247/306/247 246/305/246
f 295/373/295 293/371/293 292/370/292 251/310/251
f 292/370/292 256/315/256 252/311/252 251/310/251
f 292/370/292 289/367/289 287/365/287 256/315/256
f 287/365/287 261/322/261 257/316/257 256/315/256
f 280/398/280 34/34/34 94/106/94 93/105/93
f 280/399/280 93/400/93 275/337/275 274/336/274
f 280/398/280 279/349/279 30/30/30 34/34/34
f 279/349/279 110/122/110 31/31/31 30/30/30
f 275/337/275 93/400/93 89/100/89 88/99/88
f 275/337/275 88/99/88 270/332/270 269/331/269
f 270/332/270 88/99/88 84/93/84 83/92/83
f 270/332/270 83/92/83 265/327/265 264/326/264
f 265/327/265 83/92/83 79/88/79 78/87/78
f 265/327/265 78/87/78 260/320/260 259/319/259
f 260/320/260 78/87/78 74/83/74 73/82/73
f 260/320/260 73/82/73 255/401/255 254/321/254
f 255/401/255 73/82/73 69/78/69 68/77/68
f 255/314/255 68/402/68 250/309/250 249/308/249
f 250/309/250 68/402/68 64/72/64 54/60/54
f 250/309/250 54/60/54 53/59/53 245/304/245
f 230/283/230 227/280/227 225/278/225 224/277/224
f 217/267/217 215/265/215 5/5/5 4/4/4
f 213/263/213 212/262/212 6/6/6 5/5/5
f 187/231/187 185/227/185 116/403/116 115/352/115
f 185/227/185 183/226/183 117/404/117 116/403/116
f 183/221/183 181/218/181 119/134/119 117/405/117
f 181/218/181 177/212/177 121/135/121 119/134/119
f 173/208/173 124/140/124 122/136/122 121/135/121
f 150/175/150 149/174/149 42/406/42 41/43/41
f 72/81/72 45/48/45 67/76/67 66/75/66
