# Blender v2.78 (sub 0) OBJ File: 'columna_02_high.blend'
# www.blender.org
o Group36038.001
v 2.449952 10.447132 3.886490
v 2.750724 10.451273 3.992161
v 2.743011 10.722589 4.003447
v 2.442120 10.716106 3.898235
v 3.053397 10.455732 4.092241
v 3.047415 10.967674 4.088418
v 2.474751 9.938341 3.834992
v 2.758902 10.180003 3.979497
v 2.458340 10.178250 3.873113
v 0.484176 10.874502 2.446347
v 0.542374 10.863271 2.269064
v 0.440519 10.864305 2.636497
v 0.669578 10.878429 2.511745
v 0.259586 10.843520 2.881766
v 0.349909 10.852078 2.839782
v 0.273745 10.811120 3.023909
v 0.345799 10.824650 3.050963
v 0.441316 10.856756 2.798619
v 1.808962 9.935253 2.780258
v 1.721598 9.920622 3.037100
v 1.453738 9.919771 2.945939
v 1.634233 9.905992 3.293942
v 1.553364 9.914814 3.530753
v 1.288489 9.921459 3.430526
v 0.754333 10.072017 2.296103
v 0.694890 10.039419 2.472564
v 0.509310 10.038263 2.407378
v 0.629649 10.027484 2.669746
v 0.465741 10.028071 2.597460
v 0.497324 10.023266 3.040790
v 0.369628 10.023182 3.013437
v 0.284437 10.015045 2.843168
v 0.375055 10.015840 2.800786
v 0.296561 10.034705 2.987597
v 0.233151 10.053096 2.877178
v 0.466532 10.020522 2.759579
v 1.869168 10.442143 3.618233
v 2.145555 10.446244 3.708948
v 2.138284 10.681415 3.720459
v 1.862254 10.677996 3.628672
v 2.412879 10.685834 3.816412
v 2.414683 10.898498 3.802243
v 1.864058 10.890659 3.614503
v 2.152883 10.211094 3.697267
v 2.358414 10.954669 3.063433
v 2.007263 10.941023 3.192394
v 2.282665 10.941984 3.286126
v 1.931341 10.927443 3.415632
v 2.206916 10.929298 3.508819
v 2.137963 10.898359 3.712344
v 1.083970 10.936522 2.628896
v 1.008221 10.923837 2.851590
v 0.574102 10.903228 2.949995
v 0.932472 10.911151 3.074284
v 0.864140 10.878298 3.276093
v 1.291255 10.918335 3.197387
v 2.083237 10.952879 2.969076
v 2.061171 10.980039 2.952104
v 1.981663 10.973781 3.185553
v 2.152052 10.938889 2.767833
v 2.124259 10.927017 2.769284
v 2.043374 11.020190 2.924275
v 1.902579 10.953481 3.418345
v 1.843306 10.879968 3.595255
v 1.870153 10.991181 3.433525
v 1.793251 10.949809 3.660798
v 1.828659 10.686587 3.646285
v 1.833823 10.439994 3.641432
v 1.891026 9.996430 3.572738
v 1.876659 10.206389 3.606096
v 1.843631 10.194180 3.622915
v 1.869614 10.007602 3.554510
v 1.807620 10.168987 3.651243
v 1.824031 9.929078 3.613124
v 2.150365 10.740462 2.700509
v 2.160051 10.494625 2.682362
v 2.138398 10.764952 2.656233
v 2.180824 10.257324 2.711900
v 2.165215 10.248032 2.677509
v 2.179020 10.044660 2.726068
v 2.150567 10.054651 2.728540
v 2.154617 10.227097 2.631112
v 2.091295 9.981137 2.905450
v 2.035815 9.994294 3.148177
v 2.012210 9.960837 3.138242
v 1.989280 9.927390 3.128537
v 2.075864 9.942757 2.873953
v 1.959841 9.982439 3.371495
v 1.932703 9.954579 3.371691
v 1.902643 9.913749 3.383203
v 3.619385 9.832349 4.017157
v 3.774117 9.826162 4.074354
v 3.678463 9.840765 4.354152
v 3.878842 9.843532 3.766494
v 4.032113 9.856750 3.819449
v 3.983559 9.861068 3.458640
v 0.142071 10.826038 2.757295
v 0.171423 10.838112 2.788062
v 0.150794 10.838025 2.763258
v 0.164477 10.844642 2.758140
v 0.188641 9.984735 2.726277
v 0.190278 9.997595 2.749027
v 0.180409 9.989130 2.718284
v 0.179318 9.993448 2.722775
v 0.208233 10.693604 2.936108
v 0.188142 10.592153 2.895329
v 0.206412 10.799422 2.913779
v 0.079253 10.903929 2.709779
v 0.046642 10.864613 2.636352
v 0.074694 10.933508 2.666262
v -0.007800 10.907563 2.488595
v 0.226589 10.156901 2.910967
v 0.199727 10.260002 2.879284
v 0.261757 10.194454 2.978584
v 0.037378 9.997387 2.439400
v 0.137822 9.965285 2.603025
v 0.145627 9.984660 2.648022
v 0.093024 10.032815 2.586788
v -0.219049 10.932066 1.952258
v -0.237302 10.799447 1.903301
v -0.223548 10.714748 1.944445
v -0.200803 10.723023 1.886124
v -0.211944 10.463465 1.876975
v -0.117621 10.815479 2.244419
v -0.056106 10.773545 2.387498
v -0.158511 10.735423 2.131804
v -0.080203 10.507314 2.291574
v -0.189624 10.653731 2.030016
v -0.174735 10.491755 2.038193
v 0.005112 10.774101 2.532349
v 0.028863 10.651016 2.564831
v 0.175265 10.427978 2.856269
v 0.129979 10.439500 2.761354
v 0.065665 10.465217 2.627280
v 0.041905 10.296865 2.547357
v 0.030518 10.164677 2.500649
v -0.035404 10.188019 2.358682
v -0.158821 10.082889 1.997789
v -0.097769 10.143135 2.213268
v -0.143935 10.244144 2.109214
v -0.179655 10.318968 2.014696
v -0.208864 10.223024 1.921864
v -0.108666 9.992093 1.898659
v -0.212501 10.124660 1.870533
v 1.538933 10.035552 2.507825
v 1.112342 9.995711 2.584958
v 1.181295 10.026651 2.381433
v 1.395728 9.985187 2.929935
v 1.036592 9.983068 2.807653
v 0.677483 9.980051 2.685329
v 0.752620 9.993394 2.464403
v 0.819343 10.029337 2.267210
v 0.960832 9.970809 3.030364
v 1.250939 9.987324 3.354494
v 0.534090 9.981565 3.105824
v 0.216251 10.897322 2.554907
v 0.274716 10.886154 2.383903
v 0.280626 10.920399 2.365139
v 0.217322 10.925461 2.549798
v 0.325907 10.816818 2.236662
v 0.336929 10.856609 2.202677
v 0.268384 10.957738 2.317248
v 0.190790 10.940931 2.517051
v 0.355500 10.666325 2.156155
v 0.365559 10.688681 2.125720
v 0.367461 10.466379 2.129427
v 0.376863 10.467955 2.101786
v 0.356793 10.468753 2.073889
v 0.367630 10.264443 2.137364
v 0.378928 10.245667 2.105012
v 0.347563 10.105065 2.202876
v 0.360851 10.069370 2.165391
v 0.300866 10.019680 2.343396
v 0.308752 9.987781 2.321598
v 0.243757 9.989573 2.512147
v 0.246758 9.961527 2.504512
v 0.304020 9.945932 2.272944
v 0.196196 9.984173 2.651918
v 0.198350 9.958510 2.649813
v 0.198618 9.942740 2.629503
v 0.350806 10.662416 2.170084
v 0.361178 10.465327 2.147898
v 0.324690 10.812428 2.240412
v 0.367480 10.672700 2.176629
v 0.373884 10.464885 2.165603
v 0.362747 10.266753 2.151591
v 0.346079 10.109053 2.207063
v 0.299355 10.034477 2.347215
v 0.242653 10.009791 2.514546
v 0.319652 10.035756 2.343348
v 0.271383 10.023502 2.544590
v 0.274115 10.871067 2.386293
v 0.216390 10.876908 2.555347
v 0.238401 10.861909 2.575702
v 0.297309 10.871490 2.383441
v 0.172392 10.876973 2.692737
v 0.169811 10.864122 2.694875
v 0.160671 10.838509 2.771143
v 0.177491 10.853652 2.707257
v 0.173622 10.899611 2.693047
v 0.171045 10.845623 2.765686
v 0.162430 10.944904 2.687333
v 0.195189 10.003277 2.654027
v 0.178651 10.006329 2.733246
v 0.206532 10.015916 2.674453
v 0.162363 10.064584 2.724558
v 3.333681 10.970692 3.395427
v 3.318369 10.997948 3.380759
v 3.238862 10.991690 3.614207
v 3.381458 10.944925 3.197939
v 3.210901 11.024291 3.606554
v 3.159777 10.971390 3.846999
v 3.100505 10.897877 4.023909
v 3.124317 11.008936 3.861137
v 3.119533 10.459941 4.044826
v 3.085858 10.704496 4.074940
v 3.091022 10.457902 4.070087
v 3.045564 10.724707 4.103985
v 3.141470 10.014242 3.999091
v 3.100708 10.212066 4.051941
v 3.126812 10.025510 3.983166
v 3.061784 10.186852 4.078865
v 3.417045 10.746775 3.160280
v 3.407563 10.758370 3.129164
v 3.417248 10.512533 3.111018
v 3.392562 10.782815 3.083854
v 3.431269 10.275135 3.138254
v 3.422412 10.265940 3.106166
v 3.407766 10.072559 3.157197
v 3.406931 10.001993 3.074301
v 3.408782 10.244961 3.058734
v 3.348493 9.999046 3.334106
v 3.269408 9.978746 3.566898
v 3.329062 9.971282 3.301924
v 3.210285 10.000251 3.797848
v 3.189901 9.972487 3.800347
v 3.156390 9.937124 3.810962
v 0.561350 10.467497 2.230626
v 0.555043 10.676555 2.240389
v 0.743283 10.679615 2.303122
v 0.355520 10.853082 2.212372
v 0.730377 10.866038 2.333184
v 0.567924 10.065605 2.228138
v 0.567657 10.258438 2.220863
v 0.755917 10.260866 2.283566
v 0.377971 10.068710 2.170168
v 0.379743 10.256912 2.157109
v 2.724616 10.501031 2.909839
v 2.448350 10.496951 2.818770
v 2.441257 10.732153 2.829755
v 2.717226 10.736803 2.921669
v 2.173990 10.493190 2.722098
v 2.166600 10.728963 2.733928
v 2.427853 10.945372 2.860155
v 2.702677 10.946728 2.955575
v 2.455443 10.261748 2.807785
v 2.731450 10.265164 2.899642
v 3.905766 10.475593 4.217523
v 3.963958 10.485338 4.046444
v 3.958364 10.686372 4.054453
v 3.901795 10.685800 4.220387
v 4.029145 10.496255 3.854800
v 4.023039 10.698664 3.864254
v 4.017589 10.879353 3.872692
v 3.950238 10.860712 4.071003
v 3.905019 10.829655 4.204922
v 4.094332 10.507171 3.663157
v 4.087803 10.708048 3.673918
v 4.152526 10.516915 3.492078
v 4.143837 10.726334 3.508812
v 4.132010 10.867667 3.537596
v 4.085382 10.883344 3.673697
v 3.926280 10.124842 4.172006
v 3.972580 10.109164 4.035795
v 3.970487 10.284461 4.035683
v 3.914453 10.266175 4.200789
v 4.040700 10.113156 3.836909
v 4.035250 10.293845 3.845347
v 4.108052 10.131797 3.638598
v 4.099926 10.306137 3.655148
v 4.153271 10.162854 3.504679
v 4.156495 10.306708 3.489214
v 3.854938 10.722762 4.356268
v 3.859241 10.467801 4.354299
v 3.871717 10.919101 4.298854
v 3.801745 11.069399 4.452147
v 3.799714 10.780584 4.468826
v 3.809030 10.461725 4.451773
v 3.930949 10.999567 4.119599
v 4.010846 11.023596 3.878611
v 3.994692 11.134413 3.879457
v 3.891581 11.116882 4.181269
v 4.093929 11.026929 3.637546
v 4.159606 10.967312 3.452493
v 4.192099 11.134768 3.304552
v 4.096270 11.141326 3.576660
v 4.188004 10.778539 3.377094
v 4.199049 10.524707 3.355302
v 3.870287 10.213969 4.332507
v 3.897994 10.025203 4.256880
v 3.818344 10.142913 4.434866
v 3.958691 9.965505 4.070165
v 4.040573 9.968898 3.828690
v 3.928450 9.851476 4.121531
v 4.203353 10.269746 3.353333
v 4.186573 10.073408 3.410747
v 4.228666 9.922710 3.247949
v 4.230750 10.211576 3.229770
v 4.125501 9.992934 3.589397
v 4.135088 9.875993 3.517629
v 3.400949 10.513935 3.070478
v 3.100180 10.509794 2.964801
v 3.092000 10.781063 2.977471
v 2.789118 10.774216 2.878103
v 2.772777 11.011785 2.916401
v 3.076405 11.026366 3.012946
v 3.108703 9.988309 2.961569
v 3.108360 10.238525 2.952131
v 2.803487 9.993394 2.868549
v 3.762460 10.027149 3.485288
v 3.561652 10.030589 3.420076
v 3.630605 10.061527 3.216552
v 3.485903 10.017903 3.642769
v 3.286259 10.012108 3.574530
v 3.362181 10.025688 3.351293
v 3.429464 10.062471 3.152422
v 3.609201 10.001484 3.935853
v 3.410154 10.005219 3.865463
v 3.539863 10.016034 4.138608
v 3.340037 10.012867 4.070789
v 3.029131 9.953582 3.196347
v 3.243280 9.947674 3.556229
v 2.941806 9.938157 3.453152
v 2.640000 9.936654 3.350407
v 2.854427 9.924147 3.710013
v 3.078195 9.946942 4.040746
v 2.774716 9.934213 3.943412
v 3.734907 11.125399 4.135026
v 3.839595 11.141098 3.827085
v 3.488894 11.067317 4.348271
v 3.640478 11.080684 4.413695
v 3.787091 11.150846 3.470200
v 3.944182 11.156598 3.519053
v 1.776255 11.019681 2.830915
v 1.421195 10.998929 2.996342
v 1.688877 11.005697 3.087780
v 1.956737 11.006548 3.178941
v 1.601513 10.991066 3.344621
v 1.523433 10.951799 3.575268
v 3.320219 10.462938 4.110126
v 3.313126 10.698141 4.121111
v 3.112699 10.695807 4.055024
v 3.510708 10.703367 4.195423
v 3.512671 10.917632 4.180717
v 3.327312 10.227736 4.099141
v 3.126922 10.224168 4.032996
v 3.525059 10.227490 4.173197
v 1.443151 10.943773 2.750831
v 1.477772 10.971741 2.753188
v 1.540860 10.918718 2.570368
v 1.367177 10.931915 2.974149
v 1.398264 10.965481 2.986636
v 1.507831 11.012572 2.741677
v 1.319180 10.945181 3.219429
v 1.223971 10.881552 3.396259
v 1.259907 10.871668 3.396338
v 1.334611 10.983562 3.250926
v 1.245260 10.678288 3.447369
v 1.229002 10.433022 3.400230
v 1.250424 10.431694 3.442516
v 1.260110 10.185858 3.424370
v 1.286215 9.999302 3.355594
v 1.566965 10.732162 2.501593
v 1.576651 10.486326 2.483446
v 1.602856 10.757333 2.473634
v 1.540738 10.248217 2.493657
v 1.581815 10.239732 2.478594
v 1.567168 10.046351 2.529625
v 1.619075 10.219478 2.448514
v 1.471649 9.998769 2.706697
v 1.507895 9.972838 2.706535
v 1.428811 9.952538 2.939327
v 1.540322 9.935139 2.691355
v 1.319754 9.973331 3.153252
v 1.349303 9.946280 3.172775
v 1.367101 9.906130 3.200604
v -0.074566 10.942953 2.220251
v 0.013906 10.953076 2.213715
v -0.198440 10.856282 2.039660
v -0.113897 10.907607 2.235120
v 0.052805 10.939207 2.479014
v 0.118942 10.964621 2.182925
v 0.166041 10.870198 2.737977
v 0.100188 10.942479 2.627574
v 2.729646 10.052500 2.913810
v 2.662362 10.015716 3.112681
v 2.386787 10.013858 3.019493
v 2.455740 10.044798 2.815968
v 2.311038 10.001173 3.242186
v 2.111737 10.007876 2.924940
v 2.510466 9.990278 3.559237
v 2.235289 9.988488 3.464880
v 2.166349 10.001515 3.666581
v 2.694232 11.023944 3.146348
v 2.996536 11.034515 3.246973
v 2.909095 11.022920 3.503817
v 3.297538 11.038039 3.351895
v 3.376151 11.022724 3.121974
v 2.821844 11.005807 3.760444
v 2.443970 10.959074 3.882668
v 2.743104 10.968400 3.993019
v 1.533903 10.484083 2.503854
v 1.173905 10.478803 2.384234
v 1.166812 10.714005 2.395219
v 1.526514 10.719856 2.515684
v 1.153567 10.926405 2.425264
v 1.511966 10.929782 2.549589
v 1.180998 10.243600 2.373250
v 0.870923 10.428062 3.274967
v 0.863972 10.663286 3.285534
v 1.222167 10.668888 3.410427
v 0.890727 9.977991 3.235670
v 0.878002 10.192859 3.264022
v 1.236391 10.197248 3.388399
v 0.792633 10.915057 2.308574
v 0.806887 10.706899 2.275459
v 0.765857 10.687454 2.291544
v 0.742958 10.851095 2.351871
v 0.814169 10.473565 2.263844
v 0.774355 10.471814 2.275627
v 0.749844 10.470282 2.292628
v 0.820963 10.240151 2.253661
v 0.778886 10.255509 2.271372
v 0.766039 10.085883 2.316135
v 0.714047 10.021399 2.471314
v 0.644677 10.003593 2.675512
v 0.602300 9.968221 2.906327
v 0.574935 9.998103 2.880286
v 0.519595 10.044612 3.040649
v 0.565902 10.017247 2.863995
v 0.649240 10.916572 2.729069
v 0.724423 10.928402 2.508071
v 0.687618 10.897605 2.512234
v 0.617877 10.892115 2.717008
v 0.604292 10.868007 2.708997
v 0.507379 10.867287 3.147189
v 0.548507 10.874309 2.921206
v 0.496515 10.809823 3.076385
v 0.540592 10.856257 2.903175
v 0.512554 10.423056 3.150555
v 0.505978 10.656495 3.160137
v 0.483668 10.640196 3.121148
v 0.488199 10.423892 3.116893
v 0.478189 10.634436 3.099254
v 0.484254 10.425020 3.090189
v 0.519835 10.189723 3.138940
v 0.496879 10.208276 3.100531
v 0.232793 10.422969 2.971889
v 0.358480 10.423603 3.039062
v 0.354003 10.634505 3.052509
v 0.247878 10.651200 3.000027
v 0.473024 10.829686 3.078453
v 0.367079 10.212571 3.031330
v 0.490806 10.215687 3.079693
v 3.402497 10.956701 3.194185
v 3.533279 10.971399 3.464015
v 3.257708 10.958836 3.618745
v 3.457531 10.958714 3.686708
v 3.657041 10.968928 3.755154
v 3.733700 10.980807 3.529827
v 3.181786 10.945255 3.841983
v 3.381782 10.946029 3.909402
v 3.114502 10.908472 4.040855
v 3.312828 10.915091 4.112927
v 1.263690 10.430249 3.482022
v 1.530660 10.433923 3.575676
v 1.522822 10.705223 3.587369
v 1.256552 10.699209 3.491855
v 1.799309 10.437881 3.664376
v 1.791400 10.706841 3.676364
v 1.257709 10.942189 3.478198
v 1.538718 10.162635 3.563366
v 1.272077 10.161368 3.468645
v 3.910296 10.526272 3.134955
v 4.058742 10.854028 3.196635
v 4.068491 10.528872 3.181626
v 4.039456 11.145307 3.240657
v 4.211503 10.849502 3.259561
v 4.221492 10.530600 3.243592
v 3.919658 10.205716 3.120892
v 4.077807 10.203684 3.167819
v 4.077278 9.906398 3.181770
v 0.079895 10.465435 1.963867
v 0.073879 10.722272 1.977681
v 0.346679 10.723213 2.088140
v -0.137202 10.929583 1.943475
v 0.078359 10.949168 2.017446
v 0.338870 10.951407 2.112519
v 0.110051 9.974938 1.963589
v 0.089644 10.208576 1.952958
v 0.365526 10.214261 2.059831
v -0.184913 10.200033 1.861332
v 3.623216 10.513679 3.219353
v 3.616122 10.748881 3.230337
v 3.424435 10.511002 3.148451
v 3.603396 10.963750 3.258689
v 3.630308 10.278476 3.208368
v 3.832194 10.278925 3.270258
v 2.633863 10.960719 3.156816
v 2.661000 10.988579 3.156622
v 2.724089 10.935556 2.973803
v 2.557889 10.948862 3.380134
v 2.581493 10.982321 3.390070
v 2.607488 11.015231 3.400790
v 2.481967 10.935281 3.603372
v 2.502409 10.962021 3.622862
v 2.443136 10.888507 3.799772
v 2.520892 11.000021 3.655367
v 2.428489 10.695127 3.850803
v 2.419713 10.449968 3.806215
v 2.433653 10.448533 3.845950
v 2.427103 10.214195 3.794385
v 2.443339 10.202696 3.827803
v 2.441651 10.004270 3.760479
v 2.469444 10.016141 3.759027
v 2.750194 10.749002 2.905027
v 2.759880 10.503166 2.886880
v 2.797505 10.505336 2.864726
v 2.765045 10.256572 2.882028
v 2.750397 10.063190 2.933059
v 2.805337 10.236362 2.852982
v 2.586440 10.002134 3.335919
v 2.691124 9.989677 3.109968
v 2.612040 9.969378 3.342761
v 2.726584 9.952021 3.095822
v 2.532532 9.963119 3.576209
v 2.553364 9.923012 3.605071
v 2.146785 10.496070 2.642856
v 1.879967 10.492420 2.548755
v 1.871786 10.763689 2.561425
v 1.611243 10.488452 2.460258
v 1.586444 10.997242 2.511755
v 1.856755 11.010583 2.595206
v 2.121986 11.004861 2.694353
v 2.152767 9.984129 2.646679
v 1.888489 9.970936 2.545525
v 1.888147 10.221151 2.536086
v 1.617224 9.976511 2.464081
v 0.221560 9.931594 2.467083
v 0.082160 9.939008 2.432187
v -0.042662 9.958299 2.173196
v 0.043621 9.946861 2.166805
v -0.070322 10.018176 2.186945
v -0.170963 9.987469 1.899551
v 0.149226 9.946195 2.135288
v 0.368043 9.984196 2.067348
v 0.143542 9.945210 2.570931
v 0.191992 9.966054 2.690693
v 3.486819 10.777480 4.366467
v 3.641263 10.783978 4.423979
v 3.649817 10.458758 4.412488
v 3.659735 10.133637 4.396977
v 3.817737 9.873228 4.385096
v 3.503118 10.734005 4.274842
v 3.519321 10.947957 4.218382
v 3.517576 10.465377 4.185214
v 3.508834 10.461178 4.269475
v 3.496182 10.456923 4.352402
v 3.580440 10.955143 3.980393
v 3.584899 11.029290 4.022652
v 3.672396 11.051748 3.765095
v 3.580649 11.116275 4.077117
v 3.683841 11.134514 3.773704
v 3.803039 10.966257 3.327072
v 3.760362 11.058673 3.506813
v 3.830162 11.000010 3.304545
v 3.880864 11.132957 3.195924
v 3.825325 10.516913 3.280468
v 3.817842 10.754800 3.292483
v 3.859047 10.793609 3.228454
v 3.869765 10.521620 3.208378
v 3.900319 10.846725 3.150826
v 3.519553 10.189189 4.249398
v 3.548436 9.982787 4.173306
v 3.525613 9.850238 4.291433
v 3.506158 10.136470 4.336531
v 3.618237 9.924124 3.971039
v 3.685860 10.013363 3.710526
v 3.706203 9.931049 3.712756
v 3.722636 9.848681 3.713654
v 3.830229 10.064660 3.284964
v 3.875481 10.248794 3.203011
v 3.859277 10.034842 3.259471
v 3.917583 9.915879 3.139087
v 3.793699 9.953508 3.455200
v 3.825828 9.866921 3.410241
vt 0.7822 0.4351
vt 0.7450 0.4352
vt 0.7449 0.4037
vt 0.7820 0.4036
vt 0.7078 0.4352
vt 0.7078 0.4038
vt 0.7080 0.3753
vt 0.7449 0.3753
vt 0.7817 0.3751
vt 0.7824 0.4950
vt 0.7451 0.4960
vt 0.7450 0.4669
vt 0.7823 0.4666
vt 0.7078 0.4952
vt 0.7078 0.4667
vt 0.7513 0.7082
vt 0.7600 0.7243
vt 0.7382 0.7313
vt 0.7333 0.7110
vt 0.7667 0.7473
vt 0.7420 0.7535
vt 0.7221 0.7606
vt 0.7161 0.7368
vt 0.7112 0.7148
vt 0.7752 0.7635
vt 0.7605 0.7846
vt 0.7508 0.7786
vt 0.7774 0.7730
vt 0.7673 0.7905
vt 0.7572 0.8014
vt 0.7484 0.8031
vt 0.7334 0.8046
vt 0.7404 0.7727
vt 0.7277 0.7838
vt 0.8127 0.1359
vt 0.8123 0.1073
vt 0.8452 0.1073
vt 0.8452 0.1359
vt 0.8122 0.0759
vt 0.8452 0.0758
vt 0.8782 0.0759
vt 0.8781 0.1074
vt 0.8777 0.1359
vt 0.8121 0.0444
vt 0.8452 0.0441
vt 0.8121 0.0159
vt 0.8452 0.0149
vt 0.8783 0.0159
vt 0.8783 0.0444
vt 0.7093 0.6180
vt 0.7134 0.5952
vt 0.7360 0.5998
vt 0.7319 0.6207
vt 0.7186 0.5708
vt 0.7391 0.5772
vt 0.7635 0.5819
vt 0.7585 0.6065
vt 0.7497 0.6229
vt 0.7282 0.5257
vt 0.7434 0.5265
vt 0.7566 0.5447
vt 0.7471 0.5513
vt 0.7524 0.5279
vt 0.7628 0.5386
vt 0.7761 0.5536
vt 0.7724 0.5651
vt 0.7367 0.5578
vt 0.7234 0.5471
vt 0.6549 0.8308
vt 0.6211 0.8308
vt 0.6211 0.8035
vt 0.6549 0.8032
vt 0.5872 0.8308
vt 0.5872 0.8032
vt 0.5874 0.7784
vt 0.6211 0.7784
vt 0.6547 0.7784
vt 0.6550 0.8832
vt 0.6211 0.8830
vt 0.6211 0.8583
vt 0.6550 0.8583
vt 0.5871 0.8832
vt 0.5871 0.8583
vt 0.6548 0.6737
vt 0.6549 0.6985
vt 0.6211 0.6986
vt 0.6211 0.6737
vt 0.6549 0.7260
vt 0.6211 0.7260
vt 0.5872 0.7260
vt 0.5872 0.6985
vt 0.5873 0.6737
vt 0.6549 0.7536
vt 0.6211 0.7534
vt 0.5872 0.7536
vt 0.6751 0.2246
vt 0.6754 0.2493
vt 0.6312 0.2495
vt 0.6311 0.2246
vt 0.6756 0.2766
vt 0.6314 0.2768
vt 0.5872 0.2771
vt 0.5871 0.2495
vt 0.5871 0.2246
vt 0.6757 0.3038
vt 0.6316 0.3042
vt 0.6757 0.3285
vt 0.6317 0.3291
vt 0.5878 0.3296
vt 0.5875 0.3047
vt 0.4044 0.4089
vt 0.3812 0.4008
vt 0.3814 0.3967
vt 0.4059 0.4048
vt 0.3530 0.3986
vt 0.3530 0.3944
vt 0.3530 0.3795
vt 0.3809 0.3913
vt 0.4073 0.4007
vt 0.4508 0.4334
vt 0.4275 0.4173
vt 0.4300 0.4140
vt 0.4535 0.4301
vt 0.4337 0.4101
vt 0.4628 0.4186
vt 0.4841 0.4739
vt 0.4713 0.4529
vt 0.4740 0.4499
vt 0.4879 0.4716
vt 0.4770 0.4454
vt 0.4915 0.4694
vt 0.5041 0.5159
vt 0.4968 0.4950
vt 0.5007 0.4939
vt 0.5066 0.5139
vt 0.5061 0.4933
vt 0.5177 0.5159
vt 0.3248 0.4008
vt 0.3246 0.3967
vt 0.3016 0.4089
vt 0.3001 0.4048
vt 0.2987 0.4007
vt 0.3251 0.3913
vt 0.2785 0.4173
vt 0.2760 0.4140
vt 0.2552 0.4334
vt 0.2525 0.4301
vt 0.2432 0.4186
vt 0.2723 0.4101
vt 0.2347 0.4529
vt 0.2320 0.4499
vt 0.2219 0.4739
vt 0.2181 0.4716
vt 0.2144 0.4694
vt 0.2290 0.4454
vt 0.2092 0.4950
vt 0.2053 0.4939
vt 0.2018 0.5159
vt 0.1994 0.5139
vt 0.1883 0.5158
vt 0.1999 0.4934
vt 0.9455 0.0155
vt 0.9463 0.0494
vt 0.9270 0.0494
vt 0.9261 0.0149
vt 0.9472 0.0869
vt 0.9279 0.0873
vt 0.9089 0.0878
vt 0.9080 0.0505
vt 0.9091 0.0170
vt 0.9480 0.1244
vt 0.9288 0.1252
vt 0.9485 0.1584
vt 0.9296 0.1586
vt 0.9106 0.1590
vt 0.9098 0.1251
vt 0.5506 0.3324
vt 0.5501 0.3360
vt 0.5503 0.3384
vt 0.5495 0.3344
vt 0.5483 0.3388
vt 0.5465 0.3380
vt 0.5477 0.3371
vt 0.5432 0.3343
vt 0.4238 0.3271
vt 0.4254 0.3313
vt 0.4265 0.3342
vt 0.4239 0.3313
vt 0.4268 0.3309
vt 0.4281 0.3323
vt 0.4240 0.3339
vt 0.4185 0.3387
vt 0.0691 0.9528
vt 0.0427 0.9557
vt 0.0380 0.9470
vt 0.0499 0.9420
vt 0.0240 0.9593
vt 0.0258 0.9442
vt 0.0232 0.9244
vt 0.5420 0.3241
vt 0.5438 0.3152
vt 0.5381 0.3218
vt 0.5288 0.3027
vt 0.1120 0.9250
vt 0.1125 0.9447
vt 0.1001 0.9474
vt 0.0884 0.9422
vt 0.1141 0.9596
vt 0.0955 0.9560
vt 0.3955 0.3089
vt 0.4144 0.3209
vt 0.4168 0.3259
vt 0.4059 0.3250
vt 0.8435 0.8999
vt 0.8379 0.9137
vt 0.8274 0.9026
vt 0.8244 0.8926
vt 0.8302 0.9209
vt 0.8190 0.8985
vt 0.7977 0.8752
vt 0.0149 0.8879
vt 0.0162 0.8559
vt 0.0269 0.8572
vt 0.0310 0.8755
vt 0.0232 0.8314
vt 0.0368 0.8437
vt 0.0625 0.8654
vt 0.0468 0.8317
vt 0.0657 0.8340
vt 0.0402 0.8207
vt 0.0700 0.8149
vt 0.0191 0.9064
vt 0.0302 0.8939
vt 0.0444 0.8990
vt 0.0690 0.9379
vt 0.0681 0.9256
vt 0.0657 0.9082
vt 0.0857 0.8994
vt 0.1213 0.8891
vt 0.1163 0.9072
vt 0.1013 0.8945
vt 0.0993 0.8762
vt 0.1137 0.8325
vt 0.1204 0.8571
vt 0.1052 0.8580
vt 0.0941 0.8443
vt 0.0860 0.8322
vt 0.0977 0.8214
vt 0.7488 0.8477
vt 0.7539 0.8416
vt 0.7673 0.8496
vt 0.7719 0.8569
vt 0.7698 0.8344
vt 0.7791 0.8524
vt 0.5879 0.1197
vt 0.5881 0.0949
vt 0.6322 0.0953
vt 0.6317 0.1203
vt 0.5884 0.0673
vt 0.6327 0.0679
vt 0.6768 0.0689
vt 0.6762 0.0961
vt 0.6756 0.1208
vt 0.5889 0.0397
vt 0.6331 0.0405
vt 0.5893 0.0149
vt 0.6336 0.0152
vt 0.6779 0.0169
vt 0.6774 0.0416
vt 0.5217 0.3329
vt 0.5012 0.3323
vt 0.4994 0.3282
vt 0.5213 0.3298
vt 0.4823 0.3382
vt 0.4786 0.3331
vt 0.4696 0.3200
vt 0.4950 0.3226
vt 0.5191 0.3253
vt 0.7702 0.9686
vt 0.7618 0.9501
vt 0.7661 0.9487
vt 0.7765 0.9679
vt 0.7454 0.9332
vt 0.7477 0.9307
vt 0.7503 0.9277
vt 0.7723 0.9476
vt 0.7918 0.9662
vt 0.7268 0.9189
vt 0.7277 0.9145
vt 0.7076 0.9125
vt 0.7076 0.9063
vt 0.7077 0.8909
vt 0.7284 0.9080
vt 0.4394 0.2691
vt 0.4306 0.2868
vt 0.4268 0.2843
vt 0.4350 0.2648
vt 0.4275 0.3070
vt 0.4245 0.3061
vt 0.4193 0.3028
vt 0.4215 0.2793
vt 0.4235 0.2541
vt 0.4262 0.3231
vt 0.4234 0.3226
vt 0.4219 0.3203
vt 0.7604 0.9512
vt 0.7439 0.9349
vt 0.7695 0.9686
vt 0.7569 0.6890
vt 0.7567 0.7073
vt 0.7548 0.6901
vt 0.7573 0.6656
vt 0.7547 0.6656
vt 0.7258 0.9204
vt 0.7076 0.9132
vt 0.7562 0.6422
vt 0.7541 0.6411
vt 0.7555 0.6237
vt 0.4323 0.2872
vt 0.4298 0.3073
vt 0.4399 0.2696
vt 0.7609 0.6060
vt 0.7674 0.5855
vt 0.5013 0.3341
vt 0.4827 0.3388
vt 0.5216 0.3351
vt 0.7626 0.7246
vt 0.7696 0.7446
vt 0.5372 0.3350
vt 0.5376 0.3365
vt 0.7760 0.7611
vt 0.7804 0.7719
vt 0.5368 0.3326
vt 0.5355 0.3285
vt 0.4283 0.3235
vt 0.7737 0.5688
vt 0.7804 0.5592
vt 0.0674 0.6227
vt 0.0654 0.5950
vt 0.0691 0.5937
vt 0.0717 0.6223
vt 0.0604 0.5726
vt 0.0628 0.5726
vt 0.3249 0.6917
vt 0.3159 0.6702
vt 0.3243 0.6607
vt 0.3302 0.6884
vt 0.3292 0.7201
vt 0.3343 0.7194
vt 0.0683 0.6732
vt 0.0698 0.6503
vt 0.0736 0.6511
vt 0.0708 0.6728
vt 0.3323 0.7486
vt 0.3383 0.7505
vt 0.3292 0.7717
vt 0.3397 0.7788
vt 0.0832 0.7217
vt 0.0769 0.6945
vt 0.0803 0.6926
vt 0.0875 0.7206
vt 0.3090 0.7834
vt 0.3130 0.7882
vt 0.2814 0.7913
vt 0.2827 0.7962
vt 0.0947 0.7745
vt 0.0903 0.7494
vt 0.0944 0.7493
vt 0.0971 0.7729
vt 0.2535 0.7980
vt 0.2524 0.8042
vt 0.2302 0.7978
vt 0.2245 0.8092
vt 0.0654 0.5503
vt 0.0691 0.5516
vt 0.0674 0.5226
vt 0.0717 0.5230
vt 0.2934 0.6641
vt 0.2647 0.6635
vt 0.2647 0.6585
vt 0.2960 0.6585
vt 0.0698 0.4950
vt 0.0736 0.4942
vt 0.0683 0.4721
vt 0.0708 0.4725
vt 0.2360 0.6642
vt 0.2135 0.6704
vt 0.2052 0.6609
vt 0.2334 0.6586
vt 0.0769 0.4508
vt 0.0803 0.4527
vt 0.0832 0.4236
vt 0.0875 0.4247
vt 0.2048 0.6920
vt 0.2000 0.7203
vt 0.1952 0.7196
vt 0.2005 0.6887
vt 0.0903 0.3959
vt 0.0944 0.3959
vt 0.0947 0.3708
vt 0.0971 0.3723
vt 0.1965 0.7488
vt 0.1990 0.7720
vt 0.1883 0.7787
vt 0.1910 0.7506
vt 0.7076 0.6664
vt 0.7314 0.6660
vt 0.7319 0.6901
vt 0.7086 0.6918
vt 0.7311 0.6420
vt 0.7078 0.6410
vt 0.5872 0.6213
vt 0.6211 0.6213
vt 0.6211 0.6487
vt 0.5872 0.6488
vt 0.6549 0.6213
vt 0.6549 0.6488
vt 0.5874 0.5689
vt 0.6210 0.5689
vt 0.6210 0.5940
vt 0.5872 0.5938
vt 0.6547 0.5689
vt 0.6549 0.5938
vt 0.4441 0.7778
vt 0.4441 0.7568
vt 0.4675 0.7565
vt 0.4686 0.7769
vt 0.4440 0.7332
vt 0.4675 0.7331
vt 0.4886 0.7330
vt 0.4878 0.7574
vt 0.4852 0.7741
vt 0.4439 0.7096
vt 0.4673 0.7097
vt 0.4438 0.6886
vt 0.4682 0.6893
vt 0.4848 0.6920
vt 0.4876 0.7086
vt 0.4031 0.7744
vt 0.4003 0.7578
vt 0.4207 0.7567
vt 0.4197 0.7770
vt 0.3993 0.7334
vt 0.4204 0.7333
vt 0.4001 0.7089
vt 0.4205 0.7099
vt 0.4027 0.6923
vt 0.4193 0.6895
vt 0.4738 0.7933
vt 0.4442 0.7946
vt 0.4962 0.7850
vt 0.5149 0.8035
vt 0.4814 0.8074
vt 0.4442 0.8074
vt 0.5043 0.7626
vt 0.5054 0.7329
vt 0.5184 0.7329
vt 0.5185 0.7701
vt 0.5041 0.7033
vt 0.4958 0.6809
vt 0.5143 0.6622
vt 0.5171 0.6957
vt 0.4733 0.6728
vt 0.4437 0.6717
vt 0.4436 0.6585
vt 0.4808 0.6585
vt 0.4146 0.7935
vt 0.3922 0.7854
vt 0.4071 0.8073
vt 0.3754 0.8038
vt 0.3839 0.7631
vt 0.3825 0.7335
vt 0.3710 0.7707
vt 0.3694 0.7335
vt 0.4141 0.6731
vt 0.3917 0.6814
vt 0.3730 0.6629
vt 0.4065 0.6588
vt 0.3836 0.7038
vt 0.3695 0.6963
vt 0.7077 0.1953
vt 0.7448 0.1954
vt 0.7447 0.2269
vt 0.7076 0.2268
vt 0.7819 0.1955
vt 0.7818 0.2270
vt 0.7814 0.2552
vt 0.7446 0.2554
vt 0.7078 0.2553
vt 0.7083 0.1353
vt 0.7449 0.1354
vt 0.7449 0.1640
vt 0.7078 0.1638
vt 0.7816 0.1355
vt 0.7819 0.1640
vt 0.0234 0.4649
vt 0.0283 0.4397
vt 0.0527 0.4445
vt 0.0473 0.4687
vt 0.0346 0.4122
vt 0.0589 0.4178
vt 0.0409 0.3848
vt 0.0653 0.3905
vt 0.0463 0.3601
vt 0.0706 0.3654
vt 0.7080 0.1069
vt 0.7450 0.1068
vt 0.7079 0.0754
vt 0.7450 0.0753
vt 0.7822 0.0755
vt 0.7821 0.1070
vt 0.7079 0.0439
vt 0.7451 0.0437
vt 0.7078 0.0155
vt 0.7451 0.0149
vt 0.7824 0.0155
vt 0.7823 0.0440
vt 0.9496 0.3731
vt 0.9493 0.4106
vt 0.9300 0.4108
vt 0.9303 0.3729
vt 0.9486 0.4447
vt 0.9297 0.4444
vt 0.9107 0.4440
vt 0.9109 0.4101
vt 0.9112 0.3727
vt 0.9498 0.3015
vt 0.9499 0.3355
vt 0.9307 0.3349
vt 0.9309 0.3015
vt 0.9116 0.3354
vt 0.9118 0.3015
vt 0.8778 0.2559
vt 0.8781 0.2844
vt 0.8452 0.2844
vt 0.8452 0.2559
vt 0.8782 0.3158
vt 0.8452 0.3159
vt 0.8122 0.3158
vt 0.8123 0.2844
vt 0.8126 0.2559
vt 0.8781 0.3473
vt 0.8452 0.3474
vt 0.8779 0.3758
vt 0.8452 0.3758
vt 0.8124 0.3758
vt 0.8122 0.3473
vt 0.0589 0.7275
vt 0.0527 0.7008
vt 0.0346 0.7331
vt 0.0283 0.7056
vt 0.0234 0.6804
vt 0.0473 0.6766
vt 0.0706 0.7799
vt 0.0653 0.7548
vt 0.0463 0.7852
vt 0.0409 0.7605
vt 0.1387 0.1727
vt 0.1358 0.1453
vt 0.1405 0.1448
vt 0.1439 0.1727
vt 0.1271 0.1220
vt 0.1317 0.1202
vt 0.1358 0.1187
vt 0.1460 0.1451
vt 0.1586 0.1727
vt 0.1181 0.0988
vt 0.1219 0.0960
vt 0.1019 0.0764
vt 0.1058 0.0730
vt 0.1167 0.0632
vt 0.1257 0.0921
vt 0.0814 0.0581
vt 0.0846 0.0546
vt 0.0593 0.0466
vt 0.0615 0.0422
vt 0.0635 0.0383
vt 0.0888 0.0513
vt 0.0370 0.0354
vt 0.0380 0.0308
vt 0.0154 0.0293
vt 0.0174 0.0259
vt 0.0149 0.0149
vt 0.0383 0.0253
vt 0.1270 0.2233
vt 0.1358 0.2001
vt 0.1405 0.2005
vt 0.1317 0.2251
vt 0.1459 0.2002
vt 0.1357 0.2267
vt 0.1018 0.2689
vt 0.1180 0.2465
vt 0.1218 0.2493
vt 0.1057 0.2723
vt 0.1256 0.2532
vt 0.1165 0.2821
vt 0.0592 0.2987
vt 0.0813 0.2873
vt 0.0845 0.2908
vt 0.0615 0.3031
vt 0.0888 0.2942
vt 0.0635 0.3070
vt 0.0154 0.3159
vt 0.0370 0.3099
vt 0.0380 0.3145
vt 0.0174 0.3193
vt 0.0382 0.3200
vt 0.0149 0.3304
vt 0.4766 0.2586
vt 0.4821 0.2503
vt 0.5034 0.2806
vt 0.4977 0.2899
vt 0.4960 0.2529
vt 0.5086 0.2765
vt 0.5233 0.3088
vt 0.4887 0.2996
vt 0.4728 0.2863
vt 0.5336 0.3217
vt 0.5872 0.5441
vt 0.6210 0.5439
vt 0.5872 0.5165
vt 0.6210 0.5165
vt 0.6549 0.5165
vt 0.6549 0.5441
vt 0.5871 0.4890
vt 0.6210 0.4890
vt 0.5871 0.4642
vt 0.6210 0.4642
vt 0.6550 0.4642
vt 0.6550 0.4890
vt 0.7817 0.2837
vt 0.7447 0.2837
vt 0.7819 0.3151
vt 0.7447 0.3152
vt 0.7076 0.3153
vt 0.7076 0.2838
vt 0.7819 0.3466
vt 0.7448 0.3467
vt 0.7077 0.3468
vt 0.5872 0.1722
vt 0.6314 0.1725
vt 0.6312 0.1998
vt 0.5871 0.1998
vt 0.6755 0.1727
vt 0.6753 0.2000
vt 0.6316 0.1452
vt 0.5875 0.1446
vt 0.6756 0.1455
vt 0.6769 0.3804
vt 0.6327 0.3813
vt 0.6322 0.3539
vt 0.6763 0.3532
vt 0.5884 0.3820
vt 0.5880 0.3544
vt 0.6779 0.4323
vt 0.6336 0.4341
vt 0.6331 0.4087
vt 0.6774 0.4077
vt 0.5893 0.4344
vt 0.5889 0.4096
vt 0.3655 0.6287
vt 0.3402 0.6213
vt 0.3395 0.6164
vt 0.3655 0.6155
vt 0.3166 0.6165
vt 0.3175 0.6123
vt 0.3181 0.6093
vt 0.3393 0.6136
vt 0.3655 0.6118
vt 0.2930 0.6116
vt 0.2956 0.6074
vt 0.2668 0.6085
vt 0.2721 0.5964
vt 0.2735 0.5930
vt 0.2969 0.6050
vt 0.2466 0.5916
vt 0.2478 0.5868
vt 0.2268 0.5778
vt 0.2293 0.5743
vt 0.2312 0.5720
vt 0.2488 0.5843
vt 0.2068 0.5638
vt 0.2110 0.5608
vt 0.1883 0.5516
vt 0.1973 0.5480
vt 0.1993 0.5456
vt 0.2136 0.5597
vt 0.4144 0.6162
vt 0.3908 0.6211
vt 0.3915 0.6162
vt 0.4135 0.6120
vt 0.3916 0.6135
vt 0.4127 0.6091
vt 0.4617 0.6096
vt 0.4382 0.6110
vt 0.4358 0.6069
vt 0.4572 0.5985
vt 0.4336 0.6048
vt 0.4543 0.5958
vt 0.5002 0.5795
vt 0.4811 0.5936
vt 0.4798 0.5889
vt 0.4977 0.5761
vt 0.4790 0.5867
vt 0.4960 0.5739
vt 0.5354 0.5509
vt 0.5192 0.5651
vt 0.5150 0.5625
vt 0.5263 0.5487
vt 0.5131 0.5611
vt 0.5258 0.5456
vt 0.0690 0.9693
vt 0.0445 0.9695
vt 0.0689 0.9851
vt 0.0445 0.9849
vt 0.0216 0.9834
vt 0.0223 0.9682
vt 0.1157 0.9686
vt 0.0936 0.9697
vt 0.1163 0.9839
vt 0.0934 0.9851
vt 0.0405 0.5973
vt 0.0390 0.5726
vt 0.0426 0.6246
vt 0.0176 0.6266
vt 0.0157 0.5984
vt 0.0149 0.5726
vt 0.0449 0.6519
vt 0.0201 0.6548
vt 0.8782 0.4358
vt 0.8452 0.4359
vt 0.8452 0.4042
vt 0.8781 0.4043
vt 0.8121 0.4358
vt 0.8122 0.4043
vt 0.8783 0.4957
vt 0.8452 0.4968
vt 0.8452 0.4676
vt 0.8783 0.4673
vt 0.8121 0.4958
vt 0.8121 0.4673
vt 0.9495 0.2299
vt 0.9498 0.2674
vt 0.9306 0.2680
vt 0.9302 0.2301
vt 0.9113 0.2676
vt 0.9110 0.2303
vt 0.9491 0.1924
vt 0.9299 0.1922
vt 0.9107 0.1929
vt 0.7735 0.9019
vt 0.7956 0.9224
vt 0.8139 0.9421
vt 0.7289 0.8657
vt 0.7508 0.8822
vt 0.0176 0.5187
vt 0.0426 0.5206
vt 0.0405 0.5479
vt 0.0157 0.5469
vt 0.0449 0.4934
vt 0.0201 0.4904
vt 0.3036 0.1833
vt 0.3014 0.1550
vt 0.3055 0.1548
vt 0.3078 0.1833
vt 0.2935 0.1316
vt 0.2977 0.1302
vt 0.3019 0.1287
vt 0.3106 0.1555
vt 0.3226 0.1836
vt 0.2854 0.1083
vt 0.2888 0.1059
vt 0.2696 0.0846
vt 0.2730 0.0820
vt 0.2848 0.0727
vt 0.2928 0.1021
vt 0.2505 0.0635
vt 0.2537 0.0609
vt 0.2298 0.0500
vt 0.2322 0.0463
vt 0.2347 0.0425
vt 0.2583 0.0578
vt 0.2090 0.0367
vt 0.2102 0.0328
vt 0.1883 0.0286
vt 0.1903 0.0261
vt 0.1888 0.0149
vt 0.2110 0.0272
vt 0.2935 0.2346
vt 0.3015 0.2114
vt 0.3055 0.2116
vt 0.2976 0.2361
vt 0.3111 0.2112
vt 0.3019 0.2376
vt 0.2694 0.2811
vt 0.2853 0.2577
vt 0.2886 0.2602
vt 0.2727 0.2837
vt 0.2926 0.2639
vt 0.2844 0.2930
vt 0.2297 0.3152
vt 0.2503 0.3019
vt 0.2534 0.3046
vt 0.2320 0.3189
vt 0.2580 0.3076
vt 0.2345 0.3227
vt 0.1883 0.3362
vt 0.2089 0.3283
vt 0.2101 0.3322
vt 0.1903 0.3386
vt 0.2108 0.3377
vt 0.1887 0.3498
vt 0.8122 0.1959
vt 0.8452 0.1959
vt 0.8452 0.2273
vt 0.8123 0.2273
vt 0.8781 0.1959
vt 0.8781 0.2273
vt 0.8452 0.1644
vt 0.8123 0.1644
vt 0.8781 0.1644
vt 0.4028 0.3040
vt 0.3795 0.2797
vt 0.3892 0.2760
vt 0.3733 0.2848
vt 0.3523 0.2690
vt 0.3552 0.2527
vt 0.3623 0.2503
vt 0.4002 0.2690
vt 0.3900 0.2503
vt 0.4143 0.3165
vt 0.9482 0.4787
vt 0.9289 0.4779
vt 0.9473 0.5163
vt 0.9280 0.5158
vt 0.9088 0.5154
vt 0.9097 0.4780
vt 0.9464 0.5539
vt 0.9271 0.5539
vt 0.9456 0.5879
vt 0.9262 0.5886
vt 0.9094 0.5849
vt 0.9080 0.5527
vt 0.4586 0.0415
vt 0.4376 0.0552
vt 0.4348 0.0456
vt 0.4589 0.0358
vt 0.4165 0.0730
vt 0.4101 0.0654
vt 0.4038 0.0580
vt 0.4323 0.0340
vt 0.4600 0.0149
vt 0.4970 0.0774
vt 0.4779 0.0574
vt 0.4817 0.0482
vt 0.5042 0.0706
vt 0.4856 0.0369
vt 0.5112 0.0639
vt 0.5307 0.1177
vt 0.5159 0.0975
vt 0.5253 0.0942
vt 0.5365 0.1177
vt 0.5368 0.0910
vt 0.5574 0.1177
vt 0.4970 0.1580
vt 0.5159 0.1379
vt 0.5253 0.1412
vt 0.5042 0.1648
vt 0.5368 0.1444
vt 0.5112 0.1715
vt 0.3955 0.0909
vt 0.3865 0.0866
vt 0.3786 0.1092
vt 0.3730 0.1085
vt 0.3523 0.1066
vt 0.3755 0.0822
vt 0.3786 0.1262
vt 0.3955 0.1445
vt 0.3865 0.1488
vt 0.3730 0.1270
vt 0.4165 0.1625
vt 0.4101 0.1700
vt 0.4038 0.1774
vt 0.3755 0.1533
vt 0.3523 0.1289
vt 0.4586 0.1939
vt 0.4779 0.1780
vt 0.4818 0.1872
vt 0.4589 0.1997
vt 0.4856 0.1985
vt 0.4601 0.2206
vt 0.4376 0.1803
vt 0.4349 0.1898
vt 0.4323 0.2014
vn -0.7068 -0.0535 0.7054
vn -0.3216 -0.0525 0.9454
vn -0.3227 0.0012 0.9465
vn -0.7570 0.0107 0.6534
vn 0.1298 -0.0416 0.9906
vn 0.1997 0.0243 0.9796
vn 0.2501 0.5886 0.7688
vn -0.2493 0.6661 0.7029
vn -0.6823 0.5756 0.4506
vn -0.6470 -0.6538 0.3924
vn -0.2018 -0.7486 0.6316
vn -0.3193 -0.1100 0.9412
vn -0.7536 -0.1177 0.6467
vn 0.2885 -0.6455 0.7072
vn 0.2043 -0.1040 0.9733
vn -0.1941 0.6763 -0.7106
vn -0.2014 0.9707 -0.1308
vn -0.0170 0.9997 -0.0166
vn 0.1915 0.7432 -0.6410
vn 0.1752 0.9770 0.1211
vn -0.0335 0.9984 0.0451
vn -0.4607 0.8814 -0.1039
vn -0.2505 0.9605 -0.1207
vn 0.1713 0.7430 -0.6470
vn 0.4819 0.8362 0.2619
vn -0.2367 0.9539 0.1845
vn -0.0439 0.9954 0.0853
vn -0.7584 0.0858 0.6460
vn -0.7667 0.4922 0.4122
vn -0.6036 0.4686 0.6450
vn -0.3151 0.6321 0.7079
vn -0.2434 0.7350 0.6328
vn -0.0421 0.9970 0.0639
vn -0.3401 0.9403 0.0091
vn 0.6975 -0.5672 -0.4379
vn 0.5449 -0.8352 0.0741
vn 0.0469 -0.9942 -0.0961
vn 0.2487 -0.6679 -0.7014
vn 0.4699 -0.8758 0.1099
vn 0.0301 -0.9984 -0.0466
vn -0.4167 -0.8884 -0.1924
vn -0.4552 -0.8494 -0.2669
vn -0.2701 -0.5809 -0.7678
vn 0.5062 -0.8417 0.1879
vn 0.0132 -0.9999 0.0030
vn 0.3068 -0.6325 0.7111
vn -0.2061 -0.7440 0.6355
vn -0.6609 -0.6464 0.3813
vn -0.4939 -0.8559 -0.1531
vn 0.2217 -0.6679 -0.7104
vn -0.1910 -0.9596 -0.2067
vn 0.0439 -0.9941 -0.0993
vn 0.2427 -0.6676 -0.7038
vn -0.4072 -0.8940 -0.1868
vn 0.0273 -0.9984 -0.0480
vn 0.1968 -0.9803 0.0143
vn -0.1939 -0.9554 -0.2225
vn -0.1886 -0.6065 -0.7724
vn -0.1970 -0.8031 0.5623
vn -0.2775 -0.7104 0.6467
vn -0.2319 -0.9675 0.1007
vn 0.0165 -0.9998 -0.0074
vn -0.5831 -0.5557 0.5925
vn -0.7493 -0.5616 0.3509
vn -0.7750 -0.3950 0.4933
vn 0.3677 -0.8917 0.2638
vn 0.0185 -0.9994 -0.0292
vn -0.2829 -0.9558 -0.0795
vn 0.1089 -0.0445 0.9930
vn -0.3219 -0.0555 0.9451
vn -0.3228 -0.0017 0.9464
vn -0.0199 0.0320 0.9993
vn -0.6908 -0.0552 0.7208
vn -0.5950 0.0240 0.8033
vn -0.3927 0.6577 0.6428
vn -0.2487 0.6679 0.7015
vn -0.0986 0.6619 0.7431
vn -0.0498 -0.7310 0.6806
vn -0.2074 -0.7414 0.6382
vn -0.3199 -0.1110 0.9409
vn -0.0114 -0.1285 0.9916
vn -0.3569 -0.7358 0.5754
vn -0.5926 -0.1371 0.7937
vn 0.3527 0.7369 -0.5766
vn 0.2851 0.9562 0.0660
vn -0.0124 0.9999 -0.0054
vn 0.2057 0.7450 -0.6345
vn 0.3710 0.9113 0.1781
vn -0.0301 0.9984 0.0466
vn -0.4257 0.9000 -0.0935
vn -0.2903 0.9480 -0.1302
vn 0.0543 0.7327 -0.6784
vn 0.2328 0.9479 0.2175
vn -0.0471 0.9942 0.0966
vn -0.3412 0.9397 0.0218
vn -0.2324 0.6618 -0.7127
vn -0.3996 0.9026 -0.1600
vn -0.0184 0.9998 -0.0082
vn 0.1983 0.7434 -0.6388
vn -0.3424 0.9374 -0.0631
vn -0.0364 0.9983 0.0445
vn -0.3678 0.9271 -0.0723
vn -0.2418 0.9636 -0.1139
vn 0.0851 0.7364 -0.6712
vn -0.4455 0.8949 -0.0254
vn -0.0541 0.9938 0.0966
vn -0.6406 0.5926 0.4882
vn -0.2571 0.6667 0.6995
vn -0.3661 0.6606 0.6553
vn -0.2943 0.9548 0.0406
vn 0.7038 0.6829 0.1954
vn 0.7302 0.6215 0.2838
vn 0.8521 0.4952 -0.1694
vn 0.6596 0.6473 -0.3819
vn 0.4933 0.8564 0.1523
vn 0.4166 0.8886 0.1920
vn 0.6534 0.6745 0.3436
vn 0.5557 0.4455 0.7019
vn 0.4529 0.8500 0.2689
vn 0.2637 0.5822 0.7690
vn 0.4809 0.0519 0.8752
vn 0.5529 -0.0226 0.8329
vn 0.2222 0.0238 0.9747
vn 0.1582 -0.0407 0.9865
vn 0.4875 -0.1038 0.8669
vn 0.5844 -0.4737 0.6589
vn 0.2296 -0.0980 0.9683
vn 0.5907 0.1362 -0.7953
vn 0.9118 0.1243 -0.3912
vn 0.6901 0.0545 -0.7217
vn 0.9453 0.0436 -0.3231
vn 0.7274 0.0539 -0.6840
vn 0.7702 0.1136 -0.6276
vn 0.5947 -0.0244 -0.8035
vn 0.9166 -0.0322 -0.3986
vn 0.3926 -0.6577 -0.6428
vn 0.8798 -0.4251 -0.2124
vn 0.7742 -0.0074 -0.6329
vn 0.3412 -0.9397 -0.0218
vn 0.7442 -0.6546 0.1329
vn 0.4257 -0.9000 0.0935
vn 0.7670 -0.6002 0.2267
vn 0.2910 -0.9474 0.1329
vn 0.6937 -0.6630 0.2811
vn -0.7268 -0.6071 0.3211
vn -0.6235 -0.7541 -0.2059
vn 0.0506 -0.9983 0.0279
vn -0.1538 -0.7486 0.6449
vn -0.6043 -0.7570 -0.2486
vn 0.0486 -0.9981 -0.0361
vn 0.6746 -0.7113 0.1974
vn 0.6673 -0.6975 0.2611
vn 0.4063 -0.5687 0.7151
vn -0.5947 -0.7485 -0.2933
vn 0.0596 -0.9937 -0.0944
vn -0.3595 -0.5442 -0.7580
vn 0.2597 -0.6703 -0.6951
vn 0.7734 -0.5216 -0.3601
vn 0.6852 -0.7124 0.1511
vn 0.2359 -0.9190 0.3159
vn -0.1965 -0.0638 0.9784
vn -0.5742 0.1325 0.8079
vn 0.8978 -0.4282 -0.1025
vn 0.8428 -0.0782 0.5325
vn 0.4136 0.6724 0.6138
vn 0.3139 -0.8185 0.4812
vn 0.6659 -0.5890 0.4578
vn -0.4501 0.4385 -0.7779
vn -0.7831 -0.5042 0.3641
vn 0.9680 0.2500 -0.0207
vn 0.8990 0.0684 0.4324
vn -0.7215 -0.0570 0.6901
vn -0.6810 -0.0167 0.7320
vn -0.8847 0.0430 0.4640
vn -0.9021 0.0036 0.4314
vn -0.5503 0.3618 0.7525
vn -0.8889 0.0172 0.4578
vn -0.5823 0.6470 0.4923
vn -0.7980 0.5135 0.3153
vn -0.8813 -0.1473 0.4491
vn -0.8985 -0.1018 0.4269
vn -0.6843 -0.0951 0.7230
vn -0.8420 -0.3979 0.3642
vn -0.6653 -0.6503 0.3666
vn -0.7589 -0.4939 0.4244
vn -0.8622 -0.2647 0.4319
vn -0.9284 0.1578 0.3363
vn -0.6423 0.6883 -0.3371
vn -0.7924 0.2104 -0.5725
vn -0.9979 -0.0502 0.0399
vn 0.0953 0.7186 -0.6888
vn -0.3420 0.0797 -0.9363
vn -0.6786 0.0210 -0.7342
vn -0.8513 0.3806 0.3611
vn -0.9247 0.0020 0.3806
vn -0.9216 -0.0114 0.3879
vn -0.9327 -0.0401 0.3583
vn -0.9241 -0.0502 0.3788
vn -0.9461 -0.0773 0.3144
vn -0.9509 -0.0461 0.3061
vn -0.9012 -0.0405 0.4314
vn -0.8939 -0.0464 0.4457
vn -0.9113 -0.0494 0.4087
vn -0.9071 -0.0464 0.4184
vn -0.8998 -0.0461 0.4337
vn -0.9023 -0.0772 0.4241
vn -0.8995 -0.1157 0.4213
vn -0.9109 -0.1137 0.3966
vn -0.9162 -0.2206 0.3345
vn -0.8790 -0.3271 0.3468
vn -0.9179 -0.1482 0.3680
vn -0.9326 -0.0866 0.3503
vn -0.9520 -0.0281 0.3048
vn -0.9973 -0.0573 0.0444
vn 0.1129 -0.6529 -0.7489
vn -0.6079 -0.6742 -0.4193
vn -0.7919 -0.2502 -0.5570
vn -0.3411 -0.0067 -0.9400
vn 0.1292 -0.6644 -0.7360
vn -0.1834 -0.9620 -0.2021
vn 0.0407 -0.9943 -0.0984
vn 0.2408 -0.6680 -0.7041
vn -0.3118 -0.9367 -0.1592
vn 0.0237 -0.9985 -0.0483
vn -0.2856 -0.9464 -0.1508
vn -0.3464 -0.9061 -0.2430
vn -0.1968 -0.6046 -0.7718
vn -0.2354 -0.9706 -0.0504
vn 0.0069 -1.0000 0.0010
vn -0.3221 -0.7402 0.5902
vn -0.2138 -0.7445 0.6324
vn -0.6045 -0.6731 0.4260
vn -0.3908 -0.9137 -0.1114
vn 0.9505 -0.0077 0.3105
vn 0.9463 0.0148 0.3228
vn 0.8728 0.3840 0.3012
vn 0.8809 0.3778 0.2852
vn 0.9464 0.0134 0.3227
vn 0.9705 0.1420 0.1946
vn 0.6677 0.6342 -0.3898
vn 0.4783 0.8627 0.1641
vn 0.3046 0.9433 0.1317
vn 0.9464 0.0135 0.3227
vn 0.9979 0.0569 -0.0304
vn 0.9957 0.0373 -0.0843
vn 0.6722 0.0612 -0.7378
vn 0.7629 0.1107 -0.6370
vn 0.9999 0.0087 -0.0036
vn 0.9464 0.0134 0.3226
vn 0.9780 -0.0832 0.1914
vn 0.7186 -0.5383 -0.4403
vn 0.7758 0.0013 -0.6309
vn 0.9224 -0.2632 0.2825
vn 0.9466 0.0191 0.3218
vn 0.9011 -0.3332 0.2776
vn 0.3581 -0.9256 0.1223
vn 0.5799 -0.8104 0.0823
vn 0.9663 0.0967 0.2383
vn 0.9714 -0.1019 0.2142
vn 0.2335 -0.9318 0.2780
vn 0.9384 0.1055 -0.3290
vn 0.9650 0.0411 -0.2588
vn 0.5563 0.7003 -0.4472
vn 0.0783 0.1574 -0.9844
vn 0.4780 0.0553 -0.8766
vn 0.9443 -0.0101 -0.3290
vn 0.5553 -0.6226 -0.5514
vn 0.0641 -0.0424 -0.9970
vn 0.7666 -0.6229 0.1556
vn 0.8012 -0.5536 0.2269
vn 0.7320 0.6480 0.2101
vn 0.7962 0.5324 0.2873
vn 0.9786 -0.1619 0.1266
vn 0.9665 0.1654 0.1963
vn 0.9323 0.2384 0.2718
vn 0.2785 0.8620 0.4234
vn 0.8859 -0.3713 0.2782
vn 0.4379 0.8767 0.1989
vn 0.3445 0.9347 0.0872
vn 0.7214 0.6626 0.2011
vn 0.7569 0.5853 0.2908
vn 0.3909 0.7318 -0.5582
vn 0.8600 0.4853 -0.1572
vn 0.6460 0.6552 -0.3916
vn 0.4716 0.8702 0.1426
vn 0.3894 0.9026 0.1836
vn -0.0547 0.6572 0.7517
vn 0.2939 0.9262 0.2359
vn 0.6713 0.6545 0.3477
vn 0.5697 0.4368 0.6961
vn 0.4299 0.8634 0.2641
vn 0.1838 -0.0403 0.9821
vn 0.0466 0.0336 0.9983
vn 0.5052 0.0527 0.8614
vn 0.5898 -0.0199 0.8073
vn -0.0130 -0.7264 0.6871
vn 0.0513 -0.1235 0.9910
vn 0.5099 -0.1022 0.8541
vn 0.5946 -0.4702 0.6521
vn 0.6428 0.1334 -0.7543
vn 0.9226 0.1226 -0.3657
vn 0.7443 0.0535 -0.6656
vn 0.9593 0.0420 -0.2791
vn 0.7071 0.0542 -0.7049
vn 0.7537 0.1173 -0.6466
vn 0.6475 -0.0237 -0.7617
vn 0.9273 -0.0323 -0.3729
vn 0.4326 -0.6518 -0.6229
vn 0.8814 -0.4278 -0.2004
vn 0.6808 -0.5838 -0.4423
vn 0.7584 -0.0091 -0.6517
vn 0.4003 -0.9164 0.0007
vn 0.7320 -0.6695 0.1262
vn 0.4903 -0.8636 0.1176
vn 0.7708 -0.5956 0.2261
vn 0.4184 -0.9042 0.0857
vn 0.5132 -0.8561 0.0607
vn 0.3497 -0.9249 0.1495
vn 0.6947 -0.6620 0.2813
vn 0.4783 -0.8596 0.1795
vn -0.1163 0.0428 -0.9923
vn 0.3183 0.0538 -0.9464
vn 0.3115 0.1166 -0.9431
vn 0.0630 0.1340 -0.9890
vn 0.3186 0.0001 -0.9479
vn 0.0710 -0.0342 -0.9969
vn -0.1067 0.0432 -0.9933
vn 0.3215 0.0538 -0.9453
vn 0.3194 0.1094 -0.9413
vn 0.0148 0.1280 -0.9916
vn 0.0987 -0.6619 -0.7430
vn 0.3227 0.0009 -0.9465
vn 0.0207 -0.0325 -0.9992
vn 0.9463 0.0203 0.3225
vn 0.9467 0.0178 0.3217
vn 0.9465 0.0147 0.3224
vn 0.9460 0.0164 0.3236
vn 0.9459 0.0197 0.3239
vn 0.9472 0.0043 0.3207
vn 0.9470 -0.0010 0.3211
vn 0.9464 0.0130 0.3226
vn 0.9464 0.0126 0.3227
vn 0.9460 -0.0002 0.3241
vn 0.9463 0.0132 0.3229
vn 0.9458 0.0055 0.3246
vn 0.9463 0.0112 0.3232
vn 0.9236 0.0143 0.3830
vn 0.9209 0.0084 0.3897
vn 0.9332 0.0489 0.3561
vn 0.3773 0.5379 0.7538
vn 0.4107 0.0103 0.9117
vn 0.4149 -0.0315 0.9093
vn 0.9416 0.0787 0.3274
vn 0.9424 0.0853 0.3233
vn 0.6282 0.7380 0.2464
vn 0.6117 0.7355 0.2913
vn 0.9430 0.0840 0.3220
vn 0.9540 0.0559 0.2945
vn 0.7361 0.6070 -0.2995
vn 0.6454 0.7314 0.2200
vn 0.9638 0.0219 0.2657
vn 0.9649 0.0168 0.2621
vn 0.8811 0.0477 -0.4705
vn 0.8796 0.0938 -0.4663
vn 0.9187 -0.0099 0.3947
vn 0.9237 -0.0636 0.3777
vn 0.4227 -0.0969 0.9011
vn 0.9409 -0.0679 0.3319
vn 0.9447 -0.0600 0.3223
vn 0.9641 0.0115 0.2652
vn 0.9568 -0.0231 0.2899
vn 0.8816 0.0038 -0.4719
vn 0.9463 -0.0537 0.3189
vn 0.3192 0.1097 -0.9413
vn -0.1304 0.0423 -0.9905
vn -0.2040 0.1044 -0.9734
vn -0.2880 0.6442 -0.7085
vn 0.2003 0.7488 -0.6318
vn 0.2524 -0.6725 -0.6957
vn 0.3227 0.0014 -0.9465
vn -0.2555 -0.5865 -0.7685
vn -0.2019 -0.0228 -0.9791
vn -0.5619 -0.4417 -0.6994
vn -0.5564 -0.7794 -0.2879
vn 0.0373 -0.9943 -0.1001
vn 0.2362 -0.6681 -0.7056
vn -0.5765 -0.7809 -0.2405
vn 0.0202 -0.9985 -0.0500
vn -0.5894 -0.7849 -0.1910
vn 0.0032 -1.0000 0.0003
vn -0.8556 -0.4909 0.1641
vn -0.2185 -0.7442 0.6312
vn 0.0551 -0.9943 -0.0913
vn 0.0388 -0.9982 -0.0464
vn -0.3911 -0.9017 -0.1845
vn -0.4335 -0.8621 -0.2624
vn 0.0180 -0.9998 0.0052
vn -0.4734 -0.8691 -0.1433
vn -0.6425 0.7453 -0.1781
vn -0.6655 0.7335 -0.1376
vn -0.0359 0.9943 0.0999
vn -0.0083 0.9988 0.0468
vn -0.7602 0.5297 0.3761
vn -0.2371 0.6652 0.7079
vn -0.3890 0.5967 -0.7018
vn -0.6311 0.7435 -0.2210
vn 0.0124 0.9999 0.0044
vn 0.2237 0.7502 -0.6221
vn -0.3052 0.6336 -0.7109
vn -0.5052 0.8422 -0.1882
vn -0.0129 0.9999 -0.0038
vn 0.2058 0.7449 -0.6346
vn -0.4696 0.8760 -0.1102
vn -0.0299 0.9985 0.0461
vn -0.5443 0.8358 -0.0710
vn -0.0483 0.9938 0.1002
vn -0.6934 0.5672 0.4445
vn -0.2501 0.6665 0.7023
vn -0.3314 -0.0540 0.9420
vn -0.3324 -0.0009 0.9431
vn -0.8485 -0.0502 0.5267
vn -0.8469 0.0009 0.5316
vn -0.8831 0.4211 0.2067
vn -0.2610 0.6677 0.6971
vn -0.3292 -0.1069 0.9381
vn -0.8439 -0.1014 0.5268
vn -0.6653 0.6955 -0.2713
vn -0.5651 0.4881 -0.6651
vn -0.7291 0.6510 -0.2109
vn -0.7167 0.6869 -0.1200
vn -0.8692 0.4367 0.2319
vn -0.5517 0.0260 0.8336
vn -0.8951 0.0328 0.4447
vn -0.6400 -0.0548 0.7664
vn -0.9208 -0.0452 0.3872
vn -0.7248 -0.0515 0.6870
vn -0.7714 0.0100 0.6362
vn -0.5460 -0.1355 0.8267
vn -0.8932 -0.1272 0.4313
vn -0.8410 -0.5081 0.1857
vn -0.7704 -0.1126 0.6275
vn -0.0396 0.0454 -0.9982
vn 0.0686 0.1300 -0.9891
vn -0.4466 0.1081 -0.8881
vn -0.4963 0.0255 -0.8678
vn -0.2291 0.0994 -0.9683
vn -0.1592 0.0413 -0.9864
vn 0.0742 -0.0316 -0.9967
vn -0.4418 -0.0516 -0.8956
vn -0.5366 -0.4571 -0.7093
vn -0.2260 -0.0216 -0.9739
vn -0.6230 -0.7060 -0.3367
vn -0.6892 -0.6712 -0.2727
vn -0.6745 -0.7146 -0.1855
vn -0.3814 0.9114 0.1543
vn -0.0649 0.9977 0.0161
vn -0.2401 0.9666 0.0897
vn -0.0235 0.9997 -0.0074
vn 0.1844 0.7502 -0.6349
vn -0.2096 0.9636 0.1660
vn -0.2328 -0.9479 -0.2175
vn 0.0471 -0.9942 -0.0966
vn -0.3710 -0.9113 -0.1781
vn -0.2873 -0.9557 -0.0643
vn 0.0109 -0.9999 0.0096
vn -0.4762 0.8600 -0.1831
vn -0.0174 0.9998 -0.0074
vn -0.4335 0.8954 -0.1015
vn -0.0317 0.9986 0.0431
vn -0.5228 0.8502 -0.0610
vn -0.0486 0.9938 0.0998
vn 0.3152 0.0537 -0.9475
vn 0.3131 0.1087 -0.9434
vn -0.0107 0.0463 -0.9988
vn -0.1063 0.1141 -0.9878
vn 0.3164 0.0011 -0.9486
vn -0.1027 -0.0264 -0.9944
vn -0.6172 -0.0545 0.7849
vn -0.3281 -0.0531 0.9431
vn -0.3294 0.0008 0.9442
vn -0.6877 0.0164 0.7258
vn -0.3258 -0.1064 0.9394
vn -0.6861 -0.1237 0.7169
vn -0.3153 0.1263 -0.9405
vn -0.3824 0.5976 -0.7047
vn -0.4308 0.0291 -0.9020
vn -0.3097 -0.0569 -0.9491
vn -0.3478 -0.5513 -0.7583
vn -0.5209 -0.7920 -0.3184
vn -0.6617 -0.7021 -0.2630
vn -0.5417 -0.8310 -0.1268
vn -0.7402 -0.5787 0.3423
vn -0.5684 0.7855 -0.2447
vn -0.7034 0.6826 -0.1983
vn -0.5910 0.8051 -0.0503
vn -0.7742 0.4978 0.3908
vn -0.8597 0.0426 0.5090
vn -0.9250 -0.0456 0.3771
vn -0.6191 0.0266 0.7848
vn -0.7668 -0.0542 0.6395
vn -0.8540 -0.1417 0.5006
vn -0.6133 -0.1365 0.7779
vn -0.4140 -0.0566 0.9085
vn -0.3808 -0.0311 0.9241
vn -0.3792 -0.0774 0.9221
vn -0.0227 0.9997 -0.0069
vn 0.1937 0.7438 -0.6396
vn -0.0399 0.9983 0.0433
vn -0.6231 0.7638 -0.1684
vn -0.6031 0.7679 -0.2156
vn -0.5894 0.4703 -0.6568
vn -0.0569 0.9940 0.0934
vn -0.6361 0.7624 -0.1187
vn -0.3222 -0.0516 0.9452
vn -0.3243 0.0023 0.9459
vn -0.3194 -0.1055 0.9417
vn -0.3838 0.0307 -0.9229
vn -0.3915 0.0783 -0.9168
vn 0.3268 0.1116 -0.9385
vn 0.3287 0.0527 -0.9429
vn -0.3872 -0.0152 -0.9218
vn 0.3302 -0.0025 -0.9439
vn 0.3335 0.0576 -0.9410
vn 0.3343 0.0993 -0.9372
vn 0.2263 -0.6645 -0.7122
vn 0.3327 0.0181 -0.9429
vn -0.3511 0.0331 -0.9358
vn 0.3117 0.0537 -0.9486
vn 0.3097 0.1066 -0.9448
vn -0.3486 0.0844 -0.9334
vn 0.3129 0.0006 -0.9498
vn -0.3455 -0.0179 -0.9382
vn -0.6611 0.6992 -0.2720
vn -0.5615 0.4955 -0.6627
vn -0.7428 0.6328 -0.2185
vn -0.7255 0.6770 -0.1235
vn -0.8697 0.4370 0.2291
vn -0.9051 0.0332 0.4239
vn -0.9355 -0.0446 0.3503
vn -0.9002 -0.1269 0.4165
vn -0.8415 -0.5076 0.1850
vn -0.4609 0.1079 -0.8809
vn -0.5275 0.0237 -0.8492
vn -0.4565 -0.0526 -0.8881
vn -0.5374 -0.4566 -0.7089
vn -0.6342 -0.6943 -0.3401
vn -0.7124 -0.6438 -0.2790
vn -0.6858 -0.7030 -0.1885
vn 0.3195 0.1074 -0.9415
vn -0.4467 -0.8769 0.1772
vn -0.5210 -0.8406 0.1478
vn -0.0432 -0.9960 -0.0782
vn 0.0427 -0.9916 -0.1218
vn -0.4127 -0.8824 0.2259
vn -0.8692 -0.0036 0.4944
vn -0.3099 -0.0005 0.9507
vn -0.8662 -0.0476 0.4975
vn -0.3029 -0.0523 0.9516
vn -0.8684 -0.0956 0.4865
vn -0.2943 -0.1118 0.9491
vn -0.9923 0.0005 -0.1238
vn -0.9736 0.0912 -0.2090
vn -0.9914 -0.0239 -0.1283
vn -0.9406 0.1871 -0.2832
vn -0.9335 0.1852 -0.3070
vn -0.9247 0.1898 -0.3298
vn -0.9025 0.1031 -0.4181
vn -0.8624 0.0223 -0.5057
vn -0.8636 -0.0025 -0.5042
vn -0.9908 -0.0487 -0.1261
vn -0.9670 -0.1297 -0.2192
vn -0.9284 -0.2163 -0.3020
vn -0.9215 -0.2117 -0.3255
vn -0.8609 -0.0269 -0.5081
vn -0.8958 -0.1178 -0.4284
vn -0.9126 -0.2136 -0.3487
s 1
f 1/1/1 2/2/2 3/3/3 4/4/4
f 2/2/2 5/5/5 218/6/6 3/3/3
f 3/3/3 218/6/6 6/7/7 411/8/8
f 4/4/4 3/3/3 411/8/8 410/9/9
f 7/10/10 337/11/11 8/12/12 9/13/13
f 337/11/11 336/14/14 222/15/15 8/12/12
f 8/12/12 222/15/15 5/5/5 2/2/2
f 9/13/13 8/12/12 2/2/2 1/1/1
f 241/16/16 195/17/17 10/18/18 11/19/19
f 195/17/17 194/20/20 12/21/21 10/18/18
f 10/18/18 12/21/21 445/22/22 13/23/23
f 11/19/19 10/18/18 13/23/23 242/24/24
f 194/20/20 199/25/25 14/26/26 15/27/27
f 199/25/25 97/28/28 107/29/29 14/26/26
f 14/26/26 107/29/29 16/30/30 17/31/31
f 15/27/27 14/26/26 17/31/31 462/32/32
f 194/20/20 15/27/27 18/33/33 12/21/21
f 15/27/27 462/32/32 449/34/34 18/33/33
f 12/21/21 18/33/33 449/34/34 445/22/22
f 545/35/35 87/36/36 19/37/37 546/38/38
f 87/36/36 86/39/39 20/40/40 19/37/37
f 19/37/37 20/40/40 21/41/41 383/42/42
f 546/38/38 19/37/37 383/42/42 548/43/43
f 86/39/39 90/44/44 22/45/45 20/40/40
f 90/44/44 74/46/46 23/47/47 22/45/45
f 22/45/45 23/47/47 24/48/48 386/49/49
f 20/40/40 22/45/45 386/49/49 21/41/41
f 25/50/50 26/51/51 27/52/52 243/53/53
f 26/51/51 28/54/54 29/55/55 27/52/52
f 27/52/52 29/55/55 191/56/56 190/57/57
f 243/53/53 27/52/52 190/57/57 246/58/58
f 30/59/59 31/60/60 32/61/61 33/62/62
f 31/60/60 34/63/63 35/64/64 32/61/61
f 32/61/61 35/64/64 206/65/65 205/66/66
f 33/62/62 32/61/61 205/66/66 191/56/56
f 30/59/59 33/62/62 36/67/67 440/68/68
f 33/62/62 191/56/56 29/55/55 36/67/67
f 440/68/68 36/67/67 29/55/55 28/54/54
f 37/69/69 38/70/70 39/71/71 40/72/72
f 38/70/70 520/73/73 41/74/74 39/71/71
f 39/71/71 41/74/74 42/75/75 50/76/76
f 40/72/72 39/71/71 50/76/76 43/77/77
f 69/78/78 403/79/79 44/80/80 70/81/81
f 403/79/79 524/82/82 522/83/83 44/80/80
f 44/80/80 522/83/83 520/73/73 38/70/70
f 70/81/81 44/80/80 38/70/70 37/69/69
f 60/84/84 57/85/85 45/86/86 254/87/87
f 57/85/85 46/88/88 47/89/89 45/86/86
f 45/86/86 47/89/89 512/90/90 509/91/91
f 254/87/87 45/86/86 509/91/91 255/92/92
f 46/88/88 48/93/93 49/94/94 47/89/89
f 48/93/93 43/77/77 50/76/76 49/94/94
f 49/94/94 50/76/76 42/75/75 515/95/95
f 47/89/89 49/94/94 515/95/95 512/90/90
f 425/96/96 442/97/97 51/98/98 416/99/99
f 442/97/97 441/100/100 52/101/101 51/98/98
f 51/98/98 52/101/101 361/102/102 358/103/103
f 416/99/99 51/98/98 358/103/103 417/104/104
f 441/100/100 53/105/105 54/106/106 52/101/101
f 53/105/105 446/107/107 55/108/108 54/106/106
f 54/106/106 55/108/108 365/109/109 56/110/110
f 52/101/101 54/106/106 56/110/110 361/102/102
f 46/111/88 57/112/85 58/113/111 59/114/112
f 57/112/85 60/115/84 61/116/113 58/113/111
f 58/113/111 61/116/113 544/117/114 62/118/115
f 59/114/112 58/113/111 62/118/115 347/119/116
f 43/120/77 48/121/93 63/122/117 64/123/118
f 48/121/93 46/111/88 59/114/112 63/122/117
f 63/122/117 59/114/112 347/119/116 65/124/119
f 64/123/118 63/122/117 65/124/119 66/125/120
f 37/126/69 40/127/72 67/128/121 68/129/122
f 40/127/72 43/120/77 64/123/118 67/128/121
f 67/128/121 64/123/118 66/125/120 480/130/123
f 68/129/122 67/128/121 480/130/123 479/131/124
f 69/132/78 70/133/81 71/134/125 72/135/126
f 70/133/81 37/126/69 68/129/122 71/134/125
f 71/134/125 68/129/122 479/131/124 73/136/127
f 72/135/126 71/134/125 73/136/127 74/137/46
f 60/115/84 253/138/128 75/139/129 61/116/113
f 253/138/128 252/140/130 76/141/131 75/139/129
f 75/139/129 76/141/131 538/142/132 77/143/133
f 61/116/113 75/139/129 77/143/133 544/117/114
f 252/140/130 78/144/134 79/145/135 76/141/131
f 78/144/134 80/146/136 81/147/137 79/145/135
f 79/145/135 81/147/137 545/148/35 82/149/138
f 76/141/131 79/145/135 82/149/138 538/142/132
f 80/146/136 400/150/139 83/151/140 81/147/137
f 400/150/139 84/152/141 85/153/142 83/151/140
f 83/151/140 85/153/142 86/154/39 87/155/36
f 81/147/137 83/151/140 87/155/36 545/148/35
f 84/152/141 88/156/143 89/157/144 85/153/142
f 88/156/143 69/158/78 72/159/126 89/157/144
f 89/157/144 72/159/126 74/160/46 90/161/44
f 85/153/142 89/157/144 90/161/44 86/154/39
f 585/162/145 91/163/146 92/164/147 93/165/148
f 91/163/146 590/166/149 94/167/150 92/164/147
f 92/164/147 94/167/150 95/168/151 304/169/152
f 93/165/148 92/164/147 304/169/152 563/170/153
f 590/166/149 596/171/154 96/172/155 94/167/150
f 596/171/154 594/173/156 492/174/157 96/172/155
f 96/172/155 492/174/157 307/175/158 310/176/159
f 94/167/150 96/172/155 310/176/159 95/168/151
f 97/177/28 198/178/160 98/179/161 99/180/162
f 198/181/160 100/182/163 201/183/164 98/179/161
f 99/180/162 98/179/161 201/183/164 393/184/165
f 558/185/166 101/186/167 102/187/168 103/188/169
f 101/186/167 104/189/170 204/190/171 102/187/168
f 103/188/169 102/187/168 204/191/171 206/192/65
f 458/193/172 461/194/173 105/195/174 106/196/175
f 461/194/173 16/197/30 107/198/29 105/195/174
f 106/196/175 105/195/174 107/198/29 97/199/28
f 97/177/28 99/180/162 108/200/176 109/201/177
f 99/180/162 393/184/165 110/202/178 108/200/176
f 109/201/177 108/200/176 110/202/178 111/203/179
f 206/204/65 35/205/64 112/206/180 113/207/181
f 35/205/64 34/208/63 114/209/182 112/206/180
f 113/207/181 112/206/180 114/209/182 458/193/172
f 115/210/183 116/211/184 117/212/185 118/213/186
f 116/211/184 558/185/166 103/188/169 117/212/185
f 118/213/186 117/212/185 103/188/169 206/192/65
f 389/214/187 119/215/188 120/216/189 121/217/190
f 119/215/188 496/218/191 122/219/192 120/216/189
f 121/217/190 120/216/189 122/219/192 123/220/193
f 111/221/179 390/222/194 124/223/195 125/224/196
f 390/222/194 389/225/187 126/226/197 124/223/195
f 125/224/196 124/223/195 126/226/197 127/227/198
f 127/227/198 126/226/197 128/228/199 129/229/200
f 126/226/197 389/225/187 121/230/190 128/228/199
f 129/229/200 128/228/199 121/230/190 123/231/193
f 97/199/28 109/232/177 130/233/201 131/234/202
f 109/232/177 111/221/179 125/224/196 130/233/201
f 131/234/202 130/233/201 125/224/196 127/227/198
f 206/204/65 113/207/181 132/235/203 133/236/204
f 113/207/181 458/193/172 106/196/175 132/235/203
f 133/236/204 132/235/203 106/196/175 97/199/28
f 206/204/65 133/236/204 134/237/205 135/238/206
f 133/236/204 97/199/28 131/234/202 134/237/205
f 135/238/206 134/237/205 131/234/202 127/227/198
f 115/239/183 118/240/186 136/241/207 137/242/208
f 118/240/186 206/204/65 135/238/206 136/241/207
f 137/242/208 136/241/207 135/238/206 127/227/198
f 138/243/209 553/244/210 139/245/211 140/246/212
f 553/244/210 115/239/183 137/242/208 139/245/211
f 140/246/212 139/245/211 137/242/208 127/227/198
f 138/243/209 140/246/212 141/247/213 142/248/214
f 140/246/212 127/227/198 129/229/200 141/247/213
f 142/248/214 141/247/213 129/229/200 123/231/193
f 143/249/215 554/250/216 144/251/217 502/252/218
f 554/250/216 138/253/209 142/254/214 144/251/217
f 502/252/218 144/251/217 142/254/214 123/220/193
f 145/255/219 380/256/220 146/257/221 147/258/222
f 380/256/220 148/259/223 149/260/224 146/257/221
f 146/257/221 149/260/224 150/261/225 151/262/226
f 147/258/222 146/257/221 151/262/226 152/263/227
f 148/259/223 384/264/228 153/265/229 149/260/224
f 384/264/228 154/266/230 422/267/231 153/265/229
f 153/265/229 422/267/231 155/268/232 437/269/233
f 149/260/224 153/265/229 437/269/233 150/261/225
f 156/270/234 157/271/235 158/272/236 159/273/237
f 157/271/235 160/274/238 161/275/239 158/272/236
f 158/272/236 161/275/239 498/276/240 162/277/241
f 159/273/237 158/272/236 162/277/241 163/278/242
f 160/279/238 164/280/243 165/281/244 161/282/239
f 164/280/243 166/283/243 167/284/245 165/281/244
f 165/281/244 167/284/245 168/285/246 495/286/247
f 161/282/239 165/281/244 495/286/247 498/287/240
f 166/283/243 169/288/243 170/289/248 167/284/245
f 169/288/243 171/290/249 172/291/250 170/289/248
f 170/289/248 172/291/250 556/292/251 501/293/252
f 167/284/245 170/289/248 501/293/252 168/285/246
f 171/294/249 173/295/238 174/296/253 172/297/250
f 173/295/238 175/298/254 176/299/255 174/296/253
f 174/296/253 176/299/255 549/300/256 177/301/257
f 172/297/250 174/296/253 177/301/257 556/302/251
f 175/298/254 178/303/258 179/304/259 176/299/255
f 178/303/258 104/189/170 101/186/167 179/304/259
f 179/304/259 101/186/167 558/185/166 180/305/260
f 176/299/255 179/304/259 180/305/260 549/300/256
f 166/283/243 164/280/243 181/306/261 182/307/262
f 164/280/243 160/279/238 183/308/263 181/306/261
f 181/309/261 183/310/263 241/16/16 184/311/264
f 182/312/262 181/309/261 184/311/264 185/313/265
f 171/290/249 169/288/243 186/314/266 187/315/267
f 169/288/243 166/283/243 182/307/262 186/314/266
f 186/316/266 182/312/262 185/313/265 247/317/268
f 187/318/267 186/316/266 247/317/268 246/58/58
f 175/298/254 173/295/238 188/319/269 189/320/270
f 173/295/238 171/294/249 187/321/267 188/319/269
f 188/322/269 187/318/267 246/58/58 190/57/57
f 189/323/270 188/322/269 190/57/57 191/56/56
f 160/274/238 157/271/235 192/324/271 183/325/263
f 157/271/235 156/270/234 193/326/272 192/324/271
f 192/327/271 193/328/272 194/20/20 195/17/17
f 183/310/263 192/327/271 195/17/17 241/16/16
f 156/270/234 196/329/273 197/330/274 193/326/272
f 196/329/273 100/182/163 198/181/160 197/330/274
f 197/331/274 198/332/160 97/28/28 199/25/25
f 193/328/272 197/331/274 199/25/25 194/20/20
f 100/182/163 196/329/273 200/333/275 201/183/164
f 196/329/273 156/270/234 159/273/237 200/333/275
f 200/333/275 159/273/237 163/278/242 202/334/276
f 201/183/164 200/333/275 202/334/276 393/184/165
f 104/189/170 178/303/258 203/335/277 204/190/171
f 178/303/258 175/298/254 189/320/270 203/335/277
f 203/336/277 189/323/270 191/56/56 205/66/66
f 204/337/171 203/336/277 205/66/66 206/65/65
f 467/338/278 207/339/279 208/340/280 209/341/281
f 207/339/279 465/342/282 210/343/283 208/340/280
f 208/344/280 210/345/283 408/346/284 407/347/285
f 209/348/281 208/344/280 407/347/285 211/349/286
f 473/350/287 471/351/288 212/352/289 213/353/290
f 471/351/288 467/338/278 209/341/281 212/352/289
f 212/354/289 209/348/281 211/349/286 214/355/291
f 213/356/290 212/354/289 214/355/291 6/357/7
f 215/358/292 352/359/293 216/360/294 217/361/295
f 352/359/293 473/350/287 213/353/290 216/360/294
f 216/362/294 213/356/290 6/357/7 218/363/6
f 217/364/295 216/362/294 218/363/6 5/365/5
f 219/366/296 356/367/297 220/368/298 221/369/299
f 356/367/297 215/358/292 217/361/295 220/368/298
f 220/370/298 217/364/295 5/365/5 222/371/15
f 221/372/299 220/370/298 222/371/15 336/373/14
f 465/342/282 223/374/300 224/375/301 210/343/283
f 223/374/300 505/376/302 225/377/303 224/375/301
f 224/378/301 225/379/303 311/380/304 226/381/305
f 210/345/283 224/378/301 226/381/305 408/346/284
f 505/376/302 227/382/306 228/383/307 225/377/303
f 227/382/306 326/384/308 229/385/309 228/383/307
f 228/386/307 229/387/309 230/388/310 231/389/311
f 225/379/303 228/386/307 231/389/311 311/380/304
f 326/384/308 325/390/312 232/391/313 229/385/309
f 325/390/312 324/392/314 233/393/315 232/391/313
f 232/394/313 233/395/315 332/396/316 234/397/317
f 229/387/309 232/394/313 234/397/317 230/388/310
f 324/392/314 235/398/318 236/399/319 233/393/315
f 235/398/318 219/400/296 221/401/299 236/399/319
f 236/402/319 221/403/299 336/404/14 237/405/320
f 233/395/315 236/402/319 237/405/320 332/396/316
f 431/406/321 238/407/322 239/408/323 240/409/324
f 238/407/322 185/313/265 184/311/264 239/408/323
f 239/408/323 184/311/264 241/16/16 11/19/19
f 240/409/324 239/408/323 11/19/19 242/24/24
f 25/50/50 243/53/53 244/410/325 245/411/326
f 243/53/53 246/58/58 247/317/268 244/410/325
f 244/410/325 247/317/268 185/313/265 238/407/322
f 245/411/326 244/410/325 238/407/322 431/406/321
f 248/412/327 249/413/328 250/414/329 251/415/330
f 249/413/328 252/416/130 253/417/128 250/414/329
f 250/414/329 253/417/128 60/84/84 254/87/87
f 251/415/330 250/414/329 254/87/87 255/92/92
f 395/418/331 398/419/38 256/420/332 257/421/333
f 398/419/38 80/422/136 78/423/134 256/420/332
f 256/420/332 78/423/134 252/416/130 249/413/328
f 257/421/333 256/420/332 249/413/328 248/412/327
f 258/424/243 259/425/243 260/426/243 261/427/243
f 259/425/243 262/428/243 263/429/243 260/426/243
f 260/426/243 263/429/243 264/430/334 265/431/335
f 261/427/243 260/426/243 265/431/335 266/432/336
f 262/428/243 267/433/243 268/434/243 263/429/243
f 267/433/243 269/435/243 270/436/243 268/434/243
f 268/434/243 270/436/243 271/437/337 272/438/338
f 263/429/243 268/434/243 272/438/338 264/430/334
f 273/439/339 274/440/340 275/441/341 276/442/342
f 274/440/340 277/443/343 278/444/344 275/441/341
f 275/441/341 278/444/344 262/428/243 259/425/243
f 276/442/342 275/441/341 259/425/243 258/424/243
f 277/443/343 279/445/345 280/446/243 278/444/344
f 279/445/345 281/447/346 282/448/243 280/446/243
f 280/446/243 282/448/243 269/435/243 267/433/243
f 278/444/344 280/446/243 267/433/243 262/428/243
f 258/424/243 261/427/243 283/449/347 284/450/348
f 261/427/243 266/432/336 285/451/349 283/449/347
f 283/449/347 285/451/349 286/452/350 287/453/351
f 284/450/348 283/449/347 287/453/351 288/454/352
f 266/432/336 265/431/335 289/455/353 285/451/349
f 265/431/335 264/430/334 290/456/354 289/455/353
f 289/455/353 290/456/354 291/457/355 292/458/356
f 285/451/349 289/455/353 292/458/356 286/452/350
f 264/430/334 272/438/338 293/459/357 290/456/354
f 272/438/338 271/437/337 294/460/358 293/459/357
f 293/459/357 294/460/358 295/461/359 296/462/360
f 290/456/354 293/459/357 296/462/360 291/457/355
f 271/437/337 270/436/243 297/463/361 294/460/358
f 270/436/243 269/435/243 298/464/362 297/463/361
f 297/463/361 298/464/362 489/465/363 488/466/364
f 294/460/358 297/463/361 488/466/364 295/461/359
f 273/439/339 276/442/342 299/467/365 300/468/366
f 276/442/342 258/424/243 284/450/348 299/467/365
f 299/467/365 284/450/348 288/454/352 301/469/367
f 300/468/366 299/467/365 301/469/367 563/470/153
f 277/443/343 274/440/340 302/471/368 303/472/369
f 274/440/340 273/439/339 300/468/366 302/471/368
f 302/471/368 300/468/366 563/470/153 304/473/152
f 303/472/369 302/471/368 304/473/152 95/474/151
f 269/435/243 282/448/243 305/475/370 298/464/362
f 282/448/243 281/447/346 306/476/371 305/475/370
f 305/475/370 306/476/371 307/477/158 308/478/372
f 298/464/362 305/475/370 308/478/372 489/465/363
f 281/447/346 279/445/345 309/479/373 306/476/371
f 279/445/345 277/443/343 303/472/369 309/479/373
f 309/479/373 303/472/369 95/474/151 310/480/159
f 306/476/371 309/479/373 310/480/159 307/477/158
f 311/481/304 312/482/328 313/483/374 226/484/305
f 312/482/328 528/485/375 314/486/376 313/483/374
f 313/483/374 314/486/376 315/487/377 316/488/378
f 226/484/305 313/483/374 316/488/378 408/489/284
f 230/490/310 317/491/379 318/492/380 231/493/311
f 317/491/379 319/494/381 531/495/382 318/492/380
f 318/492/380 531/495/382 528/485/375 312/482/328
f 231/493/311 318/492/380 312/482/328 311/481/304
f 591/496/383 320/497/384 321/498/385 322/499/386
f 320/497/384 588/500/387 323/501/388 321/498/385
f 321/498/385 323/501/388 324/392/314 325/390/312
f 322/499/386 321/498/385 325/390/312 326/384/308
f 588/500/387 327/502/389 328/503/390 323/501/388
f 327/502/389 329/504/391 330/505/392 328/503/390
f 328/503/390 330/505/392 219/400/296 235/398/318
f 323/501/388 328/503/390 235/398/318 324/392/314
f 230/490/310 234/506/317 331/507/393 317/491/379
f 234/506/317 332/508/316 333/509/394 331/507/393
f 331/507/393 333/509/394 334/510/395 535/511/396
f 317/491/379 331/507/393 535/511/396 319/494/381
f 332/508/316 237/512/320 335/513/397 333/509/394
f 237/512/320 336/514/14 337/515/11 335/513/397
f 335/513/397 337/515/11 7/516/10 537/517/398
f 333/509/394 335/513/397 537/517/398 334/510/395
f 573/518/399 572/519/400 338/520/401 339/521/402
f 572/519/400 340/522/403 341/523/404 338/520/401
f 338/520/401 341/523/404 286/524/350 292/525/356
f 339/521/402 338/520/401 292/525/356 291/526/355
f 577/527/405 342/528/406 343/529/407 487/530/408
f 342/528/406 573/518/399 339/521/402 343/529/407
f 343/529/407 339/521/402 291/526/355 296/531/360
f 487/530/408 343/529/407 296/531/360 295/532/359
f 542/533/409 363/534/410 344/535/411 543/536/412
f 363/534/410 345/537/413 346/538/414 344/535/411
f 344/535/411 346/538/414 347/539/116 62/540/115
f 543/536/412 344/535/411 62/540/115 544/541/114
f 345/537/413 367/542/415 348/543/416 346/538/414
f 367/542/415 481/544/417 349/545/418 348/543/416
f 348/543/416 349/545/418 66/546/120 65/547/119
f 346/538/414 348/543/416 65/547/119 347/539/116
f 215/358/292 350/548/419 351/549/420 352/359/293
f 350/548/419 566/550/421 353/551/422 351/549/420
f 351/549/420 353/551/422 354/552/423 474/553/424
f 352/359/293 351/549/420 474/553/424 473/350/287
f 219/366/296 330/554/392 355/555/425 356/367/297
f 330/554/392 329/556/391 357/557/426 355/555/425
f 355/555/425 357/557/426 566/550/421 350/548/419
f 356/367/297 355/555/425 350/548/419 215/358/292
f 417/558/104 358/559/103 359/560/427 360/561/428
f 358/559/103 361/562/102 362/563/429 359/560/427
f 359/560/427 362/563/429 345/564/413 363/565/410
f 360/561/428 359/560/427 363/565/410 542/566/409
f 361/562/102 56/567/110 364/568/430 362/563/429
f 56/567/110 365/569/109 366/570/431 364/568/430
f 364/568/430 366/570/431 481/571/417 367/572/415
f 362/563/429 364/568/430 367/572/415 345/564/413
f 365/569/109 421/573/432 368/574/433 366/570/431
f 421/573/432 369/575/434 370/576/435 368/574/433
f 368/574/433 370/576/435 475/577/436 478/578/437
f 366/570/431 368/574/433 478/578/437 481/571/417
f 369/575/434 424/579/438 371/580/439 370/576/435
f 424/579/438 154/581/230 372/582/440 371/580/439
f 371/580/439 372/582/440 24/583/48 483/584/441
f 370/576/435 371/580/439 483/584/441 475/577/436
f 412/585/442 415/586/443 373/587/444 374/588/445
f 415/586/443 417/558/104 360/561/428 373/587/444
f 373/587/444 360/561/428 542/566/409 375/589/446
f 374/588/445 373/587/444 375/589/446 541/590/447
f 145/591/219 376/592/448 377/593/449 378/594/450
f 376/592/448 412/585/442 374/588/445 377/593/449
f 377/593/449 374/588/445 541/590/447 379/595/451
f 378/594/450 377/593/449 379/595/451 548/596/43
f 148/597/223 380/598/220 381/599/452 382/600/453
f 380/598/220 145/591/219 378/594/450 381/599/452
f 381/599/452 378/594/450 548/596/43 383/601/42
f 382/600/453 381/599/452 383/601/42 21/602/41
f 154/603/230 384/604/228 385/605/454 372/606/440
f 384/604/228 148/597/223 382/600/453 385/605/454
f 385/605/454 382/600/453 21/602/41 386/607/49
f 372/606/440 385/605/454 386/607/49 24/608/48
f 496/609/191 119/610/188 387/611/455 388/612/456
f 119/610/188 389/613/187 390/614/194 387/611/455
f 387/611/455 390/614/194 111/203/179 391/615/457
f 388/612/456 387/611/455 391/615/457 163/278/242
f 496/609/191 388/612/456 392/616/458 497/617/459
f 388/612/456 163/278/242 162/277/241 392/616/458
f 497/617/459 392/616/458 162/277/241 498/276/240
f 393/184/165 202/334/276 394/618/460 110/202/178
f 202/334/276 163/278/242 391/615/457 394/618/460
f 110/202/178 394/618/460 391/615/457 111/203/179
f 395/418/331 396/619/461 397/620/462 398/419/38
f 396/619/461 532/621/463 399/622/40 397/620/462
f 397/620/462 399/622/40 84/623/141 400/624/139
f 398/419/38 397/620/462 400/624/139 80/422/136
f 532/621/463 401/625/464 402/626/465 399/622/40
f 401/625/464 524/627/82 403/628/79 402/626/465
f 402/626/465 403/628/79 69/629/78 88/630/143
f 399/622/40 402/626/465 88/630/143 84/623/141
f 315/487/377 404/631/466 405/632/467 316/488/378
f 404/631/466 514/633/468 406/634/469 405/632/467
f 405/632/467 406/634/469 211/635/286 407/636/285
f 316/488/378 405/632/467 407/636/285 408/489/284
f 514/633/468 518/637/470 409/638/471 406/634/469
f 518/637/470 410/9/9 411/8/8 409/638/471
f 409/638/471 411/8/8 6/7/7 214/639/291
f 406/634/469 409/638/471 214/639/291 211/635/286
f 412/640/442 413/641/472 414/642/473 415/643/443
f 413/641/472 429/644/474 426/645/475 414/642/473
f 414/642/473 426/645/475 425/96/96 416/99/99
f 415/643/443 414/642/473 416/99/99 417/104/104
f 145/255/219 147/258/222 418/646/476 376/647/448
f 147/258/222 152/263/227 432/648/477 418/646/476
f 418/646/476 432/648/477 429/644/474 413/641/472
f 376/647/448 418/646/476 413/641/472 412/640/442
f 450/649/478 419/650/479 420/651/480 451/652/481
f 419/650/479 369/653/434 421/654/432 420/651/480
f 420/651/480 421/654/432 365/109/109 55/108/108
f 451/652/481 420/651/480 55/108/108 446/107/107
f 155/655/232 422/656/231 423/657/482 456/658/483
f 422/656/231 154/659/230 424/660/438 423/657/482
f 423/657/482 424/660/438 369/653/434 419/650/479
f 456/658/483 423/657/482 419/650/479 450/649/478
f 425/661/96 426/662/475 427/663/484 428/664/485
f 426/662/475 429/665/474 430/666/486 427/663/484
f 427/663/484 430/666/486 431/667/321 240/668/324
f 428/664/485 427/663/484 240/668/324 242/669/24
f 429/665/474 432/670/477 433/671/487 430/666/486
f 432/670/477 152/672/227 434/673/488 433/671/487
f 433/671/487 434/673/488 25/674/50 245/675/326
f 430/666/486 433/671/487 245/675/326 431/667/321
f 152/672/227 151/676/226 435/677/489 434/673/488
f 151/676/226 150/678/225 436/679/490 435/677/489
f 435/677/489 436/679/490 28/680/54 26/681/51
f 434/673/488 435/677/489 26/681/51 25/674/50
f 150/678/225 437/682/233 438/683/491 436/679/490
f 437/682/233 155/684/232 439/685/492 438/683/491
f 438/683/491 439/685/492 30/686/59 440/687/68
f 436/679/490 438/683/491 440/687/68 28/680/54
f 441/688/100 442/689/97 443/690/493 444/691/494
f 442/689/97 425/661/96 428/664/485 443/690/493
f 443/690/493 428/664/485 242/669/24 13/692/23
f 444/691/494 443/690/493 13/692/23 445/693/22
f 446/694/107 53/695/105 447/696/495 448/697/496
f 53/695/105 441/688/100 444/691/494 447/696/495
f 447/696/495 444/691/494 445/693/22 449/698/34
f 448/697/496 447/696/495 449/698/34 462/699/32
f 450/700/478 451/701/481 452/702/497 453/703/498
f 451/701/481 446/694/107 448/697/496 452/702/497
f 452/702/497 448/697/496 462/699/32 454/704/499
f 453/703/498 452/702/497 454/704/499 455/705/500
f 155/706/232 456/707/483 457/708/501 439/709/492
f 456/707/483 450/700/478 453/703/498 457/708/501
f 457/708/501 453/703/498 455/705/500 464/710/502
f 439/709/492 457/708/501 464/710/502 30/711/59
f 458/193/172 459/712/503 460/713/504 461/194/173
f 459/712/503 455/714/500 454/715/499 460/713/504
f 460/713/504 454/715/499 462/716/32 17/717/31
f 461/194/173 460/713/504 17/717/31 16/197/30
f 34/208/63 31/718/60 463/719/505 114/209/182
f 31/718/60 30/720/59 464/721/502 463/719/505
f 463/719/505 464/721/502 455/714/500 459/712/503
f 114/209/182 463/719/505 459/712/503 458/193/172
f 465/342/282 207/339/279 466/722/506 506/723/507
f 207/339/279 467/338/278 468/724/508 466/722/506
f 466/722/506 468/724/508 469/725/509 470/726/510
f 506/723/507 466/722/506 470/726/510 574/727/511
f 467/338/278 471/351/288 472/728/512 468/724/508
f 471/351/288 473/350/287 474/553/424 472/728/512
f 472/728/512 474/553/424 354/552/423 569/729/513
f 468/724/508 472/728/512 569/729/513 469/725/509
f 475/730/436 476/731/514 477/732/515 478/733/437
f 476/731/514 479/734/124 480/735/123 477/732/515
f 477/732/515 480/735/123 66/546/120 349/545/418
f 478/733/437 477/732/515 349/545/418 481/544/417
f 24/736/48 23/737/47 482/738/516 483/739/441
f 23/737/47 74/740/46 73/741/127 482/738/516
f 482/738/516 73/741/127 479/734/124 476/731/514
f 483/739/441 482/738/516 476/731/514 475/730/436
f 484/742/517 582/743/518 485/744/519 486/745/520
f 582/743/518 577/527/405 487/530/408 485/744/519
f 485/744/519 487/530/408 295/532/359 488/746/364
f 486/745/520 485/744/519 488/746/364 489/747/363
f 594/173/156 490/748/521 491/749/522 492/174/157
f 490/748/521 484/742/517 486/745/520 491/749/522
f 491/749/522 486/745/520 489/747/363 308/750/372
f 492/174/157 491/749/522 308/750/372 307/175/158
f 168/285/246 493/751/523 494/752/524 495/286/247
f 493/751/523 123/220/193 122/219/192 494/752/524
f 494/752/524 122/219/192 496/218/191 497/753/459
f 495/286/247 494/752/524 497/753/459 498/287/240
f 556/292/251 499/754/525 500/755/526 501/293/252
f 499/754/525 143/249/215 502/252/218 500/755/526
f 500/755/526 502/252/218 123/220/193 493/751/523
f 501/293/252 500/755/526 493/751/523 168/285/246
f 578/756/527 503/757/528 504/758/529 579/759/530
f 503/757/528 505/376/302 223/374/300 504/758/529
f 504/758/529 223/374/300 465/342/282 506/723/507
f 579/759/530 504/758/529 506/723/507 574/727/511
f 591/496/383 322/499/386 507/760/531 508/761/532
f 322/499/386 326/384/308 227/382/306 507/760/531
f 507/760/531 227/382/306 505/376/302 503/757/528
f 508/761/532 507/760/531 503/757/528 578/756/527
f 255/762/92 509/763/91 510/764/533 511/765/534
f 509/763/91 512/766/90 513/767/535 510/764/533
f 510/764/533 513/767/535 514/768/468 404/769/466
f 511/765/534 510/764/533 404/769/466 315/770/377
f 512/766/90 515/771/95 516/772/536 513/767/535
f 515/771/95 42/773/75 517/774/537 516/772/536
f 516/772/536 517/774/537 410/775/9 518/776/470
f 513/767/535 516/772/536 518/776/470 514/768/468
f 42/773/75 41/777/74 519/778/538 517/774/537
f 41/777/74 520/779/73 521/780/539 519/778/538
f 519/778/538 521/780/539 1/781/1 4/782/4
f 517/774/537 519/778/538 4/782/4 410/775/9
f 520/779/73 522/783/83 523/784/540 521/780/539
f 522/783/83 524/785/82 525/786/541 523/784/540
f 523/784/540 525/786/541 7/787/10 9/788/13
f 521/780/539 523/784/540 9/788/13 1/781/1
f 248/789/327 251/790/330 526/791/542 527/792/543
f 251/790/330 255/762/92 511/765/534 526/791/542
f 526/791/542 511/765/534 315/770/377 314/793/376
f 527/792/543 526/791/542 314/793/376 528/794/375
f 395/795/331 257/796/333 529/797/544 530/798/545
f 257/796/333 248/789/327 527/792/543 529/797/544
f 529/797/544 527/792/543 528/794/375 531/799/382
f 530/798/545 529/797/544 531/799/382 319/800/381
f 532/801/463 396/802/461 533/803/546 534/804/547
f 396/802/461 395/795/331 530/798/545 533/803/546
f 533/803/546 530/798/545 319/800/381 535/805/396
f 534/804/547 533/803/546 535/805/396 334/806/395
f 524/807/82 401/808/464 536/809/548 525/810/541
f 401/808/464 532/801/463 534/804/547 536/809/548
f 536/809/548 534/804/547 334/806/395 537/811/398
f 525/810/541 536/809/548 537/811/398 7/812/10
f 538/813/132 539/814/328 540/815/549 77/816/133
f 539/814/328 541/817/447 375/818/446 540/815/549
f 540/815/549 375/818/446 542/533/409 543/536/412
f 77/816/133 540/815/549 543/536/412 544/541/114
f 545/35/35 546/38/38 547/819/380 82/820/138
f 546/38/38 548/43/43 379/821/451 547/819/380
f 547/819/380 379/821/451 541/817/447 539/814/328
f 82/820/138 547/819/380 539/814/328 538/813/132
f 549/300/256 550/822/550 551/823/551 552/824/552
f 550/822/550 115/210/183 553/825/210 551/823/551
f 551/823/551 553/825/210 138/826/209 554/827/216
f 552/824/552 551/823/551 554/827/216 143/828/215
f 549/300/256 552/824/552 555/829/553 177/301/257
f 552/824/552 143/828/215 499/830/525 555/829/553
f 177/301/257 555/829/553 499/830/525 556/302/251
f 115/210/183 550/822/550 557/831/554 116/211/184
f 550/822/550 549/300/256 180/305/260 557/831/554
f 116/211/184 557/831/554 180/305/260 558/185/166
f 340/522/403 559/832/555 560/833/556 341/523/404
f 559/832/555 568/834/557 561/835/558 560/833/556
f 560/833/556 561/835/558 288/836/352 287/837/351
f 341/523/404 560/833/556 287/837/351 286/524/350
f 568/834/557 586/838/559 562/839/560 561/835/558
f 586/838/559 585/840/145 93/841/148 562/839/560
f 562/839/560 93/841/148 563/842/153 301/843/367
f 561/835/558 562/839/560 301/843/367 288/836/352
f 354/844/423 353/845/422 564/846/561 565/847/562
f 353/845/422 566/848/421 567/849/563 564/846/561
f 564/846/561 567/849/563 568/850/557 559/851/555
f 565/847/562 564/846/561 559/851/555 340/852/403
f 469/853/509 569/854/513 570/855/564 571/856/565
f 569/854/513 354/844/423 565/847/562 570/855/564
f 570/855/564 565/847/562 340/852/403 572/857/400
f 571/856/565 570/855/564 572/857/400 573/858/399
f 574/859/511 470/860/510 575/861/566 576/862/567
f 470/860/510 469/853/509 571/856/565 575/861/566
f 575/861/566 571/856/565 573/858/399 342/863/406
f 576/862/567 575/861/566 342/863/406 577/864/405
f 578/865/527 579/866/530 580/867/568 581/868/569
f 579/866/530 574/859/511 576/862/567 580/867/568
f 580/867/568 576/862/567 577/864/405 582/869/518
f 581/868/569 580/867/568 582/869/518 484/870/517
f 566/848/421 357/871/426 583/872/570 567/849/563
f 357/871/426 329/873/391 584/874/571 583/872/570
f 583/872/570 584/874/571 585/875/145 586/876/559
f 567/849/563 583/872/570 586/876/559 568/850/557
f 329/877/391 327/878/389 587/879/572 584/880/571
f 327/878/389 588/881/387 589/882/573 587/879/572
f 587/879/572 589/882/573 590/883/149 91/884/146
f 584/880/571 587/879/572 91/884/146 585/885/145
f 591/886/383 508/887/532 592/888/574 593/889/575
f 508/887/532 578/865/527 581/868/569 592/888/574
f 592/888/574 581/868/569 484/870/517 490/890/521
f 593/889/575 592/888/574 490/890/521 594/891/156
f 588/881/387 320/892/384 595/893/576 589/882/573
f 320/892/384 591/886/383 593/889/575 595/893/576
f 595/893/576 593/889/575 594/891/156 596/894/154
f 589/882/573 595/893/576 596/894/154 590/883/149
